inputs/verilator/surfer_issue_201.vcd
$date
	Mon Mar  4 22:11:47 2024

$end
$version
	fstWriter
$end
$timescale
	1ps
$end
$scope module TOP $end
$var wire 1 ! clk $end
$scope module top $end
$var wire 1 ! clk $end
$scope module vga_gen $end
$var parameter 32 " div_width [31:0] $end
$var parameter 32 # x_width [31:0] $end
$var parameter 32 # y_width [31:0] $end
$var wire 1 ! clk $end
$var wire 1 $ rst $end
$var wire 1 % en $end
$var wire 6 & vga_clk_div [5:0] $end
$var wire 10 ' h_fp_width [9:0] $end
$var wire 10 ( h_vid_width [9:0] $end
$var wire 10 ) h_bp_width [9:0] $end
$var wire 10 * h_sync_width [9:0] $end
$var wire 10 + v_fp_width [9:0] $end
$var wire 10 , v_vid_width [9:0] $end
$var wire 10 - v_bp_width [9:0] $end
$var wire 10 . v_sync_width [9:0] $end
$var logic 1 % pix_fsm_en $end
$var logic 1 % sync_fsm_en $end
$var logic 1 % fsm_delay [0:0] $end
$var logic 6 / pix_fsm_div [5:0] $end
$var logic 6 0 sync_fsm_div [5:0] $end
$var wire 1 1 pix_fsm_inc $end
$var wire 1 2 sync_fsm_inc $end
$var logic 10 3 pix_x [9:0] $end
$var logic 1 4 pix_h_vid_en $end
$var logic 1 5 pix_h_sync_en $end
$var logic 1 6 pix_h_cout $end
$var logic 10 7 pix_y [9:0] $end
$var logic 1 8 pix_v_vid_en $end
$var logic 1 9 pix_v_sync_en $end
$var logic 1 : pix_v_cout $end
$var logic 10 ; sync_x [9:0] $end
$var logic 1 < sync_h_vid_en $end
$var logic 1 = sync_h_sync_en $end
$var logic 1 > sync_h_cout $end
$var logic 10 ? sync_y [9:0] $end
$var logic 1 @ sync_v_vid_en $end
$var logic 1 A sync_v_sync_en $end
$var logic 1 B sync_v_cout $end
$scope module pix_fsm_x $end
$var parameter 32 # width [31:0] $end
$var wire 1 ! clk $end
$var wire 1 $ rst $end
$var wire 1 1 inc $end
$var wire 10 ' fp_width [9:0] $end
$var wire 10 ( vid_width [9:0] $end
$var wire 10 ) bp_width [9:0] $end
$var wire 10 * sync_width [9:0] $end
$var wire 10 3 count [9:0] $end
$var wire 1 4 vid_en $end
$var wire 1 5 sync_en $end
$var wire 1 6 cout $end
$var logic 2 C state [1:0] $end
$var logic 1 D state_inc $end
$upscope $end
$scope module pix_fsm_y $end
$var parameter 32 # width [31:0] $end
$var wire 1 ! clk $end
$var wire 1 $ rst $end
$var wire 1 E inc $end
$var wire 10 + fp_width [9:0] $end
$var wire 10 , vid_width [9:0] $end
$var wire 10 - bp_width [9:0] $end
$var wire 10 . sync_width [9:0] $end
$var wire 10 7 count [9:0] $end
$var wire 1 8 vid_en $end
$var wire 1 9 sync_en $end
$var wire 1 : cout $end
$var logic 2 F state [1:0] $end
$var logic 1 G state_inc $end
$upscope $end
$scope module sync_fsm_x $end
$var parameter 32 # width [31:0] $end
$var wire 1 ! clk $end
$var wire 1 $ rst $end
$var wire 1 2 inc $end
$var wire 10 ' fp_width [9:0] $end
$var wire 10 ( vid_width [9:0] $end
$var wire 10 ) bp_width [9:0] $end
$var wire 10 * sync_width [9:0] $end
$var wire 10 ; count [9:0] $end
$var wire 1 < vid_en $end
$var wire 1 = sync_en $end
$var wire 1 > cout $end
$var logic 2 H state [1:0] $end
$var logic 1 I state_inc $end
$upscope $end
$scope module sync_fsm_y $end
$var parameter 32 # width [31:0] $end
$var wire 1 ! clk $end
$var wire 1 $ rst $end
$var wire 1 J inc $end
$var wire 10 + fp_width [9:0] $end
$var wire 10 , vid_width [9:0] $end
$var wire 10 - bp_width [9:0] $end
$var wire 10 . sync_width [9:0] $end
$var wire 10 ? count [9:0] $end
$var wire 1 @ vid_en $end
$var wire 1 A sync_en $end
$var wire 1 B cout $end
$var logic 2 K state [1:0] $end
$var logic 1 L state_inc $end
$upscope $end
$upscope $end
$upscope $end
$scope module svfloat::ffunc $end
$var parameter 32 M exp_width [31:0] $end
$var parameter 32 N man_width [31:0] $end
$var parameter 32 O width [31:0] $end
$var parameter 32 P man_off [31:0] $end
$var parameter 32 Q exp_bias [31:0] $end
$var parameter 32 R exp_max [31:0] $end
$var parameter 32 S texp_width [31:0] $end
$upscope $end
$scope module top $end
$scope interface pix_port $end
$var parameter 32 T latency [31:0] $end
$var logic 1 U d_trig $end
$var logic 14 V d_x [13:0] $end
$var logic 14 W d_y [13:0] $end
$var logic 1 % d_ready $end
$var logic 32 X q_res [31:0] $end
$upscope $end
$scope module vga_gen $end
$scope interface pix $end
$var parameter 32 T latency [31:0] $end
$var logic 1 U d_trig $end
$var logic 14 V d_x [13:0] $end
$var logic 14 W d_y [13:0] $end
$var logic 1 % d_ready $end
$var logic 32 X q_res [31:0] $end
$upscope $end
$scope interface vga $end
$var parameter 32 Y r_width [31:0] $end
$var parameter 32 Y g_width [31:0] $end
$var parameter 32 Y b_width [31:0] $end
$var logic 1 = hsync $end
$var logic 1 A vsync $end
$var logic 8 Z r [7:0] $end
$var logic 8 [ g [7:0] $end
$var logic 8 \ b [7:0] $end
$upscope $end
$upscope $end
$scope interface vga_port $end
$var parameter 32 Y r_width [31:0] $end
$var parameter 32 Y g_width [31:0] $end
$var parameter 32 Y b_width [31:0] $end
$var logic 1 = hsync $end
$var logic 1 A vsync $end
$var logic 8 Z r [7:0] $end
$var logic 8 [ g [7:0] $end
$var logic 8 \ b [7:0] $end
$upscope $end
$upscope $end
$upscope $end
$enddefinitions $end
#0
$dumpvars
b00000000 \
b00000000 [
b00000000 Z
b00000000000000000000000000001000 Y
b00000000000000000000000000000000 X
b00000000000000 W
b00000000000000 V
0U
b00000000000000000000000000000000 T
b00000000000000000000000000000111 S
b00000000000000000000000000011111 R
b00000000000000000000000000001111 Q
b00000000000000000000000000101010 P
b00000000000000000000000000010000 O
b00000000000000000000000000001010 N
b00000000000000000000000000000101 M
1L
b00 K
0J
0I
b00 H
1G
b00 F
0E
0D
b00 C
0B
0A
0@
b0000000000 ?
0>
0=
0<
b0000000000 ;
0:
09
08
b0000000000 7
06
05
04
b0000000000 3
12
11
b000000 0
b000000 /
b0000000011 .
b0000010110 -
b1001010111 ,
b0000000000 +
b0001111111 *
b0001010111 )
b1100011111 (
b0000100111 '
b000000 &
1%
0$
b00000000000000000000000000001010 #
b00000000000000000000000000000110 "
1!
$end
#12500
0!
#25000
1!
b0000000001 3
b0000000001 ;
b00000000000001 V
#37500
0!
#50000
1!
b00000000000010 V
b0000000010 ;
b0000000010 3
#62500
0!
#75000
1!
b0000000011 3
b0000000011 ;
b00000000000011 V
#87500
0!
#100000
1!
b00000000000100 V
b0000000100 ;
b0000000100 3
#112500
0!
#125000
1!
b0000000101 3
b0000000101 ;
b00000000000101 V
#137500
0!
#150000
1!
b00000000000110 V
b0000000110 ;
b0000000110 3
#162500
0!
#175000
1!
b0000000111 3
b0000000111 ;
b00000000000111 V
#187500
0!
#200000
1!
b00000000001000 V
b0000001000 ;
b0000001000 3
#212500
0!
#225000
1!
b0000001001 3
b0000001001 ;
b00000000001001 V
#237500
0!
#250000
1!
b00000000001010 V
b0000001010 ;
b0000001010 3
#262500
0!
#275000
1!
b0000001011 3
b0000001011 ;
b00000000001011 V
#287500
0!
#300000
1!
b00000000001100 V
b0000001100 ;
b0000001100 3
#312500
0!
#325000
1!
b0000001101 3
b0000001101 ;
b00000000001101 V
#337500
0!
#350000
1!
b00000000001110 V
b0000001110 ;
b0000001110 3
#362500
0!
#375000
1!
b0000001111 3
b0000001111 ;
b00000000001111 V
#387500
0!
#400000
1!
b00000000010000 V
b0000010000 ;
b0000010000 3
#412500
0!
#425000
1!
b0000010001 3
b0000010001 ;
b00000000010001 V
#437500
0!
#450000
1!
b00000000010010 V
b0000010010 ;
b0000010010 3
#462500
0!
#475000
1!
b0000010011 3
b0000010011 ;
b00000000010011 V
#487500
0!
#500000
1!
b00000000010100 V
b0000010100 ;
b0000010100 3
#512500
0!
#525000
1!
b0000010101 3
b0000010101 ;
b00000000010101 V
#537500
0!
#550000
1!
b00000000010110 V
b0000010110 ;
b0000010110 3
#562500
0!
#575000
1!
b0000010111 3
b0000010111 ;
b00000000010111 V
#587500
0!
#600000
1!
b00000000011000 V
b0000011000 ;
b0000011000 3
#612500
0!
#625000
1!
b0000011001 3
b0000011001 ;
b00000000011001 V
#637500
0!
#650000
1!
b00000000011010 V
b0000011010 ;
b0000011010 3
#662500
0!
#675000
1!
b0000011011 3
b0000011011 ;
b00000000011011 V
#687500
0!
#700000
1!
b00000000011100 V
b0000011100 ;
b0000011100 3
#712500
0!
#725000
1!
b0000011101 3
b0000011101 ;
b00000000011101 V
#737500
0!
#750000
1!
b00000000011110 V
b0000011110 ;
b0000011110 3
#762500
0!
#775000
1!
b0000011111 3
b0000011111 ;
b00000000011111 V
#787500
0!
#800000
1!
b00000000100000 V
b0000100000 ;
b0000100000 3
#812500
0!
#825000
1!
b0000100001 3
b0000100001 ;
b00000000100001 V
#837500
0!
#850000
1!
b00000000100010 V
b0000100010 ;
b0000100010 3
#862500
0!
#875000
1!
b0000100011 3
b0000100011 ;
b00000000100011 V
#887500
0!
#900000
1!
b00000000100100 V
b0000100100 ;
b0000100100 3
#912500
0!
#925000
1!
b0000100101 3
b0000100101 ;
b00000000100101 V
#937500
0!
#950000
1!
b00000000100110 V
b0000100110 ;
b0000100110 3
#962500
0!
#975000
1!
b0000100111 3
b0000100111 ;
b00000000100111 V
1D
1I
#987500
0!
#1000000
1!
0I
0D
b00000000000000 V
b0000000000 ;
b0000000000 3
14
1<
b01 C
b01 H
#1012500
0!
#1025000
1!
b0000000001 3
b0000000001 ;
b00000000000001 V
#1037500
0!
#1050000
1!
b00000000000010 V
b0000000010 ;
b0000000010 3
#1062500
0!
#1075000
1!
b0000000011 3
b0000000011 ;
b00000000000011 V
#1087500
0!
#1100000
1!
b00000000000100 V
b0000000100 ;
b0000000100 3
#1112500
0!
#1125000
1!
b0000000101 3
b0000000101 ;
b00000000000101 V
#1137500
0!
#1150000
1!
b00000000000110 V
b0000000110 ;
b0000000110 3
#1162500
0!
#1175000
1!
b0000000111 3
b0000000111 ;
b00000000000111 V
#1187500
0!
#1200000
1!
b00000000001000 V
b0000001000 ;
b0000001000 3
#1212500
0!
#1225000
1!
b0000001001 3
b0000001001 ;
b00000000001001 V
#1237500
0!
#1250000
1!
b00000000001010 V
b0000001010 ;
b0000001010 3
#1262500
0!
#1275000
1!
b0000001011 3
b0000001011 ;
b00000000001011 V
#1287500
0!
#1300000
1!
b00000000001100 V
b0000001100 ;
b0000001100 3
#1312500
0!
#1325000
1!
b0000001101 3
b0000001101 ;
b00000000001101 V
#1337500
0!
#1350000
1!
b00000000001110 V
b0000001110 ;
b0000001110 3
#1362500
0!
#1375000
1!
b0000001111 3
b0000001111 ;
b00000000001111 V
#1387500
0!
#1400000
1!
b00000000010000 V
b0000010000 ;
b0000010000 3
#1412500
0!
#1425000
1!
b0000010001 3
b0000010001 ;
b00000000010001 V
#1437500
0!
#1450000
1!
b00000000010010 V
b0000010010 ;
b0000010010 3
#1462500
0!
#1475000
1!
b0000010011 3
b0000010011 ;
b00000000010011 V
#1487500
0!
#1500000
1!
b00000000010100 V
b0000010100 ;
b0000010100 3
#1512500
0!
#1525000
1!
b0000010101 3
b0000010101 ;
b00000000010101 V
#1537500
0!
#1550000
1!
b00000000010110 V
b0000010110 ;
b0000010110 3
#1562500
0!
#1575000
1!
b0000010111 3
b0000010111 ;
b00000000010111 V
#1587500
0!
#1600000
1!
b00000000011000 V
b0000011000 ;
b0000011000 3
#1612500
0!
#1625000
1!
b0000011001 3
b0000011001 ;
b00000000011001 V
#1637500
0!
#1650000
1!
b00000000011010 V
b0000011010 ;
b0000011010 3
#1662500
0!
#1675000
1!
b0000011011 3
b0000011011 ;
b00000000011011 V
#1687500
0!
#1700000
1!
b00000000011100 V
b0000011100 ;
b0000011100 3
#1712500
0!
#1725000
1!
b0000011101 3
b0000011101 ;
b00000000011101 V
#1737500
0!
#1750000
1!
b00000000011110 V
b0000011110 ;
b0000011110 3
#1762500
0!
#1775000
1!
b0000011111 3
b0000011111 ;
b00000000011111 V
#1787500
0!
#1800000
1!
b00000000100000 V
b0000100000 ;
b0000100000 3
#1812500
0!
#1825000
1!
b0000100001 3
b0000100001 ;
b00000000100001 V
#1837500
0!
#1850000
1!
b00000000100010 V
b0000100010 ;
b0000100010 3
#1862500
0!
#1875000
1!
b0000100011 3
b0000100011 ;
b00000000100011 V
#1887500
0!
#1900000
1!
b00000000100100 V
b0000100100 ;
b0000100100 3
#1912500
0!
#1925000
1!
b0000100101 3
b0000100101 ;
b00000000100101 V
#1937500
0!
#1950000
1!
b00000000100110 V
b0000100110 ;
b0000100110 3
#1962500
0!
#1975000
1!
b0000100111 3
b0000100111 ;
b00000000100111 V
#1987500
0!
#2000000
1!
b00000000101000 V
b0000101000 ;
b0000101000 3
#2012500
0!
#2025000
1!
b0000101001 3
b0000101001 ;
b00000000101001 V
#2037500
0!
#2050000
1!
b00000000101010 V
b0000101010 ;
b0000101010 3
#2062500
0!
#2075000
1!
b0000101011 3
b0000101011 ;
b00000000101011 V
#2087500
0!
#2100000
1!
b00000000101100 V
b0000101100 ;
b0000101100 3
#2112500
0!
#2125000
1!
b0000101101 3
b0000101101 ;
b00000000101101 V
#2137500
0!
#2150000
1!
b00000000101110 V
b0000101110 ;
b0000101110 3
#2162500
0!
#2175000
1!
b0000101111 3
b0000101111 ;
b00000000101111 V
#2187500
0!
#2200000
1!
b00000000110000 V
b0000110000 ;
b0000110000 3
#2212500
0!
#2225000
1!
b0000110001 3
b0000110001 ;
b00000000110001 V
#2237500
0!
#2250000
1!
b00000000110010 V
b0000110010 ;
b0000110010 3
#2262500
0!
#2275000
1!
b0000110011 3
b0000110011 ;
b00000000110011 V
#2287500
0!
#2300000
1!
b00000000110100 V
b0000110100 ;
b0000110100 3
#2312500
0!
#2325000
1!
b0000110101 3
b0000110101 ;
b00000000110101 V
#2337500
0!
#2350000
1!
b00000000110110 V
b0000110110 ;
b0000110110 3
#2362500
0!
#2375000
1!
b0000110111 3
b0000110111 ;
b00000000110111 V
#2387500
0!
#2400000
1!
b00000000111000 V
b0000111000 ;
b0000111000 3
#2412500
0!
#2425000
1!
b0000111001 3
b0000111001 ;
b00000000111001 V
#2437500
0!
#2450000
1!
b00000000111010 V
b0000111010 ;
b0000111010 3
#2462500
0!
#2475000
1!
b0000111011 3
b0000111011 ;
b00000000111011 V
#2487500
0!
#2500000
1!
b00000000111100 V
b0000111100 ;
b0000111100 3
#2512500
0!
#2525000
1!
b0000111101 3
b0000111101 ;
b00000000111101 V
#2537500
0!
#2550000
1!
b00000000111110 V
b0000111110 ;
b0000111110 3
#2562500
0!
#2575000
1!
b0000111111 3
b0000111111 ;
b00000000111111 V
#2587500
0!
#2600000
1!
b00000001000000 V
b0001000000 ;
b0001000000 3
#2612500
0!
#2625000
1!
b0001000001 3
b0001000001 ;
b00000001000001 V
#2637500
0!
#2650000
1!
b00000001000010 V
b0001000010 ;
b0001000010 3
#2662500
0!
#2675000
1!
b0001000011 3
b0001000011 ;
b00000001000011 V
#2687500
0!
#2700000
1!
b00000001000100 V
b0001000100 ;
b0001000100 3
#2712500
0!
#2725000
1!
b0001000101 3
b0001000101 ;
b00000001000101 V
#2737500
0!
#2750000
1!
b00000001000110 V
b0001000110 ;
b0001000110 3
#2762500
0!
#2775000
1!
b0001000111 3
b0001000111 ;
b00000001000111 V
#2787500
0!
#2800000
1!
b00000001001000 V
b0001001000 ;
b0001001000 3
#2812500
0!
#2825000
1!
b0001001001 3
b0001001001 ;
b00000001001001 V
#2837500
0!
#2850000
1!
b00000001001010 V
b0001001010 ;
b0001001010 3
#2862500
0!
#2875000
1!
b0001001011 3
b0001001011 ;
b00000001001011 V
#2887500
0!
#2900000
1!
b00000001001100 V
b0001001100 ;
b0001001100 3
#2912500
0!
#2925000
1!
b0001001101 3
b0001001101 ;
b00000001001101 V
#2937500
0!
#2950000
1!
b00000001001110 V
b0001001110 ;
b0001001110 3
#2962500
0!
#2975000
1!
b0001001111 3
b0001001111 ;
b00000001001111 V
#2987500
0!
#3000000
1!
b00000001010000 V
b0001010000 ;
b0001010000 3
#3012500
0!
#3025000
1!
b0001010001 3
b0001010001 ;
b00000001010001 V
#3037500
0!
#3050000
1!
b00000001010010 V
b0001010010 ;
b0001010010 3
#3062500
0!
#3075000
1!
b0001010011 3
b0001010011 ;
b00000001010011 V
#3087500
0!
#3100000
1!
b00000001010100 V
b0001010100 ;
b0001010100 3
#3112500
0!
#3125000
1!
b0001010101 3
b0001010101 ;
b00000001010101 V
#3137500
0!
#3150000
1!
b00000001010110 V
b0001010110 ;
b0001010110 3
#3162500
0!
#3175000
1!
b0001010111 3
b0001010111 ;
b00000001010111 V
#3187500
0!
#3200000
1!
b00000001011000 V
b0001011000 ;
b0001011000 3
#3212500
0!
#3225000
1!
b0001011001 3
b0001011001 ;
b00000001011001 V
#3237500
0!
#3250000
1!
b00000001011010 V
b0001011010 ;
b0001011010 3
#3262500
0!
#3275000
1!
b0001011011 3
b0001011011 ;
b00000001011011 V
#3287500
0!
#3300000
1!
b00000001011100 V
b0001011100 ;
b0001011100 3
#3312500
0!
#3325000
1!
b0001011101 3
b0001011101 ;
b00000001011101 V
#3337500
0!
#3350000
1!
b00000001011110 V
b0001011110 ;
b0001011110 3
#3362500
0!
#3375000
1!
b0001011111 3
b0001011111 ;
b00000001011111 V
#3387500
0!
#3400000
1!
b00000001100000 V
b0001100000 ;
b0001100000 3
#3412500
0!
#3425000
1!
b0001100001 3
b0001100001 ;
b00000001100001 V
#3437500
0!
#3450000
1!
b00000001100010 V
b0001100010 ;
b0001100010 3
#3462500
0!
#3475000
1!
b0001100011 3
b0001100011 ;
b00000001100011 V
#3487500
0!
#3500000
1!
b00000001100100 V
b0001100100 ;
b0001100100 3
#3512500
0!
#3525000
1!
b0001100101 3
b0001100101 ;
b00000001100101 V
#3537500
0!
#3550000
1!
b00000001100110 V
b0001100110 ;
b0001100110 3
#3562500
0!
#3575000
1!
b0001100111 3
b0001100111 ;
b00000001100111 V
#3587500
0!
#3600000
1!
b00000001101000 V
b0001101000 ;
b0001101000 3
#3612500
0!
#3625000
1!
b0001101001 3
b0001101001 ;
b00000001101001 V
#3637500
0!
#3650000
1!
b00000001101010 V
b0001101010 ;
b0001101010 3
#3662500
0!
#3675000
1!
b0001101011 3
b0001101011 ;
b00000001101011 V
#3687500
0!
#3700000
1!
b00000001101100 V
b0001101100 ;
b0001101100 3
#3712500
0!
#3725000
1!
b0001101101 3
b0001101101 ;
b00000001101101 V
#3737500
0!
#3750000
1!
b00000001101110 V
b0001101110 ;
b0001101110 3
#3762500
0!
#3775000
1!
b0001101111 3
b0001101111 ;
b00000001101111 V
#3787500
0!
#3800000
1!
b00000001110000 V
b0001110000 ;
b0001110000 3
#3812500
0!
#3825000
1!
b0001110001 3
b0001110001 ;
b00000001110001 V
#3837500
0!
#3850000
1!
b00000001110010 V
b0001110010 ;
b0001110010 3
#3862500
0!
#3875000
1!
b0001110011 3
b0001110011 ;
b00000001110011 V
#3887500
0!
#3900000
1!
b00000001110100 V
b0001110100 ;
b0001110100 3
#3912500
0!
#3925000
1!
b0001110101 3
b0001110101 ;
b00000001110101 V
#3937500
0!
#3950000
1!
b00000001110110 V
b0001110110 ;
b0001110110 3
#3962500
0!
#3975000
1!
b0001110111 3
b0001110111 ;
b00000001110111 V
#3987500
0!
#4000000
1!
b00000001111000 V
b0001111000 ;
b0001111000 3
#4012500
0!
#4025000
1!
b0001111001 3
b0001111001 ;
b00000001111001 V
#4037500
0!
#4050000
1!
b00000001111010 V
b0001111010 ;
b0001111010 3
#4062500
0!
#4075000
1!
b0001111011 3
b0001111011 ;
b00000001111011 V
#4087500
0!
#4100000
1!
b00000001111100 V
b0001111100 ;
b0001111100 3
#4112500
0!
#4125000
1!
b0001111101 3
b0001111101 ;
b00000001111101 V
#4137500
0!
#4150000
1!
b00000001111110 V
b0001111110 ;
b0001111110 3
#4162500
0!
#4175000
1!
b0001111111 3
b0001111111 ;
b00000001111111 V
#4187500
0!
#4200000
1!
b00000010000000 V
b0010000000 ;
b0010000000 3
#4212500
0!
#4225000
1!
b0010000001 3
b0010000001 ;
b00000010000001 V
#4237500
0!
#4250000
1!
b00000010000010 V
b0010000010 ;
b0010000010 3
#4262500
0!
#4275000
1!
b0010000011 3
b0010000011 ;
b00000010000011 V
#4287500
0!
#4300000
1!
b00000010000100 V
b0010000100 ;
b0010000100 3
#4312500
0!
#4325000
1!
b0010000101 3
b0010000101 ;
b00000010000101 V
#4337500
0!
#4350000
1!
b00000010000110 V
b0010000110 ;
b0010000110 3
#4362500
0!
#4375000
1!
b0010000111 3
b0010000111 ;
b00000010000111 V
#4387500
0!
#4400000
1!
b00000010001000 V
b0010001000 ;
b0010001000 3
#4412500
0!
#4425000
1!
b0010001001 3
b0010001001 ;
b00000010001001 V
#4437500
0!
#4450000
1!
b00000010001010 V
b0010001010 ;
b0010001010 3
#4462500
0!
#4475000
1!
b0010001011 3
b0010001011 ;
b00000010001011 V
#4487500
0!
#4500000
1!
b00000010001100 V
b0010001100 ;
b0010001100 3
#4512500
0!
#4525000
1!
b0010001101 3
b0010001101 ;
b00000010001101 V
#4537500
0!
#4550000
1!
b00000010001110 V
b0010001110 ;
b0010001110 3
#4562500
0!
#4575000
1!
b0010001111 3
b0010001111 ;
b00000010001111 V
#4587500
0!
#4600000
1!
b00000010010000 V
b0010010000 ;
b0010010000 3
#4612500
0!
#4625000
1!
b0010010001 3
b0010010001 ;
b00000010010001 V
#4637500
0!
#4650000
1!
b00000010010010 V
b0010010010 ;
b0010010010 3
#4662500
0!
#4675000
1!
b0010010011 3
b0010010011 ;
b00000010010011 V
#4687500
0!
#4700000
1!
b00000010010100 V
b0010010100 ;
b0010010100 3
#4712500
0!
#4725000
1!
b0010010101 3
b0010010101 ;
b00000010010101 V
#4737500
0!
#4750000
1!
b00000010010110 V
b0010010110 ;
b0010010110 3
#4762500
0!
#4775000
1!
b0010010111 3
b0010010111 ;
b00000010010111 V
#4787500
0!
#4800000
1!
b00000010011000 V
b0010011000 ;
b0010011000 3
#4812500
0!
#4825000
1!
b0010011001 3
b0010011001 ;
b00000010011001 V
#4837500
0!
#4850000
1!
b00000010011010 V
b0010011010 ;
b0010011010 3
#4862500
0!
#4875000
1!
b0010011011 3
b0010011011 ;
b00000010011011 V
#4887500
0!
#4900000
1!
b00000010011100 V
b0010011100 ;
b0010011100 3
#4912500
0!
#4925000
1!
b0010011101 3
b0010011101 ;
b00000010011101 V
#4937500
0!
#4950000
1!
b00000010011110 V
b0010011110 ;
b0010011110 3
#4962500
0!
#4975000
1!
b0010011111 3
b0010011111 ;
b00000010011111 V
#4987500
0!
#5000000
1!
b00000010100000 V
b0010100000 ;
b0010100000 3
#5012500
0!
#5025000
1!
b0010100001 3
b0010100001 ;
b00000010100001 V
#5037500
0!
#5050000
1!
b00000010100010 V
b0010100010 ;
b0010100010 3
#5062500
0!
#5075000
1!
b0010100011 3
b0010100011 ;
b00000010100011 V
#5087500
0!
#5100000
1!
b00000010100100 V
b0010100100 ;
b0010100100 3
#5112500
0!
#5125000
1!
b0010100101 3
b0010100101 ;
b00000010100101 V
#5137500
0!
#5150000
1!
b00000010100110 V
b0010100110 ;
b0010100110 3
#5162500
0!
#5175000
1!
b0010100111 3
b0010100111 ;
b00000010100111 V
#5187500
0!
#5200000
1!
b00000010101000 V
b0010101000 ;
b0010101000 3
#5212500
0!
#5225000
1!
b0010101001 3
b0010101001 ;
b00000010101001 V
#5237500
0!
#5250000
1!
b00000010101010 V
b0010101010 ;
b0010101010 3
#5262500
0!
#5275000
1!
b0010101011 3
b0010101011 ;
b00000010101011 V
#5287500
0!
#5300000
1!
b00000010101100 V
b0010101100 ;
b0010101100 3
#5312500
0!
#5325000
1!
b0010101101 3
b0010101101 ;
b00000010101101 V
#5337500
0!
#5350000
1!
b00000010101110 V
b0010101110 ;
b0010101110 3
#5362500
0!
#5375000
1!
b0010101111 3
b0010101111 ;
b00000010101111 V
#5387500
0!
#5400000
1!
b00000010110000 V
b0010110000 ;
b0010110000 3
#5412500
0!
#5425000
1!
b0010110001 3
b0010110001 ;
b00000010110001 V
#5437500
0!
#5450000
1!
b00000010110010 V
b0010110010 ;
b0010110010 3
#5462500
0!
#5475000
1!
b0010110011 3
b0010110011 ;
b00000010110011 V
#5487500
0!
#5500000
1!
b00000010110100 V
b0010110100 ;
b0010110100 3
#5512500
0!
#5525000
1!
b0010110101 3
b0010110101 ;
b00000010110101 V
#5537500
0!
#5550000
1!
b00000010110110 V
b0010110110 ;
b0010110110 3
#5562500
0!
#5575000
1!
b0010110111 3
b0010110111 ;
b00000010110111 V
#5587500
0!
#5600000
1!
b00000010111000 V
b0010111000 ;
b0010111000 3
#5612500
0!
#5625000
1!
b0010111001 3
b0010111001 ;
b00000010111001 V
#5637500
0!
#5650000
1!
b00000010111010 V
b0010111010 ;
b0010111010 3
#5662500
0!
#5675000
1!
b0010111011 3
b0010111011 ;
b00000010111011 V
#5687500
0!
#5700000
1!
b00000010111100 V
b0010111100 ;
b0010111100 3
#5712500
0!
#5725000
1!
b0010111101 3
b0010111101 ;
b00000010111101 V
#5737500
0!
#5750000
1!
b00000010111110 V
b0010111110 ;
b0010111110 3
#5762500
0!
#5775000
1!
b0010111111 3
b0010111111 ;
b00000010111111 V
#5787500
0!
#5800000
1!
b00000011000000 V
b0011000000 ;
b0011000000 3
#5812500
0!
#5825000
1!
b0011000001 3
b0011000001 ;
b00000011000001 V
#5837500
0!
#5850000
1!
b00000011000010 V
b0011000010 ;
b0011000010 3
#5862500
0!
#5875000
1!
b0011000011 3
b0011000011 ;
b00000011000011 V
#5887500
0!
#5900000
1!
b00000011000100 V
b0011000100 ;
b0011000100 3
#5912500
0!
#5925000
1!
b0011000101 3
b0011000101 ;
b00000011000101 V
#5937500
0!
#5950000
1!
b00000011000110 V
b0011000110 ;
b0011000110 3
#5962500
0!
#5975000
1!
b0011000111 3
b0011000111 ;
b00000011000111 V
#5987500
0!
#6000000
1!
b00000011001000 V
b0011001000 ;
b0011001000 3
#6012500
0!
#6025000
1!
b0011001001 3
b0011001001 ;
b00000011001001 V
#6037500
0!
#6050000
1!
b00000011001010 V
b0011001010 ;
b0011001010 3
#6062500
0!
#6075000
1!
b0011001011 3
b0011001011 ;
b00000011001011 V
#6087500
0!
#6100000
1!
b00000011001100 V
b0011001100 ;
b0011001100 3
#6112500
0!
#6125000
1!
b0011001101 3
b0011001101 ;
b00000011001101 V
#6137500
0!
#6150000
1!
b00000011001110 V
b0011001110 ;
b0011001110 3
#6162500
0!
#6175000
1!
b0011001111 3
b0011001111 ;
b00000011001111 V
#6187500
0!
#6200000
1!
b00000011010000 V
b0011010000 ;
b0011010000 3
#6212500
0!
#6225000
1!
b0011010001 3
b0011010001 ;
b00000011010001 V
#6237500
0!
#6250000
1!
b00000011010010 V
b0011010010 ;
b0011010010 3
#6262500
0!
#6275000
1!
b0011010011 3
b0011010011 ;
b00000011010011 V
#6287500
0!
#6300000
1!
b00000011010100 V
b0011010100 ;
b0011010100 3
#6312500
0!
#6325000
1!
b0011010101 3
b0011010101 ;
b00000011010101 V
#6337500
0!
#6350000
1!
b00000011010110 V
b0011010110 ;
b0011010110 3
#6362500
0!
#6375000
1!
b0011010111 3
b0011010111 ;
b00000011010111 V
#6387500
0!
#6400000
1!
b00000011011000 V
b0011011000 ;
b0011011000 3
#6412500
0!
#6425000
1!
b0011011001 3
b0011011001 ;
b00000011011001 V
#6437500
0!
#6450000
1!
b00000011011010 V
b0011011010 ;
b0011011010 3
#6462500
0!
#6475000
1!
b0011011011 3
b0011011011 ;
b00000011011011 V
#6487500
0!
#6500000
1!
b00000011011100 V
b0011011100 ;
b0011011100 3
#6512500
0!
#6525000
1!
b0011011101 3
b0011011101 ;
b00000011011101 V
#6537500
0!
#6550000
1!
b00000011011110 V
b0011011110 ;
b0011011110 3
#6562500
0!
#6575000
1!
b0011011111 3
b0011011111 ;
b00000011011111 V
#6587500
0!
#6600000
1!
b00000011100000 V
b0011100000 ;
b0011100000 3
#6612500
0!
#6625000
1!
b0011100001 3
b0011100001 ;
b00000011100001 V
#6637500
0!
#6650000
1!
b00000011100010 V
b0011100010 ;
b0011100010 3
#6662500
0!
#6675000
1!
b0011100011 3
b0011100011 ;
b00000011100011 V
#6687500
0!
#6700000
1!
b00000011100100 V
b0011100100 ;
b0011100100 3
#6712500
0!
#6725000
1!
b0011100101 3
b0011100101 ;
b00000011100101 V
#6737500
0!
#6750000
1!
b00000011100110 V
b0011100110 ;
b0011100110 3
#6762500
0!
#6775000
1!
b0011100111 3
b0011100111 ;
b00000011100111 V
#6787500
0!
#6800000
1!
b00000011101000 V
b0011101000 ;
b0011101000 3
#6812500
0!
#6825000
1!
b0011101001 3
b0011101001 ;
b00000011101001 V
#6837500
0!
#6850000
1!
b00000011101010 V
b0011101010 ;
b0011101010 3
#6862500
0!
#6875000
1!
b0011101011 3
b0011101011 ;
b00000011101011 V
#6887500
0!
#6900000
1!
b00000011101100 V
b0011101100 ;
b0011101100 3
#6912500
0!
#6925000
1!
b0011101101 3
b0011101101 ;
b00000011101101 V
#6937500
0!
#6950000
1!
b00000011101110 V
b0011101110 ;
b0011101110 3
#6962500
0!
#6975000
1!
b0011101111 3
b0011101111 ;
b00000011101111 V
#6987500
0!
#7000000
1!
b00000011110000 V
b0011110000 ;
b0011110000 3
#7012500
0!
#7025000
1!
b0011110001 3
b0011110001 ;
b00000011110001 V
#7037500
0!
#7050000
1!
b00000011110010 V
b0011110010 ;
b0011110010 3
#7062500
0!
