wellen/inputs/ncsim/ffdiv_32bit_tb.vcd
$date
    Sep 19, 2019  11:13:29
$end
$version
    TOOL:	ncsim(64)	15.20-s060
$end
$timescale
    1 ns
$end

$scope module ffdiv_32bit_tb $end
$var reg       1 !    clk  $end
$var reg       1 "    rst_n  $end
$var reg       1 #    en  $end
$var reg      32 $    operand1 [31:0] $end
$var reg      32 %    operand2 [31:0] $end
$var reg       5 &    itr_count [4:0] $end
$var reg      32 '    result [31:0] $end
$var reg       5 (    flag [4:0] $end
$var reg       1 )    ready  $end
$var real     64 *    op1  $end
$var real     64 +    op2  $end
$var reg      32 ,    soft_division [31:0] $end
$var reg      32 -    error [31:0] $end
$var integer  32 .    count_sum  $end
$var integer  32 /    count_run  $end
$var integer  32 0    run_count  $end

$scope module test_bus $end
$var wire      1 1    clk  $end
$var wire      1 2    rst_n  $end
$var wire      1 3    en  $end
$var wire     32 4    operand1 [31:0] $end
$var wire     32 5    operand2 [31:0] $end
$var reg       5 6    itr_count [4:0] $end
$var reg      32 7    result [31:0] $end
$var reg       5 8    flag [4:0] $end
$var reg       1 9    ready  $end
$var reg       1 :    sign1  $end
$var reg       1 ;    sign2  $end
$var reg       9 <    unb_exp1 [8:0] $end
$var reg       9 =    unb_exp2 [8:0] $end
$var reg      24 >    sgfnd1 [23:0] $end
$var reg      24 ?    sgfnd2 [23:0] $end
$var reg       1 @    is_denorm1  $end
$var reg       1 A    is_denorm2  $end
$var reg       1 B    is_norm1  $end
$var reg       1 C    is_norm2  $end
$var reg      32 D    res_nan [31:0] $end
$var reg       1 E    res_indet  $end
$var reg       1 F    res_inf  $end
$var reg       1 G    res_zero  $end
$var reg       1 H    dec_valid  $end
$var reg       1 I    sign  $end
$var reg       8 J    exp [7:0] $end
$var reg      23 K    frac [22:0] $end
$var reg       1 L    nanf  $end
$var reg       1 M    ovf  $end
$var reg       1 N    inf  $end
$var reg       1 O    uf  $end
$var reg       1 P    zf  $end
$upscope $end


$scope module ffdiv32bit $end

$scope module ffdiv_bus $end
$var wire      1 1    clk  $end
$var wire      1 2    rst_n  $end
$var wire      1 3    en  $end
$var wire     32 4    operand1 [31:0] $end
$var wire     32 5    operand2 [31:0] $end
$var reg       5 Q    itr_count [4:0] $end
$var reg      32 R    result [31:0] $end
$var reg       5 S    flag [4:0] $end
$var reg       1 T    ready  $end
$var reg       1 U    sign1  $end
$var reg       1 V    sign2  $end
$var reg       9 W    unb_exp1 [8:0] $end
$var reg       9 X    unb_exp2 [8:0] $end
$var reg      24 Y    sgfnd1 [23:0] $end
$var reg      24 Z    sgfnd2 [23:0] $end
$var reg       1 [    is_denorm1  $end
$var reg       1 \    is_denorm2  $end
$var reg       1 ]    is_norm1  $end
$var reg       1 ^    is_norm2  $end
$var reg      32 _    res_nan [31:0] $end
$var reg       1 `    res_indet  $end
$var reg       1 a    res_inf  $end
$var reg       1 b    res_zero  $end
$var reg       1 c    dec_valid  $end
$var reg       1 d    sign  $end
$var reg       8 e    exp [7:0] $end
$var reg      23 f    frac [22:0] $end
$var reg       1 g    nanf  $end
$var reg       1 h    ovf  $end
$var reg       1 i    inf  $end
$var reg       1 j    uf  $end
$var reg       1 k    zf  $end
$upscope $end


$scope module decoder $end
$var reg       1 l    dec_state [0:0] $end
$var reg       1 m    dec_nxt_state [0:0] $end
$var reg       1 n    is_snan_1  $end
$var reg       1 o    is_snan_2  $end
$var reg       1 p    is_qnan_1  $end
$var reg       1 q    is_qnan_2  $end
$var reg       1 r    is_inf_1  $end
$var reg       1 s    is_inf_2  $end
$var reg       1 t    is_zero_1  $end
$var reg       1 u    is_zero_2  $end
$var reg       1 v    is_norm_1  $end
$var reg       1 w    is_norm_2  $end
$var reg       1 x    is_denorm_1  $end
$var reg       1 y    is_denorm_2  $end
$var reg       1 z    is_finite_1  $end
$var reg       1 {    is_finite_2  $end
$var reg       1 |    op1_sign  $end
$var reg       1 }    op2_sign  $end
$var reg       8 ~    op1_exp [7:0] $end
$var reg       8 !!   op2_exp [7:0] $end
$var reg      24 "!   op1_sgfnd [23:0] $end
$var reg      24 #!   op2_sgfnd [23:0] $end
$var reg       5 $!   ffdiv_exp1_shift [4:0] $end
$var reg       5 %!   ffdiv_exp2_shift [4:0] $end
$upscope $end


$scope module divider $end
$var reg       3 &!   ffdiv_state [2:0] $end
$var reg       3 '!   ffdiv_nxt_state [2:0] $end
$var reg      32 (!   div_i [31:0] $end
$var reg      29 )!   div_i_low [28:0] $end
$var reg      32 *!   qnt_i [31:0] $end
$var reg      29 +!   qnt_i_low [28:0] $end
$var reg      32 ,!   prev_qnt [31:0] $end
$var reg      32 -!   qnt_diff [31:0] $end
$var reg      25 .!   qnt_rounded [24:0] $end
$var reg       1 /!   is_operands_finite  $end
$var reg       1 0!   ffdiv_res_sign  $end
$var reg       9 1!   ffdiv_unb_exp [8:0] $end
$var reg       5 2!   ffdiv_dnrm_frc_shift [4:0] $end
$var reg       1 3!   ffdiv_sgfcnd_cmp  $end
$var reg       1 4!   is_ffdiv_res_nan  $end
$var reg       1 5!   is_ffdiv_negexp_ovf  $end
$var reg       1 6!   is_ffdiv_posexp_ovf  $end
$var reg       1 7!   is_ffdiv_res_denorm  $end
$var reg       2 8!   ffdiv_divident_shift [1:0] $end
$var reg       1 9!   is_ffdiv_mixing  $end
$upscope $end

$upscope $end


$scope task ff_div $end
$var reg      32 :!   opr1 [31:0] $end
$var reg      32 ;!   opr2 [31:0] $end
$upscope $end

$upscope $end

$enddefinitions $end
$dumpvars
0!
0"
0#
b0 $
b0 %
b0 &
b0 '
b0 (
0)
r0 *
r0 +
b0 ,
b0 -
b0 .
b0 /
b101 0
01
02
03
b0 4
b0 5
b0 6
b0 7
b0 8
09
x:
x;
bx <
bx =
bx >
bx ?
x@
xA
xB
xC
bx D
xE
xF
xG
xH
xI
bx J
bx K
xL
xM
xN
xO
xP
b0 Q
b0 R
b0 S
0T
0U
0V
b0 W
b0 X
b0 Y
b0 Z
0[
0\
0]
0^
b0 _
0`
0a
0b
0c
0d
b0 e
b0 f
0g
0h
0i
0j
0k
0l
0m
0n
0o
0p
0q
0r
0s
0t
0u
0v
0w
0x
0y
0z
0{
0|
0}
b0 ~
b0 !!
b0 "!
b0 #!
b0 $!
b0 %!
b0 &!
b0 '!
b0 (!
b0 )!
b0 *!
b0 +!
b0 ,!
b0 -!
b0 .!
0/!
00!
b0 1!
b0 2!
03!
04!
05!
06!
07!
b0 8!
09!
bx :!
bx ;!
$end
#5
1!
11
#10
0!
01
#15
1!
11
#20
0!
01
#25
1!
11
#30
0!
b10000000000000000000000000000001 :!
b10000000000010100000000000000000 ;!
01
1#
1"
12
13
19!
1m
1u
1t
b1 8!
#35
1!
11
b10000000000000000000000000000001 $
b10000000000010100000000000000000 %
b110101110011001100110011001101 ,
r1.060997895976702e-314 *
r1.061321686344295e-314 +
1l
b10000000000010100000000000000000 5
b10000000000000000000000000000001 4
1y
0u
b10100000000000000000 #!
1}
1x
0t
b1 "!
1|
1{
b10111 $!
b100 %!
1z
#40
0!
01
1U
1V
b101101011 W
b101111110 X
b100000000000000000000000 Y
b101000000000000000000000 Z
1[
1\
1c
13!
1/!
b1 '!
b10 8!
#45
1!
11
b1 &!
b10 '!
#50
0!
01
b1000000000000000000000000000000 *!
b101000000000000000000000000000 (!
b11111111111111111111111111111111 ,!
b11111111111111111111111111111111 -!
b111101100 1!
#55
1!
11
b10 &!
#60
0!
01
b1 Q
b1000000000000000000000000000000 ,!
b10111111111111111111111111111111 -!
b11110000000000000000000000000 (!
b110000000000000000000000000000 *!
b1 6
b1 &
#65
1!
11
#70
0!
01
b10 Q
b110000000000000000000000000000 ,!
b1110000000000000000000000000000 -!
b11111111000000000000000000000 (!
b110011000000000000000000000000 *!
b10 6
b10 &
#75
1!
11
#80
0!
01
b11 Q
b110011000000000000000000000000 ,!
b11000000000000000000000000 -!
b11111111111111110000000000000 (!
b110011001100110000000000000000 *!
b11 6
b11 &
#85
1!
11
#90
0!
01
b100 Q
b110011001100110000000000000000 ,!
b1100110000000000000000 -!
b11100000000000000000000000000 )!
b11111111111111111111111111111 (!
b110011001100110011001100110011 *!
b100 6
b100 &
#95
1!
11
#100
0!
01
b101 Q
b110011001100110011001100110011 ,!
b11001100110011 -!
b11111111111111111111111111111 )!
b10011001100110011001100110011 +!
b110011001100110011001100110100 *!
b101 6
b101 &
#105
1!
11
#110
0!
01
b110 Q
b110011001100110011001100110100 ,!
b111 -!
b10011001100110011001100110100 +!
b110011001100110011001100110101 *!
b11 '!
b110 6
b110 &
#115
1!
11
b11 &!
b100 '!
#120
0!
01
b110011001100110011001100 .!
#125
1!
11
b100 &!
b0 '!
b10110 2!
1T
0m
19
1)
#130
0!
01
b1101011 e
b10011001100110011001100 f
#135
1!
11
b0 &!
0l
b110101110011001100110011001100 R
b1 '!
b0 2!
0T
b0 $!
b0 %!
1m
09
b110101110011001100110011001100 7
b110101110011001100110011001100 '
0)
b10000000100010000100000010000010 :!
b10000000100100100100000010000001 ;!
b1011 .
b1 /
#140
0!
01
b0 1!
b0 Q
b0 e
b0 f
0c
b0 '!
b0 6
b0 &
#145
1!
11
b10000000100010000100000010000010 $
b10000000100100100100000010000001 %
b111111011011100111111011111001 ,
r1.065409610201267e-314 *
r1.06573340056886e-314 +
1l
b10111 $!
b100 %!
b10000000100100100100000010000001 5
b10000000100010000100000010000010 4
1w
0y
b100100100100000010000001 #!
b1 !!
1v
0x
b100010000100000010000010 "!
b1 ~
b0 $!
b0 %!
#150
0!
01
b110000010 W
b110000010 X
b100010000100000010000010 Y
b100100100100000010000001 Z
0[
0\
1]
1^
1c
b1 '!
#155
1!
11
b1 &!
b10 '!
#160
0!
01
b1000100001000000100000100000000 *!
b100100100100000010000001000000 (!
b11111111111111111111111111111111 ,!
b11111111111111111111111111111111 -!
b111111111 1!
#165
1!
11
b10 &!
#170
0!
01
b1 Q
b1000100001000000100000100000000 ,!
b10111011110111111011111011111111 -!
b10011111011111111000000000000 )!
b11111010110010110111011001101 (!
b11111110011111100000000000000 +!
b111010011010010110001100010010 *!
b1 6
b1 &
#175
1!
11
#180
0!
01
b10 Q
b111010011010010110001100010010 ,!
b1111110010010010010001000010010 -!
b11111100000010010111111010111 )!
b11111111111001001110011111010 (!
b10001110001111110111010010110 +!
b111011100110010110111011001110 *!
b10 6
b10 &
#185
1!
11
#190
0!
01
b11 Q
b111011100110010110111011001110 ,!
b1111100000000110111011100 -!
b111100011100101101111011100 )!
b11111111111111111111110100100 (!
b111110111000100001011010100 +!
b111011100111111011110110011110 *!
b11 6
b11 &
#195
1!
11
#200
0!
01
b100 Q
b111011100111111011110110011110 ,!
b1101101001101010000 -!
b11111111111111101111011110000 )!
b11111111111111111111111111111 (!
b1101011010000010010011001000 +!
b111011100111111011111001001001 *!
b100 6
b100 &
#205
1!
11
#210
0!
01
b101 Q
b111011100111111011111001001010 ,!
b1111010111 -!
b11111111111111111111111111111 )!
b11011100111111011111001001001 +!
b111011100111111011111001001010 *!
b101 6
b101 &
#215
1!
11
#220
0!
01
b110 Q
b0 -!
b11011100111111011111001001010 +!
b111011100111111011111001001011 *!
b11 '!
b110 6
b110 &
#225
1!
11
b11 &!
b100 '!
#230
0!
01
b111011100111111011111001 .!
#235
1!
11
b100 &!
b0 '!
b11 2!
1T
0m
19
1)
#240
0!
01
b1111110 e
b11011100111111011111001 f
#245
1!
11
b0 &!
0l
b111111011011100111111011111001 R
b1 '!
b0 2!
0T
1m
09
b111111011011100111111011111001 7
b111111011011100111111011111001 '
0)
b10000001000100001000000100000011 :!
b10000001000110101000000100000010 ;!
b10110 .
b10 /
#250
0!
01
b0 1!
b0 Q
b0 e
b0 f
0c
b0 '!
b0 6
b0 &
#255
1!
11
b10000001000100001000000100000011 $
b10000001000110101000000100000010 %
b111111011011110110111001001101 ,
r1.069821324425833e-314 *
r1.070145114793426e-314 +
1l
b10000001000110101000000100000010 5
b10000001000100001000000100000011 4
b100110101000000100000010 #!
b10 !!
b100100001000000100000011 "!
b10 ~
#260
0!
01
b110000011 W
b110000011 X
b100100001000000100000011 Y
b100110101000000100000010 Z
1c
b1 '!
#265
1!
11
b1 &!
b10 '!
#270
0!
01
b1001000010000001000000110000000 *!
b100110101000000100000010000000 (!
b11111111111111111111111111111111 ,!
b11111111111111111111111111111111 -!
b111111111 1!
#275
1!
11
b10 &!
#280
0!
01
b1 Q
b1001000010000001000000110000000 ,!
b10110111101111110111111001111111 -!
b1111101111111100000000000000 )!
b11110101000001100010101001010 (!
b1111010111110100000000000000 +!
b111001010010101001010100001110 *!
b1 6
b1 &
#285
1!
11
#290
0!
01
b10 Q
b111001010010101001010100001110 ,!
b1110001000010100001010010001110 -!
b10011011101010000011010011100 )!
b11111111100001111000011101111 (!
b11110111111010010001111110100 +!
b111011101111110110100000111101 *!
b10 6
b10 &
#295
1!
11
#300
0!
01
b11 Q
b111011101111110110100000111110 ,!
b10111101011111110100110011 -!
b11011000111110000000011011111 )!
b11111111111111111100011101001 (!
b1010011001000111111100001101 +!
b111011110110111000011000010111 *!
b11 6
b11 &
#305
1!
11
#310
0!
01
b100 Q
b111011110110111000011000011000 ,!
b11001001110111000101001 -!
b11111110011011011101111101111 )!
b11111111111111111111111111111 (!
b1011000111010110100010001 +!
b111011110110111001001101011010 *!
b100 6
b100 &
#315
1!
11
#320
0!
01
b101 Q
b111011110110111001001101011010 ,!
b1010101000010 -!
b11111111111111111111111111111 )!
b11011110110111001001101011010 +!
b111011110110111001001101011011 *!
b101 6
b101 &
#325
1!
11
#330
0!
01
b110 Q
b111011110110111001001101011100 ,!
b1 -!
b11011110110111001001101011011 +!
b111011110110111001001101011100 *!
b11 '!
b110 6
b110 &
#335
1!
11
b11 &!
b100 '!
#340
0!
01
b111011110110111001001110 .!
#345
1!
11
b100 &!
b0 '!
b11 2!
1T
0m
19
1)
#350
0!
01
b1111110 e
b11011110110111001001110 f
#355
1!
11
b0 &!
0l
b111111011011110110111001001110 R
b1 '!
b0 2!
0T
1m
09
b111111011011110110111001001110 7
b111111011011110110111001001110 '
0)
b10000001100110001100000110000100 :!
b10000001101000101100000110000011 ;!
b100001 .
b11 /
#360
0!
01
b0 1!
b0 Q
b0 e
b0 f
0c
b0 '!
b0 6
b0 &
#365
1!
11
b10000001100110001100000110000100 $
b10000001101000101100000110000011 %
b111111011100000100010101011101 ,
r1.074233038650399e-314 *
r1.074556829017992e-314 +
1l
b10000001101000101100000110000011 5
b10000001100110001100000110000100 4
b101000101100000110000011 #!
b11 !!
b100110001100000110000100 "!
b11 ~
#370
0!
01
b110000100 W
b110000100 X
b100110001100000110000100 Y
b101000101100000110000011 Z
1c
b1 '!
#375
1!
11
b1 &!
b10 '!
#380
0!
01
b1001100011000001100001000000000 *!
b101000101100000110000011000000 (!
b11111111111111111111111111111111 ,!
b11111111111111111111111111111111 -!
b111111111 1!
#385
1!
11
b10 &!
#390
0!
01
b1 Q
b1001100011000001100001000000000 ,!
b10110011100111110011110111111111 -!
b10011011011110111000000000000 )!
b11101101001000000001101110110 (!
b1110101011101000000000000000 +!
b110111101000111001011001101000 *!
b1 6
b1 &
#395
1!
11
#400
0!
01
b10 Q
b110111101000111001011001101000 ,!
b1111011110000110101010001101000 -!
b10100110001000000010110011100 )!
b11111110100110111100000000010 (!
b1101001101010111010000010000 +!
b111011101111011100000000011010 *!
b10 6
b10 &
#405
1!
11
#410
0!
01
b11 Q
b111011101111011100000000011010 ,!
b1100000111100101011001110010 -!
b11000011100100001111111111100 )!
b11111111111111100001000000111 (!
b11011000010100100111111001100 +!
b111100000100001110001011100100 *!
b11 6
b11 &
#415
1!
11
#420
0!
01
b100 Q
b111100000100001110001011100100 ,!
b111101011010010001011111110 -!
b10000111111110110001111001111 )!
b11111111111111111111111111111 (!
b10010011111010000001111000100 +!
b111100000100010101011100110111 *!
b100 6
b100 &
#425
1!
11
#430
0!
01
b101 Q
b111100000100010101011100111000 ,!
b11011010111010011 -!
b11111111111111111111111111111 )!
b11100000100010101011100110111 +!
b111100000100010101011100111000 *!
b101 6
b101 &
#435
1!
11
#440
0!
01
b110 Q
b0 -!
b11100000100010101011100111000 +!
b111100000100010101011100111001 *!
b11 '!
b110 6
b110 &
#445
1!
11
b11 &!
b100 '!
#450
0!
01
b111100000100010101011100 .!
#455
1!
11
b100 &!
b0 '!
b11 2!
1T
0m
19
1)
#460
0!
01
b1111110 e
b11100000100010101011100 f
#465
1!
11
b0 &!
0l
b111111011100000100010101011100 R
b1 '!
b0 2!
0T
1m
09
b111111011100000100010101011100 7
b111111011100000100010101011100 '
0)
b10000010001000010000001000000101 :!
b10000010001010110000001000000100 ;!
b101100 .
b100 /
#470
0!
01
b0 1!
b0 Q
b0 e
b0 f
0c
b0 '!
b0 6
b0 &
#475
1!
11
b10000010001000010000001000000101 $
b10000010001010110000001000000100 %
b111111011100010000011110101011 ,
r1.078644752874964e-314 *
r1.078968543242557e-314 +
1l
b10000010001010110000001000000100 5
b10000010001000010000001000000101 4
b101010110000001000000100 #!
b100 !!
b101000010000001000000101 "!
b100 ~
#480
0!
01
b110000101 W
b110000101 X
b101000010000001000000101 Y
b101010110000001000000100 Z
1c
09!
b1 '!
b1 8!
#485
1!
11
b1 &!
b10 '!
#490
0!
01
b101000010000001000000101000000 *!
b10101011000000100000010000000 (!
b11111111111111111111111111111111 ,!
b11111111111111111111111111111111 -!
b111111111 1!
#495
1!
11
b10 &!
#500
0!
01
b1 Q
b101000010000001000000101000000 ,!
b11010111101111110111111010111111 -!
b1111101111111100000000000000 )!
b11100011110010000101011010100 (!
b111011011110110000000000000 +!
b110101100111011001101100001000 *!
b1 6
b1 &
#505
1!
11
#510
0!
01
b10 Q
b110101100111011001101100001000 ,!
b11101110111010001101001001000 -!
b11001000101100000001110000 )!
b11111100111000111100011011011 (!
b1010101001010100110101100000 +!
b111011100001101000000001010010 *!
b10 6
b10 &
#515
1!
11
#520
0!
01
b11 Q
b111011100001101000000001010010 ,!
b1110000110110001101101011010 -!
b10010000010011111010010100111 )!
b11111111111101100101001110001 (!
b111110100011100100111011010 +!
b111100001111111010001111010011 *!
b11 6
b11 &
#525
1!
11
#530
0!
01
b100 Q
b111100001111111010001111010011 ,!
b111101110010010001110000001 -!
b1001101011010111101000011111 )!
b11111111111111111111111110100 (!
b11000010010100011000111011101 +!
b111100010000011110101010100110 *!
b100 6
b100 &
#535
1!
11
#540
0!
01
b101 Q
b111100010000011110101010100110 ,!
b11111100100100101110101 -!
b11111111111111111111101110000 )!
b11111111111111111111111111111 (!
b10011000101101111111111001000 +!
b111100010000011110101010111100 *!
b101 6
b101 &
#545
1!
11
#550
0!
01
b110 Q
b111100010000011110101010111100 ,!
b11010 -!
b11111111111111111111111111111 )!
b11100010000011110101010111100 +!
b111100010000011110101010111101 *!
b11 '!
b110 6
b110 &
#555
1!
11
b11 &!
b100 '!
#560
0!
01
b111100010000011110101010 .!
#565
1!
11
b100 &!
b0 '!
b11 2!
1T
0m
19
1)
#570
0!
01
b1111110 e
b11100010000011110101010 f
#575
1!
11
b0 &!
0l
b111111011100010000011110101010 R
b1 '!
b0 2!
0T
1m
09
b111111011100010000011110101010 7
b111111011100010000011110101010 '
0)
b11000001000100000000000000000000 :!
b11000000010000000000000000000000 ;!
b110111 .
b101 /
#580
0!
01
b0 1!
b0 Q
b0 e
b0 f
0c
b0 '!
b0 6
b0 &
#585
1!
11
b11000001000100000000000000000000 $
b11000000010000000000000000000000 %
b1000000010000000000000000000000 ,
r1.600303954661066e-314 *
r1.593569104738569e-314 +
1l
b11000000010000000000000000000000 5
b11000001000100000000000000000000 4
b110000000000000000000000 #!
b10000000 !!
b100100000000000000000000 "!
b10000010 ~
#590
0!
01
b11 W
b1 X
b100100000000000000000000 Y
b110000000000000000000000 Z
1c
b1 '!
#595
1!
11
b1 &!
b10 '!
#600
0!
01
b100100000000000000000000000000 *!
b11000000000000000000000000000 (!
b11111111111111111111111111111111 ,!
b11111111111111111111111111111111 -!
b1 1!
#605
1!
11
b10 &!
#610
0!
01
b1 Q
b100100000000000000000000000000 ,!
b11011011111111111111111111111111 -!
b0 )!
b11110000000000000000000000000 (!
b0 +!
b101101000000000000000000000000 *!
b1 6
b1 &
#615
1!
11
#620
0!
01
b10 Q
b101101000000000000000000000000 ,!
b1001000000000000000000000000 -!
b11111111000000000000000000000 (!
b101111110100000000000000000000 *!
b10 6
b10 &
#625
1!
11
#630
0!
01
b11 Q
b101111110100000000000000000000 ,!
b10110100000000000000000000 -!
b11111111111111110000000000000 (!
b101111111111111101000000000000 *!
b11 6
b11 &
#635
1!
11
#640
0!
01
b100 Q
b101111111111111101000000000000 ,!
b1011111101000000000000 -!
b11100000000000000000000000000 )!
b11111111111111111111111111111 (!
b11010000000000000000000000000 +!
b101111111111111111111111111111 *!
b100 6
b100 &
#645
1!
11
#650
0!
01
b101 Q
b110000000000000000000000000000 ,!
b10111111111111 -!
b11111111111111111111111111111 )!
b1111111111111111111111111111 +!
b110000000000000000000000000000 *!
b101 6
b101 &
#655
1!
11
#660
0!
01
b110 Q
b0 -!
b10000000000000000000000000000 +!
b110000000000000000000000000001 *!
b11 '!
b110 6
b110 &
#665
1!
11
b11 &!
b100 '!
#670
0!
01
b110000000000000000000000 .!
#675
1!
11
b100 &!
b0 '!
b1 2!
1T
0m
19
1)
#680
0!
01
b10000000 e
b10000000000000000000000 f
#685
1!
11
b0 &!
0l
b1000000010000000000000000000000 R
b1 '!
b0 2!
0T
1m
09
b1000000010000000000000000000000 7
b1000000010000000000000000000000 '
0)
b11000001000100100001000000000001 :!
b11000000011111111111111111111111 ;!
b1000010 .
b110 /
#690
0!
01
b0 1!
b0 Q
b0 e
b0 f
0c
b0 '!
b0 6
b0 &
#695
1!
11
b11000001000100100001000000000001 $
b11000000011111111111111111111111 %
b1000000000100100001000000000010 ,
r1.600370737020349e-314 *
r1.595641365759118e-314 +
1l
b11000000011111111111111111111111 5
b11000001000100100001000000000001 4
b111111111111111111111111 #!
b100100100001000000000001 "!
#700
0!
01
b100100100001000000000001 Y
b111111111111111111111111 Z
1c
b1 '!
#705
1!
11
b1 &!
b10 '!
#710
0!
01
b100100100001000000000001000000 *!
b11111111111111111111111100000 (!
b11111111111111111111111111111111 ,!
b11111111111111111111111111111111 -!
b1 1!
#715
1!
11
b10 &!
#720
0!
01
b1 Q
b100100100001000000000001000000 ,!
b11011011011110111111111110111111 -!
b11111111111111111110000000000 )!
b11111111111111111111111111111 (!
b10000100000000000100000000000 +!
b100100100001000000000001100100 *!
b1 6
b1 &
#725
1!
11
#730
0!
01
b10 Q
b100100100001000000000001100100 ,!
b100100 -!
b11111111111111111111111111111 )!
b100100001000000000001100100 +!
b100100100001000000000001100101 *!
b11 '!
b10 6
b10 &
#735
1!
11
b11 &!
b100 '!
#740
0!
01
b100100100001000000000010 .!
#745
1!
11
b100 &!
b0 '!
b1 2!
1T
0m
19
1)
#750
0!
01
b10000000 e
b100100001000000000010 f
#755
1!
11
b0 &!
0l
b1000000000100100001000000000010 R
b1 '!
b0 2!
0T
1m
09
b1000000000100100001000000000010 7
b1000000000100100001000000000010 '
0)
b10101111001111110100001111011110 :!
b10001011001111111111111111111111 ;!
b1001001 .
b111 /
#760
0!
01
b0 1!
b0 Q
b0 e
b0 f
0c
b0 '!
b0 6
b0 &
#765
1!
11
b10101111001111110100001111011110 $
b10001011001111111111111111111111 %
b1100011011111110000010100101001 ,
r1.452631526555146e-314 *
r1.154249663146224e-314 +
1l
b10001011001111111111111111111111 5
b10101111001111110100001111011110 4
b101111111111111111111111 #!
b10110 !!
b101111110100001111011110 "!
b1011110 ~
#770
0!
01
b111011111 W
b110010111 X
b101111110100001111011110 Y
b101111111111111111111111 Z
1c
b1 '!
#775
1!
11
b1 &!
b10 '!
#780
0!
01
b101111110100001111011110000000 *!
b10111111111111111111111100000 (!
b11111111111111111111111111111111 ,!
b11111111111111111111111111111111 -!
b1000111 1!
#785
1!
11
b10 &!
#790
0!
01
b1 Q
b101111110100001111011110000000 ,!
b11010000001011110000100001111111 -!
b11111111111111111110000000000 )!
b11101111111111111111111101111 (!
b11010000111101111000000000000 +!
b111011110001010011010110001111 *!
b1 6
b1 &
#795
1!
11
#800
0!
01
b10 Q
b111011110001010011010110010000 ,!
b10100000101011100001000001111 -!
b11011111111111111111011011111 )!
b11111110111111111111111111101 (!
b10110000110001000111001111111 +!
b111111100000011000100100000111 *!
b10 6
b10 &
#805
1!
11
#810
0!
01
b11 Q
b111111100000011000100100001000 ,!
b100010001001011110010010111 -!
b11111001111111111111111110111 )!
b11111111111111101111111111111 (!
b11111011001001001101100010101 +!
b111111110000010000101010010101 *!
b11 6
b11 &
#815
1!
11
#820
0!
01
b100 Q
b111111110000010000101010010110 ,!
b10000001000001110011101 -!
b11011111111111011111111111111 )!
b11111111111111111111111111111 (!
b1000100111010101010010101 +!
b111111110000010100101001011000 *!
b100 6
b100 &
#825
1!
11
#830
0!
01
b101 Q
b111111110000010100101001011000 ,!
b100000011001110 -!
b11111111111111111111111111111 )!
b11111110000010100101001011000 +!
b111111110000010100101001011001 *!
b101 6
b101 &
#835
1!
11
#840
0!
01
b110 Q
b111111110000010100101001011010 ,!
b1 -!
b11111110000010100101001011001 +!
b111111110000010100101001011010 *!
b11 '!
b110 6
b110 &
#845
1!
11
b11 &!
b100 '!
#850
0!
01
b111111110000010100101010 .!
#855
1!
11
b100 &!
b0 '!
b11011 2!
1T
0m
19
1)
#860
0!
01
b11000110 e
b11111110000010100101010 f
#865
1!
11
b0 &!
0l
b1100011011111110000010100101010 R
b1 '!
b0 2!
0T
1m
09
b1100011011111110000010100101010 7
b1100011011111110000010100101010 '
0)
b101111001101110100111001111100 :!
b10001011011110111011101110110110 ;!
b1010100 .
b1000 /
#870
0!
01
b0 1!
b0 Q
b0 e
b0 f
0c
b0 '!
b0 6
b0 &
#875
1!
11
b101111001101110100111001111100 $
b10001011011110111011101110110110 %
b11100011001110100110100111011101 ,
r3.913759412536086e-315 *
r1.15618377155462e-314 +
1l
b10001011011110111011101110110110 5
b101111001101110100111001111100 4
b111110111011101110110110 #!
b101101110100111001111100 "!
0|
#880
0!
01
0U
b101101110100111001111100 Y
b111110111011101110110110 Z
1c
b1 '!
#885
1!
11
b1 &!
b10 '!
#890
0!
01
b101101110100111001111100000000 *!
b11111011101110111011011000000 (!
b11111111111111111111111111111111 ,!
b11111111111111111111111111111111 -!
b1000111 1!
#895
1!
11
b10 &!
#900
0!
01
b1 Q
b101101110100111001111100000000 ,!
b11010010001011000110000011111111 -!
b10011010100111000000000000 )!
b11111111111011011100101101111 (!
b1100111111101100000000000000 +!
b101110100101110010011011110001 *!
b1 6
b1 &
#905
1!
11
#910
0!
01
b10 Q
b101110100101110010011011110010 ,!
b11010001001011100111110001 -!
b10010010010000110000111011111 )!
b11111111111111111111111010110 (!
b110001001001111010010000001 +!
b101110100110100111011100100001 *!
b10 6
b10 &
#915
1!
11
#920
0!
01
b11 Q
b101110100110100111011100100001 ,!
b11010101000111010011 -!
b11111111111111111100100011100 )!
b11111111111111111111111111111 (!
b101010101111000101101101010 +!
b101110100110100111011101011110 *!
b11 6
b11 &
#925
1!
11
#930
0!
01
b100 Q
b101110100110100111011101011110 ,!
b1111111 -!
b11111111111111111111111111111 )!
b1110100110100111011101011110 +!
b101110100110100111011101011111 *!
b100 6
b100 &
#935
1!
11
#940
0!
01
b101 Q
b101110100110100111011101100000 ,!
b1 -!
b1110100110100111011101011111 +!
b101110100110100111011101100000 *!
b11 '!
b101 6
b101 &
#945
1!
11
b11 &!
b100 '!
#950
0!
01
b101110100110100111011110 .!
#955
1!
11
b100 &!
b0 '!
b11011 2!
10!
1T
0m
19
1)
#960
0!
01
1d
b11000110 e
b1110100110100111011110 f
#965
1!
11
b0 &!
0l
b11100011001110100110100111011110 R
b1 '!
b0 2!
00!
0T
1m
09
b11100011001110100110100111011110 7
b11100011001110100110100111011110 '
0)
b10101111001101110100111001111100 :!
b1011011111111011101110110110 ;!
b1011110 .
b1001 /
#970
0!
01
b0 1!
b0 Q
0d
b0 e
b0 f
0c
b0 '!
b0 6
b0 &
#975
1!
11
b10101111001101110100111001111100 $
b1011011111111011101110110110 %
b11100011001101110111111101101111 ,
r1.452373836736245e-314 *
r9.53153924166475e-316 +
1l
b1011011111111011101110110110 5
b10101111001101110100111001111100 4
b111111111011101110110110 #!
0}
1|
#980
0!
01
1U
0V
b111111111011101110110110 Z
1c
b1 '!
#985
1!
11
b1 &!
b10 '!
#990
0!
01
b101101110100111001111100000000 *!
b11111111101110111011011000000 (!
b11111111111111111111111111111111 ,!
b11111111111111111111111111111111 -!
b1000111 1!
#995
1!
11
b10 &!
#1000
0!
01
b1 Q
b101101110100111001111100000000 ,!
b11010010001011000110000011111111 -!
b10011010100111000000000000 )!
b11111111111111111110110111001 (!
b1100111111101100000000000000 +!
b101101110111111101100001110101 *!
b1 6
b1 &
#1005
1!
11
#1010
0!
01
b10 Q
b101101110111111101100001110110 ,!
b11000100011101110101 -!
b11111111110101101000001001111 )!
b11111111111111111111111111111 (!
b11000110001011111001001110011 +!
b101101110111111101101110111000 *!
b10 6
b10 &
#1015
1!
11
#1020
0!
01
b11 Q
b101101110111111101101110111000 ,!
b1111001110 -!
b11111111111111111111111111111 )!
b1101110111111101101110111000 +!
b101101110111111101101110111001 *!
b11 6
b11 &
#1025
1!
11
#1030
0!
01
b100 Q
b101101110111111101101110111010 ,!
b1 -!
b1101110111111101101110111001 +!
b101101110111111101101110111010 *!
b11 '!
b100 6
b100 &
#1035
1!
11
b11 &!
b100 '!
#1040
0!
01
b101101110111111101101110 .!
#1045
1!
11
b100 &!
b0 '!
b11011 2!
10!
1T
0m
19
1)
