inputs/my-hdl/sigmoid_tb.vcd
$date
    Wed Dec 12 18:41:49 2018
$end
$version
    MyHDL 0.10
$end
$timescale
    1ns
$end

$scope module sigmoid_tb $end
$var reg 32 ! y_exp $end
$var reg 32 " y_fac $end
$var reg 32 # y_pow $end
$var reg 1 $ clk $end
$var reg 1 % reset $end
$var reg 32 & axis_x_tdata $end
$var reg 32 ' axis_y_tdata $end
$scope module clk_gen0 $end
$var reg 1 $ clk $end
$upscope $end
$scope module sigmoid $end
$var reg 32 ( counter $end
$var reg 1 % t_reset $end
$var reg 1 $ t_clk $end
$var reg 32 ) t_exp_start $end
$var reg 32 * t_exp_out $end
$var reg 32 + t_exp_end $end
$var real 1 , state $end
$var reg 32 - const_1 $end
$var reg 32 . accumulator $end
$var reg 32 ' t_y_out_tdata $end
$scope module exponential0 $end
$var reg 32 & t_x $end
$var reg 1 % t_reset $end
$var reg 1 $ t_clk $end
$var reg 32 / y_pow $end
$var reg 32 0 y_fac $end
$var reg 32 * t_y_out $end
$var reg 32 ) t_start $end
$var reg 32 1 t_pow_start $end
$var reg 32 2 t_pow_end $end
$var reg 32 3 t_fac_start $end
$var reg 32 4 t_fac_end $end
$var reg 32 + t_end $end
$var real 1 5 state $end
$var reg 32 6 counter $end
$var reg 32 7 const_1 $end
$var reg 32 8 accumulator $end
$scope module power0 $end
$var reg 1 % t_reset $end
$var reg 1 $ t_clk $end
$var reg 32 / t_y_out $end
$var reg 32 1 t_start $end
$var reg 32 6 t_power $end
$var reg 32 2 t_end $end
$var reg 32 & t_base $end
$var real 1 9 state $end
$var reg 32 : counter $end
$var reg 32 ; accumulator $end
$upscope $end
$scope module factorial0 $end
$var reg 1 % t_reset $end
$var reg 1 $ t_clk $end
$var reg 32 0 t_y_out $end
$var reg 32 3 t_start $end
$var reg 32 6 t_factorial $end
$var reg 32 4 t_end $end
$var real 1 < state $end
$var reg 32 = counter $end
$var reg 32 > accumulator $end
$upscope $end
$upscope $end
$upscope $end
$upscope $end

$enddefinitions $end
$dumpvars
b00000000000000000000000000000000 !
b00000000000000000000000000000000 "
b00000000000000000000000000000000 #
0$
0%
b00000000000000000000000000000000 &
b00000000000000000000000000000000 '
b00000000000000000000000000000000 (
b00000000000000000000000000000001 )
b00000000000000000000000000000000 *
b00000000000000000000000000000000 +
scount ,
b00000000000000010000000000000000 -
b00000000000000000000000000000000 .
b00000000000000000000000000000000 /
b00000000000000000000000000000001 0
b00000000000000000000000000000001 1
b00000000000000000000000000000000 2
b00000000000000000000000000000001 3
b00000000000000000000000000000000 4
scount 5
b00000000000000000000000000000000 6
b00000000000000010000000000000000 7
b00000000000000000000000000000000 8
scount 9
b00000000000000000000000000000000 :
b00000000000000000000000000000001 ;
scount <
b00000000000000000000000000000000 =
b00000000000000000000000000000001 >
$end
#5
1$
b00000000000000000000000000000000 ;
sresult 9
sresult <
#10
0$
#15
1$
b00000000000000000000000000000001 4
scount <
b00000000000000000000000000000001 2
b00000000000000000000000000000001 ;
scount 9
#20
0$
#25
1$
b00000000000000000000000000000000 2
b00000000000000000000000000000000 ;
sresult 9
b00000000000000000000000000000000 4
sresult <
b00000000000000000000000000000001 6
b00000000000000010000000000000000 8
#30
0$
#35
1$
b00000000000000000000000000000001 4
scount <
b00000000000000000000000000000001 2
b00000000000000000000000000000001 ;
scount 9
#40
0$
#45
1$
b00000000000000000000000000000000 2
b00000000000000000000000000000000 ;
sresult 9
b00000000000000000000000000000000 4
b00000000000000000000000000000001 =
b00000000000000000000000000000010 6
#50
0$
#55
1$
b00000000000000000000000000000010 =
b00000000000000000000000000000001 2
b00000000000000000000000000000001 ;
scount 9
#60
0$
#65
1$
b00000000000000000000000000000000 2
b00000000000000000000000000000000 ;
b00000000000000000000000000000001 :
b00000000000000000000000000000010 >
b00000000000000000000000000000000 =
sresult <
#70
0$
#75
1$
b00000000000000000000000000000001 4
b00000000000000000000000000000010 0
b00000000000000000000000000000001 >
scount <
b00000000000000000000000000000000 :
sresult 9
#80
0$
#85
1$
b00000000000000000000000000000001 2
b00000000000000000000000000000001 ;
scount 9
b00000000000000000000000000000000 4
b00000000000000000000000000000001 =
#90
0$
#95
1$
b00000000000000000000000000000010 =
b00000000000000000000000000000000 2
b00000000000000000000000000000000 ;
b00000000000000000000000000000001 :
#100
0$
#105
1$
b00000000000000000000000000000000 :
sresult 9
b00000000000000000000000000000010 >
b00000000000000000000000000000000 =
sresult <
#110
0$
#115
1$
b00000000000000000000000000000001 4
b00000000000000000000000000000001 >
scount <
b00000000000000000000000000000001 2
b00000000000000000000000000000001 ;
scount 9
#120
0$
#125
1$
b00000000000000000000000000000000 2
b00000000000000000000000000000000 ;
b00000000000000000000000000000001 :
b00000000000000000000000000000000 4
b00000000000000000000000000000001 =
b00000000000000000000000000000011 6
#130
0$
#135
1$
b00000000000000000000000000000010 =
b00000000000000000000000000000010 :
#140
0$
#145
1$
b00000000000000000000000000000000 :
sresult 9
b00000000000000000000000000000010 >
b00000000000000000000000000000011 =
#150
0$
#155
1$
b00000000000000000000000000000110 >
b00000000000000000000000000000000 =
sresult <
b00000000000000000000000000000001 2
b00000000000000000000000000000001 ;
scount 9
#160
0$
#165
1$
b00000000000000000000000000000000 2
b00000000000000000000000000000000 ;
b00000000000000000000000000000001 :
b00000000000000000000000000000001 4
b00000000000000000000000000000110 0
b00000000000000000000000000000001 >
scount <
#170
0$
#175
1$
b00000000000000000000000000000000 4
b00000000000000000000000000000001 =
b00000000000000000000000000000010 :
#180
0$
#185
1$
b00000000000000000000000000000000 :
sresult 9
b00000000000000000000000000000010 =
#190
0$
#195
1$
b00000000000000000000000000000010 >
b00000000000000000000000000000011 =
b00000000000000000000000000000001 2
b00000000000000000000000000000001 ;
scount 9
#200
0$
#205
1$
b00000000000000000000000000000000 2
b00000000000000000000000000000000 ;
b00000000000000000000000000000001 :
b00000000000000000000000000000110 >
b00000000000000000000000000000000 =
sresult <
#210
0$
#215
1$
b00000000000000000000000000000001 4
b00000000000000000000000000000001 >
scount <
b00000000000000000000000000000010 :
#220
0$
#225
1$
b00000000000000000000000000000000 :
sresult 9
b00000000000000000000000000000000 4
b00000000000000000000000000000001 =
#230
0$
#235
1$
b00000000000000000000000000000010 =
b00000000000000000000000000000001 2
b00000000000000000000000000000001 ;
scount 9
#240
0$
#245
1$
b00000000000000000000000000000000 2
b00000000000000000000000000000000 ;
b00000000000000000000000000000001 :
b00000000000000000000000000000010 >
b00000000000000000000000000000011 =
#250
0$
#255
1$
b00000000000000000000000000000110 >
b00000000000000000000000000000000 =
sresult <
b00000000000000000000000000000010 :
#260
0$
#265
1$
b00000000000000000000000000000000 :
sresult 9
b00000000000000000000000000000001 4
b00000000000000000000000000000001 >
scount <
#270
0$
#275
1$
b00000000000000000000000000000000 4
b00000000000000000000000000000001 =
b00000000000000000000000000000001 2
b00000000000000000000000000000001 ;
scount 9
#280
0$
#285
1$
b00000000000000000000000000000000 2
b00000000000000000000000000000000 ;
b00000000000000000000000000000001 :
b00000000000000000000000000000010 =
#290
0$
#295
1$
b00000000000000000000000000000010 >
b00000000000000000000000000000011 =
b00000000000000000000000000000010 :
#300
0$
#305
1$
b00000000000000000000000000000000 :
sresult 9
b00000000000000000000000000000110 >
b00000000000000000000000000000000 =
sresult <
#310
0$
#315
1$
b00000000000000000000000000000001 4
b00000000000000000000000000000001 >
scount <
b00000000000000000000000000000001 2
b00000000000000000000000000000001 ;
scount 9
#320
0$
#325
1$
b00000000000000000000000000000000 2
b00000000000000000000000000000000 ;
b00000000000000000000000000000001 :
b00000000000000000000000000000000 4
b00000000000000000000000000000001 =
b00000000000000000000000000000100 6
#330
0$
#335
1$
b00000000000000000000000000000010 =
b00000000000000000000000000000010 :
#340
0$
#345
1$
b00000000000000000000000000000011 :
b00000000000000000000000000000010 >
b00000000000000000000000000000011 =
#350
0$
#355
1$
b00000000000000000000000000000110 >
b00000000000000000000000000000100 =
b00000000000000000000000000000000 :
sresult 9
#360
0$
#365
1$
b00000000000000000000000000000001 2
b00000000000000000000000000000001 ;
scount 9
b00000000000000000000000000011000 >
b00000000000000000000000000000000 =
sresult <
#370
0$
#375
1$
b00000000000000000000000000000001 4
b00000000000000000000000000011000 0
b00000000000000000000000000000001 >
scount <
b00000000000000000000000000000000 2
b00000000000000000000000000000000 ;
b00000000000000000000000000000001 :
#380
0$
#385
1$
b00000000000000000000000000000010 :
b00000000000000000000000000000000 4
b00000000000000000000000000000001 =
#390
0$
#395
1$
b00000000000000000000000000000010 =
b00000000000000000000000000000011 :
#400
0$
#405
1$
b00000000000000000000000000000000 :
sresult 9
b00000000000000000000000000000010 >
b00000000000000000000000000000011 =
#410
0$
#415
1$
b00000000000000000000000000000110 >
b00000000000000000000000000000100 =
b00000000000000000000000000000001 2
b00000000000000000000000000000001 ;
scount 9
#420
0$
#425
1$
b00000000000000000000000000000000 2
b00000000000000000000000000000000 ;
b00000000000000000000000000000001 :
b00000000000000000000000000011000 >
b00000000000000000000000000000000 =
sresult <
#430
0$
#435
1$
b00000000000000000000000000000001 4
b00000000000000000000000000000001 >
scount <
b00000000000000000000000000000010 :
#440
0$
#445
1$
b00000000000000000000000000000011 :
b00000000000000000000000000000000 4
b00000000000000000000000000000001 =
#450
0$
#455
1$
b00000000000000000000000000000010 =
b00000000000000000000000000000000 :
sresult 9
#460
0$
#465
1$
b00000000000000000000000000000001 2
b00000000000000000000000000000001 ;
scount 9
b00000000000000000000000000000010 >
b00000000000000000000000000000011 =
#470
0$
#475
1$
b00000000000000000000000000000110 >
b00000000000000000000000000000100 =
b00000000000000000000000000000000 2
b00000000000000000000000000000000 ;
b00000000000000000000000000000001 :
#480
0$
#485
1$
b00000000000000000000000000000010 :
b00000000000000000000000000011000 >
b00000000000000000000000000000000 =
sresult <
#490
0$
#495
1$
b00000000000000000000000000000001 4
b00000000000000000000000000000001 >
scount <
b00000000000000000000000000000011 :
#500
0$
#505
1$
b00000000000000000000000000000000 :
sresult 9
b00000000000000000000000000000000 4
b00000000000000000000000000000001 =
#510
0$
#515
1$
b00000000000000000000000000000010 =
b00000000000000000000000000000001 2
b00000000000000000000000000000001 ;
scount 9
#520
0$
#525
1$
b00000000000000000000000000000000 2
b00000000000000000000000000000000 ;
b00000000000000000000000000000001 :
b00000000000000000000000000000010 >
b00000000000000000000000000000011 =
#530
0$
#535
1$
b00000000000000000000000000000110 >
b00000000000000000000000000000100 =
b00000000000000000000000000000010 :
#540
0$
#545
1$
b00000000000000000000000000000011 :
b00000000000000000000000000011000 >
b00000000000000000000000000000000 =
sresult <
#550
0$
#555
1$
b00000000000000000000000000000001 4
b00000000000000000000000000000001 >
scount <
b00000000000000000000000000000000 :
sresult 9
#560
0$
#565
1$
b00000000000000000000000000000001 2
b00000000000000000000000000000001 ;
scount 9
b00000000000000000000000000000000 4
b00000000000000000000000000000001 =
#570
0$
#575
1$
b00000000000000000000000000000010 =
b00000000000000000000000000000000 2
b00000000000000000000000000000000 ;
b00000000000000000000000000000001 :
#580
0$
#585
1$
b00000000000000000000000000000010 :
b00000000000000000000000000000010 >
b00000000000000000000000000000011 =
#590
0$
#595
1$
b00000000000000000000000000000110 >
b00000000000000000000000000000100 =
b00000000000000000000000000000011 :
#600
0$
#605
1$
b00000000000000000000000000000000 :
sresult 9
b00000000000000000000000000011000 >
b00000000000000000000000000000000 =
sresult <
#610
0$
#615
1$
b00000000000000000000000000000001 4
b00000000000000000000000000000001 >
scount <
b00000000000000000000000000000001 2
b00000000000000000000000000000001 ;
scount 9
#620
0$
#625
1$
b00000000000000000000000000000000 2
b00000000000000000000000000000000 ;
b00000000000000000000000000000001 :
b00000000000000000000000000000000 4
b00000000000000000000000000000001 =
b00000000000000000000000000000000 6
sresult 5
#630
0$
#635
1$
b00000000000000000000000000000001 +
b00000000000000010000000000000000 *
scount 5
b00000000000000000000000000000000 =
sresult <
b00000000000000000000000000000000 :
sresult 9
#640
0$
#645
1$
b00000000000000000000000000000001 2
b00000000000000000000000000000001 ;
scount 9
b00000000000000000000000000000001 4
b00000000000000000000000000000001 0
scount <
b00000000000000000000000000000000 +
b00000000000000000000000000000000 )
b00000000000000001000000000000000 .
sresult ,
#650
0$
#655
1$
b00000000000000000000000000000001 )
b00000000000000001000000000000000 '
scount ,
b00000000000000000000000000000000 4
sresult <
b00000000000000000000000000000000 2
b00000000000000000000000000000000 ;
sresult 9
#660
0$
#665
1$
b00000000000000000000000000000001 2
b00000000000000000000000000000001 ;
scount 9
b00000000000000000000000000000001 4
scount <
#670
0$
#675
1$
b00000000000000000000000000000001 6
b00000000000000000000000000000000 4
sresult <
b00000000000000000000000000000000 2
b00000000000000000000000000000000 ;
sresult 9
#680
0$
#685
1$
b00000000000000000000000000000001 2
b00000000000000000000000000000001 ;
scount 9
b00000000000000000000000000000001 4
scount <
#690
0$
#695
1$
b00000000000000000000000000000010 6
b00000000000000000000000000000000 4
b00000000000000000000000000000001 =
b00000000000000000000000000000000 2
b00000000000000000000000000000000 ;
sresult 9
#700
0$
#705
1$
b00000000000000000000000000000001 2
b00000000000000000000000000000001 ;
scount 9
b00000000000000000000000000000010 =
#710
0$
#715
1$
b00000000000000000000000000000010 >
b00000000000000000000000000000000 =
sresult <
b00000000000000000000000000000000 2
b00000000000000000000000000000000 ;
b00000000000000000000000000000001 :
#720
0$
#725
1$
b00000000000000000000000000000000 :
sresult 9
b00000000000000000000000000000001 4
b00000000000000000000000000000010 0
b00000000000000000000000000000001 >
scount <
#730
0$
#735
1$
b00000000000000000000000000000000 4
b00000000000000000000000000000001 =
b00000000000000000000000000000001 2
b00000000000000000000000000000001 ;
scount 9
#740
0$
#745
1$
b00000000000000000000000000000000 2
b00000000000000000000000000000000 ;
b00000000000000000000000000000001 :
b00000000000000000000000000000010 =
#750
0$
#755
1$
b00000000000000000000000000000010 >
b00000000000000000000000000000000 =
sresult <
b00000000000000000000000000000000 :
sresult 9
#760
0$
#765
1$
b00000000000000000000000000000001 2
b00000000000000000000000000000001 ;
scount 9
b00000000000000000000000000000001 4
b00000000000000000000000000000001 >
scount <
#770
0$
#775
1$
b00000000000000000000000000000011 6
b00000000000000000000000000000000 4
b00000000000000000000000000000001 =
b00000000000000000000000000000000 2
b00000000000000000000000000000000 ;
b00000000000000000000000000000001 :
#780
0$
#785
1$
b00000000000000000000000000000010 :
b00000000000000000000000000000010 =
#790
0$
#795
1$
b00000000000000000000000000000010 >
b00000000000000000000000000000011 =
b00000000000000000000000000000000 :
sresult 9
#800
0$
#805
1$
b00000000000000000000000000000001 2
b00000000000000000000000000000001 ;
scount 9
b00000000000000000000000000000110 >
b00000000000000000000000000000000 =
sresult <
#810
0$
#815
1$
b00000000000000000000000000000001 4
b00000000000000000000000000000110 0
b00000000000000000000000000000001 >
scount <
b00000000000000000000000000000000 2
b00000000000000000000000000000000 ;
b00000000000000000000000000000001 :
#820
0$
#825
1$
b00000000000000000000000000000010 :
b00000000000000000000000000000000 4
b00000000000000000000000000000001 =
#830
0$
#835
1$
b00000000000000000000000000000010 =
b00000000000000000000000000000000 :
sresult 9
#840
0$
#845
1$
b00000000000000000000000000000001 2
b00000000000000000000000000000001 ;
scount 9
b00000000000000000000000000000010 >
b00000000000000000000000000000011 =
#850
0$
#855
1$
b00000000000000000000000000000110 >
b00000000000000000000000000000000 =
sresult <
b00000000000000000000000000000000 2
b00000000000000000000000000000000 ;
b00000000000000000000000000000001 :
#860
0$
#865
1$
b00000000000000000000000000000010 :
b00000000000000000000000000000001 4
b00000000000000000000000000000001 >
scount <
#870
0$
#875
1$
b00000000000000000000000000000000 4
b00000000000000000000000000000001 =
b00000000000000000000000000000000 :
sresult 9
#880
0$
#885
1$
b00000000000000000000000000000001 2
b00000000000000000000000000000001 ;
scount 9
b00000000000000000000000000000010 =
#890
0$
#895
1$
b00000000000000000000000000000010 >
b00000000000000000000000000000011 =
b00000000000000000000000000000000 2
b00000000000000000000000000000000 ;
b00000000000000000000000000000001 :
#900
0$
#905
1$
b00000000000000000000000000000010 :
b00000000000000000000000000000110 >
b00000000000000000000000000000000 =
sresult <
#910
0$
#915
1$
b00000000000000000000000000000001 4
b00000000000000000000000000000001 >
scount <
b00000000000000000000000000000000 :
sresult 9
#920
0$
#925
1$
b00000000000000000000000000000001 2
b00000000000000000000000000000001 ;
scount 9
b00000000000000000000000000000000 4
b00000000000000000000000000000001 =
#930
0$
#935
1$
b00000000000000000000000000000010 =
b00000000000000000000000000000000 2
b00000000000000000000000000000000 ;
b00000000000000000000000000000001 :
#940
0$
#945
1$
b00000000000000000000000000000010 :
b00000000000000000000000000000010 >
b00000000000000000000000000000011 =
#950
0$
#955
1$
b00000000000000000000000000000110 >
b00000000000000000000000000000000 =
sresult <
b00000000000000000000000000000000 :
sresult 9
#960
0$
#965
1$
b00000000000000000000000000000001 2
b00000000000000000000000000000001 ;
scount 9
b00000000000000000000000000000001 4
b00000000000000000000000000000001 >
scount <
#970
0$
#975
1$
b00000000000000000000000000000100 6
b00000000000000000000000000000000 4
b00000000000000000000000000000001 =
b00000000000000000000000000000000 2
b00000000000000000000000000000000 ;
b00000000000000000000000000000001 :
#980
0$
#985
1$
b00000000000000000000000000000010 :
b00000000000000000000000000000010 =
#990
0$
#995
1$
b00000000000000000000000000000010 >
b00000000000000000000000000000011 =
b00000000000000000000000000000011 :
#1000
0$
b00000000000000000000000000000010 &
#1005
1$
b00000000000000000000000000000000 :
sresult 9
b00000000000000000000000000000110 >
b00000000000000000000000000000100 =
#1010
0$
#1015
1$
b00000000000000000000000000011000 >
b00000000000000000000000000000000 =
sresult <
b00000000000000000000000000000001 2
b00000000000000000000000000000001 ;
scount 9
#1020
0$
#1025
1$
b00000000000000000000000000000000 2
b00000000000000000000000000000010 ;
b00000000000000000000000000000001 :
b00000000000000000000000000000001 4
b00000000000000000000000000011000 0
b00000000000000000000000000000001 >
scount <
#1030
0$
#1035
1$
b00000000000000000000000000000000 4
b00000000000000000000000000000001 =
b00000000000000000000000000000100 ;
b00000000000000000000000000000010 :
#1040
0$
#1045
1$
b00000000000000000000000000001000 ;
b00000000000000000000000000000011 :
b00000000000000000000000000000010 =
#1050
0$
#1055
1$
b00000000000000000000000000000010 >
b00000000000000000000000000000011 =
b00000000000000000000000000010000 ;
b00000000000000000000000000000000 :
sresult 9
#1060
0$
#1065
1$
b00000000000000000000000000000001 2
b00000000000000000000000000010000 /
b00000000000000000000000000000001 ;
scount 9
b00000000000000000000000000000110 >
b00000000000000000000000000000100 =
#1070
0$
#1075
1$
b00000000000000000000000000011000 >
b00000000000000000000000000000000 =
sresult <
b00000000000000000000000000000000 2
b00000000000000000000000000000010 ;
b00000000000000000000000000000001 :
#1080
0$
#1085
1$
b00000000000000000000000000000100 ;
b00000000000000000000000000000010 :
b00000000000000000000000000000001 4
b00000000000000000000000000000001 >
scount <
#1090
0$
#1095
1$
b00000000000000000000000000000000 4
b00000000000000000000000000000001 =
b00000000000000000000000000001000 ;
b00000000000000000000000000000011 :
#1100
0$
#1105
1$
b00000000000000000000000000010000 ;
b00000000000000000000000000000000 :
sresult 9
b00000000000000000000000000000010 =
#1110
0$
#1115
1$
b00000000000000000000000000000010 >
b00000000000000000000000000000011 =
b00000000000000000000000000000001 2
b00000000000000000000000000000001 ;
scount 9
#1120
0$
#1125
1$
b00000000000000000000000000000000 2
b00000000000000000000000000000010 ;
b00000000000000000000000000000001 :
b00000000000000000000000000000110 >
b00000000000000000000000000000100 =
#1130
0$
#1135
1$
b00000000000000000000000000011000 >
b00000000000000000000000000000000 =
sresult <
b00000000000000000000000000000100 ;
b00000000000000000000000000000010 :
#1140
0$
#1145
1$
b00000000000000000000000000001000 ;
b00000000000000000000000000000011 :
b00000000000000000000000000000001 4
b00000000000000000000000000000001 >
scount <
#1150
0$
#1155
1$
b00000000000000000000000000000000 4
b00000000000000000000000000000001 =
b00000000000000000000000000010000 ;
b00000000000000000000000000000000 :
sresult 9
#1160
0$
#1165
1$
b00000000000000000000000000000001 2
b00000000000000000000000000000001 ;
scount 9
b00000000000000000000000000000010 =
#1170
0$
#1175
1$
b00000000000000000000000000000010 >
b00000000000000000000000000000011 =
b00000000000000000000000000000000 2
b00000000000000000000000000000010 ;
b00000000000000000000000000000001 :
#1180
0$
#1185
1$
b00000000000000000000000000000100 ;
b00000000000000000000000000000010 :
b00000000000000000000000000000110 >
b00000000000000000000000000000100 =
#1190
0$
#1195
1$
b00000000000000000000000000011000 >
b00000000000000000000000000000000 =
sresult <
b00000000000000000000000000001000 ;
b00000000000000000000000000000011 :
#1200
0$
#1205
1$
b00000000000000000000000000010000 ;
b00000000000000000000000000000000 :
sresult 9
b00000000000000000000000000000001 4
b00000000000000000000000000000001 >
scount <
#1210
0$
#1215
1$
b00000000000000000000000000000000 4
b00000000000000000000000000000001 =
b00000000000000000000000000000001 2
b00000000000000000000000000000001 ;
scount 9
#1220
0$
#1225
1$
b00000000000000000000000000000000 2
b00000000000000000000000000000010 ;
b00000000000000000000000000000001 :
b00000000000000000000000000000010 =
#1230
0$
#1235
1$
b00000000000000000000000000000010 >
b00000000000000000000000000000011 =
b00000000000000000000000000000100 ;
b00000000000000000000000000000010 :
#1240
0$
#1245
1$
b00000000000000000000000000001000 ;
b00000000000000000000000000000011 :
b00000000000000000000000000000110 >
b00000000000000000000000000000100 =
#1250
0$
#1255
1$
b00000000000000000000000000011000 >
b00000000000000000000000000000000 =
sresult <
b00000000000000000000000000010000 ;
b00000000000000000000000000000000 :
sresult 9
#1260
0$
#1265
1$
b00000000000000000000000000000001 2
b00000000000000000000000000000001 ;
scount 9
b00000000000000000000000000000001 4
b00000000000000000000000000000001 >
scount <
#1270
0$
#1275
1$
b00000000000000011010101010101010 8
b00000000000000000000000000000000 6
sresult 5
b00000000000000000000000000000000 4
b00000000000000000000000000000001 =
b00000000000000000000000000000000 2
b00000000000000000000000000000010 ;
b00000000000000000000000000000001 :
#1280
0$
#1285
1$
b00000000000000000000000000000100 ;
b00000000000000000000000000000000 :
sresult 9
b00000000000000000000000000000000 =
sresult <
b00000000000000000000000000000001 +
b00000000000000011010101010101010 *
b00000000000000010000000000000000 8
scount 5
#1290
0$
#1295
1$
b00000000000000000000000000000000 )
b00000000000000001001111111111111 .
sresult ,
b00000000000000000000000000000000 +
b00000000000000000000000000000001 4
b00000000000000000000000000000001 0
scount <
b00000000000000000000000000000001 2
b00000000000000000000000000000100 /
b00000000000000000000000000000001 ;
scount 9
#1300
0$
#1305
1$
b00000000000000000000000000000000 2
b00000000000000000000000000000010 ;
sresult 9
b00000000000000000000000000000000 4
sresult <
b00000000000000000000000000000001 )
b00000000000000001001111111111111 '
scount ,
#1310
0$
#1315
1$
b00000000000000000000000000000001 4
scount <
b00000000000000000000000000000001 2
b00000000000000000000000000000010 /
b00000000000000000000000000000001 ;
scount 9
#1320
0$
#1325
1$
b00000000000000000000000000000000 2
b00000000000000000000000000000010 ;
sresult 9
b00000000000000000000000000000000 4
sresult <
b00000000000000000000000000000001 6
#1330
0$
#1335
1$
b00000000000000000000000000000001 4
scount <
b00000000000000000000000000000001 2
b00000000000000000000000000000001 ;
scount 9
#1340
0$
#1345
1$
b00000000000000000000000000000000 2
b00000000000000000000000000000010 ;
sresult 9
b00000000000000000000000000000000 4
b00000000000000000000000000000001 =
b00000000000000110000000000000000 8
b00000000000000000000000000000010 6
#1350
0$
#1355
1$
b00000000000000000000000000000010 =
b00000000000000000000000000000001 2
b00000000000000000000000000000001 ;
scount 9
#1360
0$
#1365
1$
b00000000000000000000000000000000 2
b00000000000000000000000000000010 ;
b00000000000000000000000000000001 :
b00000000000000000000000000000010 >
b00000000000000000000000000000000 =
sresult <
#1370
0$
#1375
1$
b00000000000000000000000000000001 4
b00000000000000000000000000000010 0
b00000000000000000000000000000001 >
scount <
b00000000000000000000000000000100 ;
b00000000000000000000000000000000 :
sresult 9
#1380
0$
#1385
1$
b00000000000000000000000000000001 2
b00000000000000000000000000000100 /
b00000000000000000000000000000001 ;
scount 9
b00000000000000000000000000000000 4
b00000000000000000000000000000001 =
#1390
0$
#1395
1$
b00000000000000000000000000000010 =
b00000000000000000000000000000000 2
b00000000000000000000000000000010 ;
b00000000000000000000000000000001 :
#1400
0$
#1405
1$
b00000000000000000000000000000100 ;
b00000000000000000000000000000000 :
sresult 9
b00000000000000000000000000000010 >
b00000000000000000000000000000000 =
sresult <
#1410
0$
#1415
1$
b00000000000000000000000000000001 4
b00000000000000000000000000000001 >
scount <
b00000000000000000000000000000001 2
b00000000000000000000000000000001 ;
scount 9
#1420
0$
#1425
1$
b00000000000000000000000000000000 2
b00000000000000000000000000000010 ;
b00000000000000000000000000000001 :
b00000000000000000000000000000000 4
b00000000000000000000000000000001 =
b00000000000001010000000000000000 8
b00000000000000000000000000000011 6
#1430
0$
#1435
1$
b00000000000000000000000000000010 =
b00000000000000000000000000000100 ;
b00000000000000000000000000000010 :
#1440
0$
#1445
1$
b00000000000000000000000000001000 ;
b00000000000000000000000000000000 :
sresult 9
b00000000000000000000000000000010 >
b00000000000000000000000000000011 =
#1450
0$
#1455
1$
b00000000000000000000000000000110 >
b00000000000000000000000000000000 =
sresult <
b00000000000000000000000000000001 2
b00000000000000000000000000001000 /
b00000000000000000000000000000001 ;
scount 9
#1460
0$
#1465
1$
b00000000000000000000000000000000 2
b00000000000000000000000000000010 ;
b00000000000000000000000000000001 :
b00000000000000000000000000000001 4
b00000000000000000000000000000110 0
b00000000000000000000000000000001 >
scount <
#1470
0$
#1475
1$
b00000000000000000000000000000000 4
b00000000000000000000000000000001 =
b00000000000000000000000000000100 ;
b00000000000000000000000000000010 :
#1480
0$
#1485
1$
b00000000000000000000000000001000 ;
b00000000000000000000000000000000 :
sresult 9
b00000000000000000000000000000010 =
#1490
0$
#1495
1$
b00000000000000000000000000000010 >
b00000000000000000000000000000011 =
b00000000000000000000000000000001 2
b00000000000000000000000000000001 ;
scount 9
#1500
0$
#1505
1$
b00000000000000000000000000000000 2
b00000000000000000000000000000010 ;
b00000000000000000000000000000001 :
b00000000000000000000000000000110 >
b00000000000000000000000000000000 =
sresult <
#1510
0$
#1515
1$
b00000000000000000000000000000001 4
b00000000000000000000000000000001 >
scount <
b00000000000000000000000000000100 ;
b00000000000000000000000000000010 :
#1520
0$
#1525
1$
b00000000000000000000000000001000 ;
b00000000000000000000000000000000 :
sresult 9
b00000000000000000000000000000000 4
b00000000000000000000000000000001 =
#1530
0$
#1535
1$
b00000000000000000000000000000010 =
b00000000000000000000000000000001 2
b00000000000000000000000000000001 ;
scount 9
#1540
0$
#1545
1$
b00000000000000000000000000000000 2
b00000000000000000000000000000010 ;
b00000000000000000000000000000001 :
b00000000000000000000000000000010 >
b00000000000000000000000000000011 =
#1550
0$
#1555
1$
b00000000000000000000000000000110 >
b00000000000000000000000000000000 =
sresult <
b00000000000000000000000000000100 ;
b00000000000000000000000000000010 :
#1560
0$
#1565
1$
b00000000000000000000000000001000 ;
b00000000000000000000000000000000 :
sresult 9
b00000000000000000000000000000001 4
b00000000000000000000000000000001 >
scount <
#1570
0$
#1575
1$
b00000000000000000000000000000000 4
b00000000000000000000000000000001 =
b00000000000000000000000000000001 2
b00000000000000000000000000000001 ;
scount 9
#1580
0$
#1585
1$
b00000000000000000000000000000000 2
b00000000000000000000000000000010 ;
b00000000000000000000000000000001 :
b00000000000000000000000000000010 =
#1590
0$
#1595
1$
b00000000000000000000000000000010 >
b00000000000000000000000000000011 =
b00000000000000000000000000000100 ;
b00000000000000000000000000000010 :
#1600
0$
#1605
1$
b00000000000000000000000000001000 ;
b00000000000000000000000000000000 :
sresult 9
b00000000000000000000000000000110 >
b00000000000000000000000000000000 =
sresult <
#1610
0$
#1615
1$
b00000000000000000000000000000001 4
b00000000000000000000000000000001 >
scount <
b00000000000000000000000000000001 2
b00000000000000000000000000000001 ;
scount 9
#1620
0$
#1625
1$
b00000000000000000000000000000000 2
b00000000000000000000000000000010 ;
b00000000000000000000000000000001 :
b00000000000000000000000000000000 4
b00000000000000000000000000000001 =
b00000000000001100101010101010101 8
b00000000000000000000000000000100 6
#1630
0$
#1635
1$
b00000000000000000000000000000010 =
b00000000000000000000000000000100 ;
b00000000000000000000000000000010 :
#1640
0$
#1645
1$
b00000000000000000000000000001000 ;
b00000000000000000000000000000011 :
b00000000000000000000000000000010 >
b00000000000000000000000000000011 =
#1650
0$
#1655
1$
b00000000000000000000000000000110 >
b00000000000000000000000000000100 =
b00000000000000000000000000010000 ;
b00000000000000000000000000000000 :
sresult 9
#1660
0$
#1665
1$
b00000000000000000000000000000001 2
b00000000000000000000000000010000 /
b00000000000000000000000000000001 ;
scount 9
b00000000000000000000000000011000 >
b00000000000000000000000000000000 =
sresult <
#1670
0$
#1675
1$
b00000000000000000000000000000001 4
b00000000000000000000000000011000 0
b00000000000000000000000000000001 >
scount <
b00000000000000000000000000000000 2
b00000000000000000000000000000010 ;
b00000000000000000000000000000001 :
#1680
0$
#1685
1$
b00000000000000000000000000000100 ;
b00000000000000000000000000000010 :
b00000000000000000000000000000000 4
b00000000000000000000000000000001 =
#1690
0$
#1695
1$
b00000000000000000000000000000010 =
b00000000000000000000000000001000 ;
b00000000000000000000000000000011 :
#1700
0$
#1705
1$
b00000000000000000000000000010000 ;
b00000000000000000000000000000000 :
sresult 9
b00000000000000000000000000000010 >
b00000000000000000000000000000011 =
#1710
0$
#1715
1$
b00000000000000000000000000000110 >
b00000000000000000000000000000100 =
b00000000000000000000000000000001 2
b00000000000000000000000000000001 ;
scount 9
#1720
0$
#1725
1$
b00000000000000000000000000000000 2
b00000000000000000000000000000010 ;
b00000000000000000000000000000001 :
b00000000000000000000000000011000 >
b00000000000000000000000000000000 =
sresult <
#1730
0$
