inputs/jtag/atxmega256a3u-bmda-jtag.vcd
$date 2024-02-08 20:12:15.292382 $end
$timescale 1 ns $end
$scope module  $end
$var wire 1 ! tck $end
$var wire 1 " tms $end
$var wire 1 # tdi $end
$var wire 1 $ tdo $end
$var wire 1 % srst $end
$upscope $end
$enddefinitions $end
#0
$dumpvars
1!
0"
1#
1$
1%
$end
#1
1"
#2
0#
#4
0!
#5
1!
#6
0!
#7
1!
#8
0!
#9
1!
#10
0!
#11
1!
#12
0!
#13
1!
#14
0!
#15
1!
#16
0!
#17
1!
#18
0!
#19
1!
#20
0!
#21
1!
#22
0!
#23
1!
#24
0!
#25
1!
#26
0!
#27
1!
#28
0!
#29
1!
#30
0!
#31
1!
#32
0!
#33
1!
0"
1#
#34
0!
#35
1!
#36
0!
#37
1"
#38
1!
#39
0!
#40
1!
#41
0!
#42
1!
#43
0!
#44
1!
#45
0!
#46
0"
#47
1!
#48
0!
#49
1!
#50
0!
#51
1"
#52
1!
#53
0!
#54
1!
#55
0!
#56
1!
#57
0!
#58
0"
#59
1!
#60
0!
#61
1!
#62
0!
#63
1"
#64
1!
#65
0!
#66
1!
#67
0!
#68
1!
#69
0!
#70
1!
#71
0!
#72
1!
#73
0!
#74
1!
#75
0!
#76
1!
#77
0!
#78
1!
#79
0!
#80
0"
#81
1!
#82
0!
#83
1"
#84
1!
#85
0!
#86
0"
#87
1!
#88
0!
#89
1!
#90
0!
#91
0#
#92
1#
#93
1!
#94
0!
#95
1!
#96
0!
#97
1!
#98
0!
#99
1!
#100
0!
#101
1!
#102
0!
#103
1!
#104
0!
0$
#105
1!
#106
0!
#107
1!
#108
0!
#109
1!
#110
0!
#111
1!
#112
0!
#113
1!
#114
0!
#115
1!
#116
0!
#117
1!
#118
0!
#119
1$
#120
1!
#121
0!
0$
#122
1!
#123
0!
#124
1!
#125
0!
#126
1!
#127
0!
#128
1!
#129
0!
#130
1$
#131
1!
#132
0!
#133
0$
#134
1!
#135
0!
#136
1!
#137
0!
#138
1!
#139
0!
#140
1!
#141
0!
#142
1$
#143
1!
#144
0!
#145
1!
#146
0!
#147
0$
#148
1!
#149
0!
#150
1!
#151
0!
#152
1$
#153
1!
#154
0!
#155
0$
#156
1!
#157
0!
#158
1$
#159
1!
#160
0!
#161
1!
#162
0!
#163
0$
#164
1!
#165
0!
#166
1$
#167
0#
#168
1#
#169
1!
#170
0!
#171
1!
#172
0!
#173
1!
#174
0!
#175
1!
#176
0!
#177
1!
#178
0!
#179
1!
#180
0!
#181
1!
#182
0!
#183
1!
#184
0!
#185
1!
#186
0!
#187
1!
#188
0!
#189
1!
#190
0!
#191
1!
#192
0!
#193
1!
#194
0!
#195
1!
#196
0!
#197
1!
#198
0!
#199
1!
1"
#200
0!
#201
1!
#202
0!
#203
0"
#204
1!
#205
0!
#206
1"
#207
1!
#208
0!
#209
1!
#210
0!
#211
0"
#212
1!
#213
0!
#214
1!
#215
0!
#216
1!
#217
0!
#218
0$
#219
1!
#220
0!
#221
1!
#222
0!
#223
1!
#224
0!
#225
1$
#226
1!
#227
0!
#228
1!
#229
0!
#230
1"
#231
1!
#232
0!
#233
1!
#234
0!
#235
0"
#236
1!
#237
0!
#238
1"
#239
1!
#240
0!
#241
0"
#242
1!
#243
0!
#244
1!
#245
0!
0$
#246
1!
#247
0!
#248
1$
#249
1!
#250
0!
#251
1"
#252
1!
#253
0!
#254
1!
#255
0!
#256
0"
#257
1!
#258
0!
#259
1"
#260
1!
#261
0!
#262
1!
#263
0!
#264
0"
#265
1!
#266
0!
#267
1!
#268
0!
#269
0#
#270
1#
#271
1!
#272
0!
0$
#273
1!
#274
0!
#275
1!
#276
0!
#277
0#
#278
1"
#279
1!
#280
0!
#281
1$
#282
1#
#283
1!
#284
0!
#285
0"
#286
1!
#287
0!
#288
1"
#289
1!
#290
0!
#291
1!
#292
0!
#293
0"
#294
1!
#295
0!
#296
1!
#297
0!
#298
0#
#299
1#
#300
1!
#301
0!
#302
0$
#303
1!
#304
0!
#305
1!
#306
0!
#307
1"
#308
1!
#309
0!
#310
1$
#311
1!
#312
0!
#313
0"
#314
1!
#315
0!
#316
1"
#317
1!
#318
0!
#319
1!
#320
0!
#321
0"
#322
1!
#323
0!
#324
1!
#325
0!
#326
0#
#327
1#
#328
1!
#329
0!
#330
0$
#331
1!
#332
0!
#333
1!
#334
0!
#335
0#
#336
1"
#337
1!
#338
0!
#339
1$
#340
1#
#341
1!
#342
0!
#343
0"
#344
1!
#345
0!
#346
1"
#347
1!
#348
0!
#349
0"
#350
1!
#351
0!
#352
1!
#353
0!
#354
0#
#355
1#
#356
1!
#357
0!
#358
0#
#359
1!
#360
0!
#361
0$
#362
1!
#363
0!
#364
1$
#365
1!
#366
0!
#367
0$
#368
1!
#369
0!
#370
1$
#371
1!
#372
0!
#373
1#
#374
1!
#375
0!
#376
1!
#377
0!
#378
1"
#379
1!
#380
0!
#381
1!
#382
0!
#383
1!
#384
0!
#385
0"
#386
1!
#387
0!
#388
1!
#389
0!
#390
0#
#391
1#
#392
1!
#393
0!
#394
0#
#395
1!
#396
0!
#397
0$
#398
1!
#399
0!
#400
1$
#401
1#
#402
1!
#403
0!
#404
0$
#405
1!
#406
0!
#407
1$
#408
0#
#409
1!
#410
0!
#411
1#
#412
1!
#413
0!
#414
0#
#415
1!
#416
0!
#417
1"
#418
1!
#419
0!
#420
1#
#421
1!
#422
0!
#423
1!
#424
0!
#425
0"
#426
1!
#427
0!
#428
1!
#429
0!
#430
0#
#431
1!
#432
0!
#433
1!
#434
0!
#435
0$
#436
1!
#437
0!
#438
1$
#439
1!
#440
0!
#441
0$
#442
1!
#443
0!
#444
1$
#445
1!
#446
0!
#447
1!
#448
0!
#449
1#
#450
1!
#451
0!
#452
1"
#453
1!
#454
0!
#455
1!
#456
0!
#457
1!
#458
0!
#459
0"
#460
1!
#461
0!
#462
1!
#463
0!
#464
0$
#465
0#
#466
1!
#467
0!
#468
1!
#469
0!
#470
1!
#471
0!
#472
1!
#473
0!
#474
1!
#475
0!
#476
1!
#477
0!
#478
1!
#479
0!
#480
1!
#481
0!
#482
1"
#483
1!
#484
0!
#485
1$
#486
1#
#487
1!
#488
0!
#489
1!
#490
0!
#491
0"
#492
1!
#493
0!
#494
1!
#495
0!
#496
0#
#497
1!
#498
0!
#499
1!
#500
0!
0$
#501
1!
#502
0!
#503
1$
#504
1!
#505
0!
0$
#506
1!
#507
0!
#508
1$
#509
1#
#510
1!
#511
0!
#512
1!
#513
0!
#514
1!
#515
0!
#516
1"
#517
1!
#518
0!
#519
1!
#520
0!
#521
1!
#522
0!
#523
0"
#524
1!
#525
0!
#526
1!
#527
0!
#528
0#
#529
1#
#530
1!
#531
0!
#532
0#
#533
1!
#534
0!
0$
#535
1!
#536
0!
#537
1$
#538
1!
#539
0!
#540
0$
#541
1!
#542
0!
#543
1$
#544
1#
#545
1!
#546
0!
#547
0#
#548
1!
#549
0!
#550
1!
#551
0!
#552
1"
#553
1!
#554
0!
#555
1#
#556
1!
#557
0!
#558
1!
#559
0!
#560
0"
#561
1!
#562
0!
#563
1!
#564
0!
#565
0#
#566
1#
#567
1!
#568
0!
#569
0#
#570
1!
#571
0!
#572
0$
#573
1!
#574
0!
#575
1$
#576
1!
#577
0!
#578
0$
#579
1!
#580
0!
#581
1$
#582
1!
#583
0!
#584
1!
#585
0!
#586
1#
#587
1!
#588
0!
#589
0#
#590
1"
#591
1!
#592
0!
#593
1#
#594
1!
#595
0!
#596
1!
#597
0!
#598
0"
#599
1!
#600
0!
#601
1!
#602
0!
#603
0#
#604
1!
#605
0!
#606
1!
#607
0!
#608
0$
#609
1#
#610
1!
#611
0!
#612
1$
#613
1!
#614
0!
#615
0$
#616
1!
#617
0!
#618
1$
#619
1!
#620
0!
#621
1!
#622
0!
#623
0#
#624
1!
#625
0!
#626
1#
#627
1"
#628
1!
#629
0!
#630
1!
#631
0!
#632
1!
#633
0!
#634
0"
#635
1!
#636
0!
#637
1!
#638
0!
#639
0#
#640
1#
#641
1!
#642
0!
#643
1!
#644
0!
#645
0$
#646
1!
#647
0!
#648
1$
#649
1!
#650
0!
#651
0$
#652
1!
#653
0!
#654
1$
#655
0#
#656
1!
#657
0!
#658
1!
#659
0!
#660
1#
#661
1!
#662
0!
#663
0#
#664
1"
#665
1!
#666
0!
#667
1#
#668
1!
#669
0!
#670
1!
#671
0!
#672
0"
#673
1!
#674
0!
#675
1!
#676
0!
#677
0#
#678
1!
#679
0!
#680
1!
#681
0!
#682
0$
#683
1#
#684
1!
#685
0!
#686
1$
#687
0#
#688
1!
#689
0!
#690
0$
#691
1#
#692
1!
#693
0!
#694
1$
#695
0#
#696
1!
#697
0!
#698
1#
#699
1!
#700
0!
#701
1!
#702
0!
#703
0#
#704
1"
#705
1!
#706
0!
#707
1#
#708
1!
#709
0!
#710
1!
#711
0!
#712
0"
#713
1!
#714
0!
#715
1!
#716
0!
#717
0#
#718
1#
#719
1!
#720
0!
#721
0#
#722
1!
#723
0!
#724
0$
#725
1#
#726
1!
#727
0!
#728
1$
#729
1!
#730
0!
#731
0$
#732
0#
#733
1!
#734
0!
#735
1$
#736
1#
#737
1!
#738
0!
#739
0#
#740
1!
#741
0!
#742
1!
#743
0!
#744
1"
#745
1!
#746
0!
#747
1#
#748
1!
#749
0!
#750
1!
#751
0!
#752
0"
#753
1!
#754
0!
#755
1!
#756
0!
#757
0#
#758
1#
#759
1!
#760
0!
#761
0#
#762
1!
#763
0!
#764
0$
#765
1!
#766
0!
#767
1$
#768
1!
#769
0!
#770
0$
#771
1!
#772
0!
#773
1$
#774
1#
#775
1!
#776
0!
#777
0#
#778
1!
#779
0!
#780
1!
#781
0!
#782
1"
#783
1!
#784
0!
#785
1#
#786
1!
#787
0!
#788
1!
#789
0!
#790
0"
#791
1!
#792
0!
#793
1!
#794
0!
#795
0#
#796
1!
#797
0!
#798
1#
#799
1!
#800
0!
#801
0$
#802
0#
#803
1!
#804
0!
#805
1$
#806
1#
#807
1!
#808
0!
#809
0$
#810
1!
#811
0!
#812
1$
#813
1!
#814
0!
#815
0#
#816
1!
#817
0!
#818
1!
#819
0!
#820
1"
#821
1!
#822
0!
#823
1#
#824
1!
#825
0!
#826
1!
#827
0!
#828
0"
#829
1!
#830
0!
#831
1!
#832
0!
#833
0#
#834
1!
#835
0!
#836
1!
#837
0!
#838
0$
#839
1!
#840
0!
#841
1$
#842
1!
#843
0!
#844
0$
#845
1!
#846
0!
#847
1$
#848
1!
#849
0!
#850
1!
#851
0!
#852
1#
#853
1!
#854
0!
#855
1"
#856
1!
#857
0!
#858
1!
#859
0!
#860
1!
#861
0!
#862
0"
#863
1!
#864
0!
#865
1!
#866
0!
#867
0$
#868
0#
#869
1!
#870
0!
#871
1!
#872
0!
#873
1$
#874
1!
#875
0!
#876
0$
#877
1!
#878
0!
#879
1!
#880
0!
#881
1!
#882
0!
#883
1!
#884
0!
#885
1!
#886
0!
#887
1$
#888
1"
#889
1!
#890
0!
#891
1#
#892
1!
#893
0!
#894
1!
#895
0!
#896
0"
#897
1!
#898
0!
#899
1!
#900
0!
#901
0#
#902
1!
#903
0!
#904
1!
#905
0!
0$
#906
1#
#907
1!
#908
0!
#909
1$
#910
0#
#911
1!
#912
0!
#913
0$
#914
1!
#915
0!
#916
1$
#917
1!
#918
0!
#919
1#
#920
1!
#921
0!
#922
1!
#923
0!
#924
1"
#925
1!
#926
0!
#927
1!
#928
0!
#929
1!
#930
0!
#931
0"
#932
1!
#933
0!
#934
1!
#935
0!
#936
0#
#937
1#
#938
1!
#939
0!
#940
0#
#941
1!
#942
0!
#943
0$
#944
1!
#945
0!
#946
1$
#947
1!
#948
0!
#949
0$
#950
1!
#951
0!
#952
1$
#953
1!
#954
0!
#955
1!
#956
0!
#957
1!
#958
0!
#959
1#
#960
1"
#961
1!
#962
0!
#963
1!
#964
0!
#965
1!
#966
0!
#967
0"
#968
1!
#969
0!
#970
1!
#971
0!
#972
0#
#973
1#
#974
1!
#975
0!
#976
1!
#977
0!
#978
0$
#979
0#
#980
1!
#981
0!
#982
1$
#983
1!
#984
0!
#985
0$
#986
1!
#987
0!
#988
1$
#989
1!
#990
0!
#991
1!
#992
0!
#993
1#
#994
1!
#995
0!
#996
1"
#997
1!
#998
0!
#999
1!
#1000
0!
#1001
1!
#1002
0!
#1003
0"
#1004
1!
#1005
0!
#1006
1!
#1007
0!
0$
#1008
0#
#1009
1!
#1010
0!
#1011
1!
#1012
0!
#1013
1!
#1014
0!
#1015
1!
#1016
0!
#1017
1$
#1018
1!
#1019
0!
#1020
0$
#1021
1!
#1022
0!
#1023
1!
#1024
0!
#1025
1!
#1026
0!
#1027
1$
#1028
1"
#1029
1!
#1030
0!
#1031
1#
#1032
1!
#1033
0!
#1034
1!
#1035
0!
#1036
0"
#1037
1!
#1038
0!
#1039
1!
#1040
0!
#1041
0#
#1042
1#
#1043
1!
#1044
0!
#1045
0#
#1046
1!
#1047
0!
#1048
0$
#1049
1!
#1050
0!
#1051
1$
#1052
1!
#1053
0!
#1054
0$
#1055
1!
#1056
0!
#1057
1$
#1058
1!
#1059
0!
#1060
1#
#1061
1!
#1062
0!
#1063
1!
#1064
0!
#1065
1"
#1066
1!
#1067
0!
#1068
1!
#1069
0!
#1070
1!
#1071
0!
#1072
0"
#1073
1!
#1074
0!
#1075
1!
#1076
0!
#1077
0#
#1078
1!
#1079
0!
#1080
1!
#1081
0!
#1082
0$
#1083
1!
#1084
0!
#1085
1$
#1086
1!
#1087
0!
#1088
0$
#1089
1!
#1090
0!
#1091
1$
#1092
1!
#1093
0!
#1094
1!
#1095
0!
#1096
1!
#1097
0!
#1098
1"
#1099
1!
#1100
0!
#1101
1#
#1102
1!
#1103
0!
#1104
1!
#1105
0!
#1106
0"
#1107
1!
#1108
0!
#1109
1!
#1110
0!
#1111
0#
#1112
1#
#1113
1!
#1114
0!
#1115
1!
#1116
0!
#1117
0$
#1118
0#
#1119
1!
#1120
0!
#1121
1$
#1122
1!
#1123
0!
#1124
0$
#1125
1!
#1126
0!
#1127
1$
#1128
1!
#1129
0!
#1130
1!
#1131
0!
#1132
1#
#1133
1!
#1134
0!
#1135
1"
#1136
1!
#1137
0!
#1138
1!
#1139
0!
#1140
1!
#1141
0!
#1142
0"
#1143
1!
#1144
0!
#1145
1!
#1146
0!
#1147
0$
#1148
0#
#1149
1!
#1150
0!
#1151
1!
#1152
0!
#1153
1$
#1154
1!
#1155
0!
#1156
0$
#1157
1!
#1158
0!
#1159
1$
#1160
1!
#1161
0!
#1162
0$
#1163
1!
#1164
0!
#1165
1!
#1166
0!
#1167
1!
#1168
0!
#1169
1"
#1170
1!
#1171
0!
#1172
1$
#1173
1#
#1174
1!
#1175
0!
#1176
1!
#1177
0!
#1178
0"
#1179
1!
#1180
0!
#1181
1!
#1182
0!
#1183
0#
#1184
1#
#1185
1!
#1186
0!
#1187
1!
#1188
0!
#1189
0$
#1190
0#
#1191
1!
#1192
0!
#1193
1$
#1194
1!
#1195
0!
#1196
0$
#1197
1!
#1198
0!
#1199
1$
#1200
1!
#1201
0!
#1202
1!
#1203
0!
#1204
1#
#1205
1!
#1206
0!
#1207
1"
#1208
1!
#1209
0!
#1210
1!
#1211
0!
#1212
1!
#1213
0!
#1214
0"
#1215
1!
#1216
0!
#1217
1!
#1218
0!
#1219
0$
#1220
0#
#1221
1!
#1222
0!
#1223
1!
#1224
0!
#1225
1$
#1226
1!
#1227
0!
#1228
0$
#1229
1!
#1230
0!
#1231
1!
#1232
0!
#1233
1!
#1234
0!
#1235
1!
#1236
0!
#1237
1!
#1238
0!
#1239
1$
#1240
1"
#1241
1!
#1242
0!
#1243
1#
#1244
1!
#1245
0!
#1246
1!
#1247
0!
#1248
0"
#1249
1!
#1250
0!
#1251
1!
#1252
0!
#1253
0#
#1254
1!
#1255
0!
#1256
1!
#1257
0!
0$
#1258
1!
#1259
0!
#1260
1$
#1261
1!
#1262
0!
#1263
0$
#1264
1!
#1265
0!
#1266
1$
#1267
1#
#1268
1!
#1269
0!
#1270
1!
#1271
0!
#1272
1!
#1273
0!
#1274
1"
#1275
1!
#1276
0!
#1277
1!
#1278
0!
#1279
1!
#1280
0!
#1281
0"
#1282
1!
#1283
0!
#1284
1!
#1285
0!
#1286
0#
#1287
1#
#1288
1!
#1289
0!
#1290
1!
#1291
0!
#1292
0$
#1293
1!
#1294
0!
#1295
1$
#1296
1!
#1297
0!
#1298
0$
#1299
1!
#1300
0!
#1301
1$
#1302
1!
#1303
0!
#1304
1!
#1305
0!
#1306
1!
#1307
0!
#1308
0#
#1309
1"
#1310
1!
#1311
0!
#1312
1#
#1313
1!
#1314
0!
#1315
1!
#1316
0!
#1317
0"
#1318
1!
#1319
0!
#1320
1!
#1321
0!
#1322
0#
#1323
1!
#1324
0!
#1325
1!
#1326
0!
#1327
0$
#1328
1!
#1329
0!
#1330
1$
#1331
1#
#1332
1!
#1333
0!
#1334
0$
#1335
0#
#1336
1!
#1337
0!
#1338
1$
#1339
1!
#1340
0!
#1341
1!
#1342
0!
#1343
1#
#1344
1!
#1345
0!
#1346
0#
#1347
1"
#1348
1!
#1349
0!
#1350
1#
#1351
1!
#1352
0!
#1353
1!
#1354
0!
#1355
0"
#1356
1!
#1357
0!
#1358
1!
#1359
0!
#1360
0#
#1361
1!
#1362
0!
#1363
1!
#1364
0!
#1365
0$
#1366
1!
#1367
0!
#1368
1$
#1369
1#
#1370
1!
#1371
0!
0$
#1372
1!
#1373
0!
#1374
1$
#1375
0#
#1376
1!
#1377
0!
#1378
1#
#1379
1!
#1380
0!
#1381
1!
#1382
0!
#1383
0#
#1384
1"
#1385
1!
#1386
0!
#1387
1#
#1388
1!
#1389
0!
#1390
1!
#1391
0!
#1392
0"
#1393
1!
#1394
0!
#1395
1!
#1396
0!
#1397
0#
#1398
1#
#1399
1!
#1400
0!
#1401
0#
#1402
1!
#1403
0!
#1404
0$
#1405
1#
#1406
1!
#1407
0!
#1408
1$
#1409
1!
#1410
0!
#1411
0$
#1412
0#
#1413
1!
#1414
0!
#1415
1$
#1416
1!
#1417
0!
#1418
1#
#1419
1!
#1420
0!
#1421
1!
#1422
0!
#1423
1"
#1424
1!
#1425
0!
#1426
1!
#1427
0!
#1428
1!
#1429
0!
#1430
0"
#1431
1!
#1432
0!
#1433
1!
#1434
0!
#1435
0#
#1436
1#
#1437
1!
#1438
0!
#1439
0#
#1440
1!
#1441
0!
#1442
0$
#1443
1#
#1444
1!
#1445
0!
#1446
1$
#1447
0#
#1448
1!
#1449
0!
#1450
0$
#1451
1!
#1452
0!
#1453
1$
#1454
1!
#1455
0!
#1456
1#
#1457
1!
#1458
0!
#1459
0#
#1460
1!
#1461
0!
#1462
1#
#1463
1"
#1464
1!
#1465
0!
#1466
1!
#1467
0!
#1468
1!
#1469
0!
#1470
0"
#1471
1!
#1472
0!
#1473
1!
#1474
0!
#1475
0#
#1476
1#
#1477
1!
#1478
0!
#1479
1!
#1480
0!
#1481
0$
#1482
0#
#1483
1!
#1484
0!
#1485
1$
#1486
1#
#1487
1!
#1488
0!
#1489
0$
#1490
0#
#1491
1!
#1492
0!
#1493
1$
#1494
1#
#1495
1!
#1496
0!
#1497
0#
#1498
1!
#1499
0!
#1500
1#
#1501
1!
#1502
0!
#1503
1"
#1504
1!
#1505
0!
#1506
1!
#1507
0!
#1508
1!
#1509
0!
#1510
0"
#1511
1!
#1512
0!
#1513
1!
#1514
0!
#1515
0#
#1516
1#
#1517
1!
#1518
0!
#1519
0#
#1520
1!
#1521
0!
#1522
0$
#1523
1!
#1524
0!
#1525
1$
#1526
1#
#1527
1!
#1528
0!
#1529
0$
#1530
0#
#1531
1!
#1532
0!
#1533
1$
#1534
1!
#1535
0!
#1536
1!
#1537
0!
#1538
1#
#1539
1!
#1540
0!
#1541
1"
#1542
1!
#1543
0!
#1544
1!
#1545
0!
#1546
1!
#1547
0!
#1548
0"
#1549
1!
#1550
0!
#1551
1!
#1552
0!
#1553
0#
#1554
1!
#1555
0!
#1556
1#
#1557
1!
#1558
0!
#1559
0$
#1560
0#
#1561
1!
#1562
0!
#1563
1$
#1564
1!
#1565
0!
#1566
0$
#1567
1#
#1568
1!
#1569
0!
#1570
1$
#1571
0#
#1572
1!
#1573
0!
#1574
1!
#1575
0!
#1576
1!
#1577
0!
#1578
1"
#1579
1!
#1580
0!
#1581
1#
#1582
1!
#1583
0!
#1584
1!
#1585
0!
#1586
0"
#1587
1!
#1588
0!
#1589
1!
#1590
0!
#1591
0#
#1592
1!
#1593
0!
#1594
1!
#1595
0!
#1596
0$
#1597
1!
#1598
0!
#1599
1$
#1600
1!
#1601
0!
#1602
0$
#1603
1!
#1604
0!
#1605
1$
#1606
1!
#1607
0!
#1608
1!
#1609
0!
#1610
1#
#1611
1!
#1612
0!
#1613
1"
#1614
1!
#1615
0!
#1616
1!
#1617
0!
#1618
1!
#1619
0!
#1620
0"
#1621
1!
#1622
0!
#1623
1!
#1624
0!
#1625
0$
#1626
0#
#1627
1!
#1628
0!
#1629
1$
#1630
1!
#1631
0!
#1632
1!
#1633
0!
#1634
0$
#1635
1!
#1636
0!
#1637
1!
#1638
0!
#1639
1!
#1640
0!
#1641
1!
#1642
0!
#1643
1!
#1644
0!
#1645
1"
#1646
1!
#1647
0!
#1648
1$
#1649
1#
#1650
1!
#1651
0!
#1652
1!
#1653
0!
#1654
0"
#1655
1!
#1656
0!
#1657
1!
#1658
0!
#1659
0#
#1660
1!
#1661
0!
#1662
1!
#1663
0!
#1664
0$
#1665
1#
#1666
1!
#1667
0!
#1668
1$
#1669
1!
#1670
0!
#1671
0$
#1672
0#
#1673
1!
#1674
0!
#1675
1$
#1676
1!
#1677
0!
#1678
1#
#1679
1!
#1680
0!
#1681
0#
#1682
1!
#1683
0!
#1684
1#
#1685
1"
#1686
1!
#1687
0!
#1688
1!
#1689
0!
#1690
1!
#1691
0!
#1692
0"
#1693
1!
#1694
0!
#1695
1!
#1696
0!
#1697
0#
#1698
1!
#1699
0!
#1700
1#
#1701
1!
#1702
0!
0$
#1703
0#
#1704
1!
#1705
0!
#1706
1$
#1707
1#
#1708
1!
#1709
0!
#1710
0$
#1711
0#
#1712
1!
#1713
0!
#1714
1$
#1715
1!
#1716
0!
#1717
1#
#1718
1!
#1719
0!
#1720
1!
#1721
0!
#1722
0#
#1723
1"
#1724
1!
#1725
0!
#1726
1#
#1727
1!
#1728
0!
#1729
1!
#1730
0!
#1731
0"
#1732
1!
#1733
0!
#1734
1!
#1735
0!
#1736
0#
#1737
1#
#1738
1!
#1739
0!
#1740
0#
#1741
1!
#1742
0!
0$
#1743
1!
#1744
0!
#1745
1$
#1746
1!
#1747
0!
0$
#1748
1!
#1749
0!
#1750
1$
#1751
1!
#1752
0!
#1753
1!
#1754
0!
#1755
1!
#1756
0!
#1757
1#
#1758
1"
#1759
1!
#1760
0!
#1761
1!
#1762
0!
#1763
1!
#1764
0!
#1765
0"
#1766
1!
#1767
0!
#1768
1!
#1769
0!
#1770
0#
#1771
1!
#1772
0!
#1773
1!
#1774
0!
#1775
0$
#1776
1!
#1777
0!
#1778
1$
#1779
1!
#1780
0!
#1781
0$
#1782
1!
#1783
0!
#1784
1$
#1785
1!
#1786
0!
#1787
1!
#1788
0!
#1789
1!
#1790
0!
#1791
1"
#1792
1!
#1793
0!
#1794
1#
#1795
1!
#1796
0!
#1797
1!
#1798
0!
#1799
0"
#1800
1!
#1801
0!
#1802
1!
#1803
0!
#1804
0#
#1805
1#
#1806
1!
#1807
0!
#1808
0#
#1809
1!
#1810
0!
0$
#1811
1!
#1812
0!
#1813
1$
#1814
1!
#1815
0!
#1816
0$
#1817
1!
#1818
0!
#1819
1$
#1820
1!
#1821
0!
#1822
1!
#1823
0!
#1824
1!
#1825
0!
#1826
1#
#1827
1"
#1828
1!
#1829
0!
#1830
1!
#1831
0!
#1832
1!
#1833
0!
#1834
0"
#1835
1!
#1836
0!
#1837
1!
#1838
0!
#1839
0#
#1840
1!
#1841
0!
#1842
1!
#1843
0!
#1844
0$
#1845
1!
#1846
0!
#1847
1$
#1848
1!
#1849
0!
#1850
0$
#1851
1!
#1852
0!
#1853
1$
#1854
1!
#1855
0!
#1856
1!
#1857
0!
#1858
1!
#1859
0!
#1860
1"
#1861
1!
#1862
0!
#1863
1#
#1864
1!
#1865
0!
#1866
1!
#1867
0!
#1868
0"
#1869
1!
#1870
0!
#1871
1!
#1872
0!
#1873
0#
#1874
1!
#1875
0!
#1876
1!
#1877
0!
#1878
0$
#1879
1#
#1880
1!
#1881
0!
#1882
1$
#1883
1!
#1884
0!
#1885
0$
#1886
0#
#1887
1!
#1888
0!
#1889
1$
#1890
1!
#1891
0!
#1892
1#
#1893
1!
#1894
0!
#1895
0#
#1896
1!
#1897
0!
#1898
1#
#1899
1"
#1900
1!
#1901
0!
#1902
1!
#1903
0!
#1904
1!
#1905
0!
#1906
0"
#1907
1!
#1908
0!
#1909
1!
#1910
0!
#1911
0#
#1912
1!
#1913
0!
#1914
1!
#1915
0!
#1916
0$
#1917
1#
#1918
1!
#1919
0!
#1920
1$
#1921
0#
#1922
1!
#1923
0!
#1924
0$
#1925
1!
#1926
0!
#1927
1$
#1928
1!
#1929
0!
#1930
1#
#1931
1!
#1932
0!
#1933
1!
#1934
0!
#1935
1"
#1936
1!
#1937
0!
#1938
1!
#1939
0!
#1940
1!
#1941
0!
#1942
0"
#1943
1!
#1944
0!
#1945
1!
#1946
0!
#1947
0#
#1948
1#
#1949
1!
#1950
0!
#1951
0#
#1952
1!
#1953
0!
#1954
0$
#1955
1!
#1956
0!
#1957
1$
#1958
1!
#1959
0!
#1960
0$
#1961
1!
#1962
0!
#1963
1$
#1964
1!
#1965
0!
#1966
1!
#1967
0!
#1968
1!
#1969
0!
#1970
1#
#1971
1"
#1972
1!
#1973
0!
#1974
1!
#1975
0!
#1976
1!
#1977
0!
#1978
0"
#1979
1!
#1980
0!
#1981
1!
#1982
0!
#1983
0#
#1984
1!
#1985
0!
#1986
1!
#1987
0!
#1988
0$
#1989
1!
#1990
0!
#1991
1$
#1992
1!
#1993
0!
#1994
0$
#1995
1!
#1996
0!
#1997
1$
#1998
1!
#1999
0!
#2000
1!
#2001
0!
#2002
1!
#2003
0!
#2004
1"
#2005
1!
#2006
0!
#2007
1#
#2008
1!
#2009
0!
#2010
1!
#2011
0!
#2012
0"
#2013
1!
#2014
0!
#2015
1!
#2016
0!
#2017
0#
#2018
1#
#2019
1!
#2020
0!
#2021
0#
#2022
1!
#2023
0!
#2024
0$
#2025
1!
#2026
0!
#2027
1$
#2028
1!
#2029
0!
#2030
0$
#2031
1!
#2032
0!
#2033
1$
#2034
1!
#2035
0!
#2036
1!
#2037
0!
#2038
1!
#2039
0!
#2040
1#
#2041
1"
#2042
1!
#2043
0!
#2044
1!
#2045
0!
#2046
1!
#2047
0!
#2048
0"
#2049
1!
#2050
0!
#2051
1!
#2052
0!
#2053
0#
#2054
1#
#2055
1!
#2056
0!
#2057
1!
#2058
0!
#2059
0$
#2060
1!
#2061
0!
#2062
1$
#2063
1!
#2064
0!
#2065
0$
#2066
1!
#2067
0!
#2068
1$
#2069
1!
#2070
0!
#2071
1!
#2072
0!
#2073
1!
#2074
0!
#2075
0#
#2076
1"
#2077
1!
#2078
0!
#2079
1#
#2080
1!
#2081
0!
#2082
1!
#2083
0!
#2084
0"
#2085
1!
#2086
0!
#2087
1!
#2088
0!
#2089
0#
#2090
1#
#2091
1!
#2092
0!
#2093
1!
#2094
0!
#2095
0$
#2096
0#
#2097
1!
#2098
0!
#2099
1$
#2100
1!
#2101
0!
#2102
0$
#2103
1!
#2104
0!
#2105
1$
#2106
1!
#2107
0!
#2108
1!
#2109
0!
#2110
1#
#2111
1!
#2112
0!
#2113
1"
#2114
1!
#2115
0!
#2116
1!
#2117
0!
#2118
1!
#2119
0!
#2120
0"
#2121
1!
#2122
0!
#2123
1!
#2124
0!
#2125
0$
#2126
0#
#2127
1!
#2128
0!
#2129
1!
#2130
0!
#2131
1$
#2132
1!
#2133
0!
#2134
0$
#2135
1!
#2136
0!
#2137
1!
#2138
0!
#2139
1!
#2140
0!
#2141
1!
#2142
0!
#2143
1!
#2144
0!
#2145
1$
#2146
1"
#2147
1!
#2148
0!
#2149
1#
#2150
1!
#2151
0!
#2152
1!
#2153
0!
#2154
0"
#2155
1!
#2156
0!
#2157
1!
#2158
0!
#2159
0#
#2160
1#
#2161
1!
#2162
0!
#2163
1!
#2164
0!
#2165
0$
#2166
1!
#2167
0!
#2168
1$
#2169
1!
#2170
0!
#2171
0$
#2172
0#
#2173
1!
#2174
0!
#2175
1$
#2176
1!
#2177
0!
#2178
1!
#2179
0!
#2180
1!
#2181
0!
#2182
1"
#2183
1!
#2184
0!
#2185
1#
#2186
1!
#2187
0!
#2188
1!
#2189
0!
#2190
0"
#2191
1!
#2192
0!
#2193
1!
#2194
0!
#2195
0#
#2196
1!
#2197
0!
#2198
1!
#2199
0!
#2200
0$
#2201
1#
#2202
1!
#2203
0!
#2204
1$
#2205
0#
#2206
1!
#2207
0!
#2208
0$
#2209
1!
#2210
0!
#2211
1$
#2212
1!
#2213
0!
#2214
1!
#2215
0!
#2216
1!
#2217
0!
#2218
1#
#2219
1"
#2220
1!
#2221
0!
#2222
1!
#2223
0!
#2224
1!
#2225
0!
#2226
0"
#2227
1!
#2228
0!
#2229
1!
#2230
0!
#2231
0#
#2232
1!
#2233
0!
#2234
1!
#2235
0!
#2236
0$
#2237
1!
#2238
0!
#2239
1$
#2240
1!
#2241
0!
0$
#2242
1!
#2243
0!
#2244
1$
#2245
1!
#2246
0!
#2247
1!
#2248
0!
#2249
1!
#2250
0!
#2251
1"
