inputs/vcs/datapath_log.vcd
$date
	Sat Aug  7 17:27:07 2021
$end

$version
	Synopsys VCS version I-2014.03-2
$end

$timescale
	1ps
$end

$comment Csum: 1 c79d3ff2614ada0a $end


$scope module fetch_RISCV $end
$var wire 1 ! clk $end
$var wire 1 " branch_en $end
$var wire 1 # stall $end
$var wire 64 $ branch_pc [63:0] $end
$var reg 64 % PC [63:0] $end
$upscope $end


$scope module pipeline_datapath $end
$var wire 1 & clk $end
$var integer 32 ' num_clk $end
$var wire 1 ( br_taken $end
$var wire 1 ) br_en $end
$var reg 1 * br_taken_buff $end
$var reg 1 + br_en_buff $end
$var reg 1 , br_en_buff2 $end
$var wire 64 - br_addr [63:0] $end
$var reg 64 . br_addr_buff [63:0] $end
$var reg 64 / pc [63:0] $end
$var reg 64 0 pc_buff [63:0] $end
$var reg 64 1 pc_buff2 [63:0] $end
$var wire 32 2 instr [31:0] $end
$var reg 32 3 instr_buff [31:0] $end
$var wire 1 4 exec_bypass_sig_Rs1 $end
$var wire 1 5 exec_bypass_sig_Rs2 $end
$var wire 1 6 mem_bypass_sig_Rs2 $end
$var wire 1 7 mem_bypass_sig_Rs1 $end
$var wire 1 8 wrb_bypass_sig_Rs1 $end
$var wire 1 9 wrb_bypass_sig_Rs2 $end
$var reg 1 : exec_bypass_buff_Rs1 $end
$var reg 1 ; exec_bypass_buff_Rs2 $end
$var reg 1 < mem_bypass_buff_Rs1 $end
$var reg 1 = mem_bypass_buff_Rs2 $end
$var reg 1 > wrb_bypass_sig_Rs1_buff $end
$var reg 1 ? wrb_bypass_sig_Rs2_buff $end
$var wire 1 @ stall $end
$var wire 64 A Alu_output [63:0] $end
$var reg 64 B Alu_output_buff [63:0] $end
$var reg 64 C Alu_output_buff2 [63:0] $end
$var wire 64 D reg_file_input [63:0] $end
$var wire 64 E mem_data_output [63:0] $end
$var reg 64 F mem_data_output_buff [63:0] $end
$var wire 1 G sign_bit $end
$var reg 1 H sign_bit_buff $end
$var wire 64 I pc_offset [63:0] $end
$var wire 1 J reg_wr_en $end
$var wire 1 K Rs2_en $end
$var reg 1 L reg_wr_en_buff $end
$var reg 1 M reg_wr_en_buff2 $end
$var reg 1 N reg_wr_en_buff3 $end
$var reg 1 O Rs2_en_buff $end
$var wire 1 P mem_rd_en $end
$var wire 1 Q mem_wr_en $end
$var reg 1 R mem_rd_en_buff $end
$var reg 1 S mem_rd_en_buff2 $end
$var reg 1 T mem_rd_en_buff3 $end
$var reg 1 U mem_wr_en_buff $end
$var reg 1 V mem_wr_en_buff1 $end
$var reg 1 W mem_wr_en_buff2 $end
$var reg 1 X mem_wr_en_buff3 $end
$var wire 4 Y Alu_opr [3:0] $end
$var wire 4 Z final_alu_opr [3:0] $end
$var wire 3 [ load_opr [2:0] $end
$var reg 4 \ Alu_opr_buff [3:0] $end
$var reg 4 ] Alu_opr_buff2 [3:0] $end
$var reg 3 ^ load_opr_buff [2:0] $end
$var reg 3 _ load_opr_buff2 [2:0] $end
$var wire 2 ` store_opr [1:0] $end
$var reg 2 a store_opr_buff [1:0] $end
$var reg 2 b store_opr_buff2 [1:0] $end
$var wire 5 c Rd_addr [4:0] $end
$var wire 5 d Rs1_addr [4:0] $end
$var wire 5 e Rs2_addr [4:0] $end
$var reg 5 f Rd_addr_buff [4:0] $end
$var reg 5 g Rd_addr_buff2 [4:0] $end
$var reg 5 h Rd_addr_buff3 [4:0] $end
$var wire 64 i Rs1_data [63:0] $end
$var wire 64 j Rs2_data [63:0] $end
$var wire 64 k final_Rs1_data [63:0] $end
$var wire 64 l final_Rs2_data [63:0] $end
$var wire 64 m input1_data [63:0] $end
$var wire 64 n input2_data [63:0] $end
$var wire 64 o data_store_mem [63:0] $end
$var reg 64 p Rs1_data_buff [63:0] $end
$var reg 64 q Rs2_data_buff [63:0] $end
$var reg 64 r data_store_mem_buff [63:0] $end
$var wire 12 s imm_val [11:0] $end
$var reg 12 t imm_val_buff [11:0] $end
$var wire 21 u jal_imm_val [20:0] $end
$var reg 21 v jal_imm_val_buff [20:0] $end

$scope module U1 $end
$var reg 1 w clk $end
$upscope $end


$scope module U3 $end
$var wire 64 / PC [63:0] $end
$var wire 32 2 instr [31:0] $end
$upscope $end


$scope module U4 $end
$var wire 32 3 input_inst [31:0] $end
$var reg 4 x Alu_opr [3:0] $end
$var reg 3 y load_flag [2:0] $end
$var reg 2 z store_flag [1:0] $end
$var reg 5 { Rd_addr [4:0] $end
$var reg 5 | Rs1_addr [4:0] $end
$var reg 5 } Rs2_addr [4:0] $end
$var reg 1 ~ reg_write_en $end
$var reg 1 "! mem_write_en $end
$var reg 1 "" mem_read_en $end
$var reg 1 "# branch_en $end
$var reg 1 "$ Rs2_en $end

$scope function Alu_opr_R $end
$var reg 4 "% Alu_opr_R [3:0] $end
$var reg 3 "& func3 [2:0] $end
$var reg 7 "' func7 [6:0] $end
$upscope $end


$scope function Alu_opr_I $end
$var reg 3 "( Alu_opr_I [2:0] $end
$var reg 3 ") func3 [2:0] $end
$upscope $end


$scope function Alu_opr_B $end
$var reg 3 "* Alu_opr_B [2:0] $end
$var reg 3 "+ func3 [2:0] $end
$upscope $end


$scope function store_format $end
$var reg 2 ", store_format [1:0] $end
$var reg 3 "- func3 [2:0] $end
$upscope $end


$scope function load_format $end
$var reg 3 ". load_format [2:0] $end
$var reg 3 "/ func3 [2:0] $end
$upscope $end

$upscope $end


$scope module U5 $end
$var wire 1 & clk $end
$var wire 1 N Wen $end
$var wire 5 d Rs1_addr [4:0] $end
$var wire 5 e Rs2_addr [4:0] $end
$var wire 5 h Rd_addr [4:0] $end
$var wire 64 D write_data [63:0] $end
$var wire 64 "0 Rs1_data [63:0] $end
$var wire 64 "1 Rs2_data [63:0] $end
$var integer 32 "2 i $end
$upscope $end


$scope module U6 $end
$var wire 4 \ Alu_opr [3:0] $end
$var wire 64 m IP_data1 [63:0] $end
$var wire 64 n IP_data2 [63:0] $end
$var wire 64 A OP_data [63:0] $end
$var wire 1 ( is_br_taken $end
$upscope $end


$scope module U7 $end
$var wire 1 & clk $end
$var wire 3 _ load_format [2:0] $end
$var wire 2 b store_format [1:0] $end
$var wire 1 W mem_write_en $end
$var wire 1 S mem_read_en $end
$var wire 64 "3 mem_addr [63:0] $end
$var wire 64 "4 mem_data_input [63:0] $end
$var wire 64 E mem_data_output [63:0] $end
$var integer 32 "5 i $end
$upscope $end

$upscope $end

$enddefinitions $end

#0
$dumpvars
b0000000000000000000000000000000000000000000000000000000000000000 %
xK
xO
0w
x"$
x)
x+
x,
x(
x*
x"#
0&
x:
x;
04
05
x<
x=
07
06
xP
xR
xS
xT
x""
xQ
xU
xV
xW
xX
x"!
xJ
xL
xM
xN
x~
xG
xH
x@
x8
x>
x9
x?
bxxxx Y
bxxx "*
bxxx "+
bxxx "(
bxxx ")
bxxxx "%
bxxx "&
bxxxxxxx "'
bxxxx \
bxxxx ]
bxxxxxxxxxxxxxxxxxxxxxxxxxxxxxxxxxxxxxxxxxxxxxxxxxxxxxxxxxxxxxxxx A
bxxxxxxxxxxxxxxxxxxxxxxxxxxxxxxxxxxxxxxxxxxxxxxxxxxxxxxxxxxxxxxxx B
bxxxxxxxxxxxxxxxxxxxxxxxxxxxxxxxxxxxxxxxxxxxxxxxxxxxxxxxxxxxxxxxx C
bxxxxx c
bxxxxx f
bxxxxx g
bxxxxx h
bxxxxx d
bxxxxxxxxxxxxxxxxxxxxxxxxxxxxxxxxxxxxxxxxxxxxxxxxxxxxxxxxxxxxxxxx i
bxxxxxxxxxxxxxxxxxxxxxxxxxxxxxxxxxxxxxxxxxxxxxxxxxxxxxxxxxxxxxxxx p
bxxxxx e
bxxxxxxxxxxxxxxxxxxxxxxxxxxxxxxxxxxxxxxxxxxxxxxxxxxxxxxxxxxxxxxxx j
bxxxxxxxxxxxxxxxxxxxxxxxxxxxxxxxxxxxxxxxxxxxxxxxxxxxxxxxxxxxxxxxx q
bxxxx x
bxxxxx {
bxxxxx |
bxxxxx }
bxxxxxxxxxxxxxxxxxxxxxxxxxxxxxxxxxxxxxxxxxxxxxxxxxxxxxxxxxxxxxxxx "0
bxxxxxxxxxxxxxxxxxxxxxxxxxxxxxxxxxxxxxxxxxxxxxxxxxxxxxxxxxxxxxxxx "1
b00000000000000000000011111111111 "5
bxxxxxxxxxxxxxxxxxxxxxxxxxxxxxxxxxxxxxxxxxxxxxxxxxxxxxxxxxxxxxxxx -
bxxxxxxxxxxxxxxxxxxxxxxxxxxxxxxxxxxxxxxxxxxxxxxxxxxxxxxxxxxxxxxxx .
bxxxxxxxxxxxxxxxxxxxxxxxxxxxxxxxxxxxxxxxxxxxxxxxxxxxxxxxxxxxxxxxx o
bxxxxxxxxxxxxxxxxxxxxxxxxxxxxxxxxxxxxxxxxxxxxxxxxxxxxxxxxxxxxxxxx r
bzzzzzzzzzzzzzzzzzzzzzzzzzzzzzzzzzzzzzzzzzzzzzzzzzzzzzzzzzzzzzzzz k
bzzzzzzzzzzzzzzzzzzzzzzzzzzzzzzzzzzzzzzzzzzzzzzzzzzzzzzzzzzzzzzzz l
bzzzz Z
b00000000000000000000000000100000 "2
bxxxxxxxxxxxx s
bxxxxxxxxxxxx t
bxxxxxxxxxxxxxxxxxxxxxxxxxxxxxxxxxxxxxxxxxxxxxxxxxxxxxxxxxxxxxxxx m
bxxxxxxxxxxxxxxxxxxxxxxxxxxxxxxxxxxxxxxxxxxxxxxxxxxxxxxxxxxxxxxxx n
b00000001010110100000010010110011 2
bxxxxxxxxxxxxxxxxxxxxxxxxxxxxxxxx 3
b0000000000000000zzzzz u
bxxxxxxxxxxxxxxxxxxxxx v
bxxx y
bxxx "/
bxxx ".
bxxx [
bxxx ^
bxxx _
bxxxxxxxxxxxxxxxxxxxxxxxxxxxxxxxxxxxxxxxxxxxxxxxxxxxxxxxxxxxxxxxx "3
bxxxxxxxxxxxxxxxxxxxxxxxxxxxxxxxxxxxxxxxxxxxxxxxxxxxxxxxxxxxxxxxx "4
bxxxxxxxxxxxxxxxxxxxxxxxxxxxxxxxxxxxxxxxxxxxxxxxxxxxxxxxxxxxxxxxx E
bxxxxxxxxxxxxxxxxxxxxxxxxxxxxxxxxxxxxxxxxxxxxxxxxxxxxxxxxxxxxxxxx F
b00000000000000000000000000000000 '
b0000000000000000000000000000000000000000000000000000000000000000 /
bxxxxxxxxxxxxxxxxxxxxxxxxxxxxxxxxxxxxxxxxxxxxxxxxxxxxxxxxxxxxxxxx 0
bxxxxxxxxxxxxxxxxxxxxxxxxxxxxxxxxxxxxxxxxxxxxxxxxxxxxxxxxxxxxxxxx 1
bxxxxxxxxxxxxxxxxxxxxxxxxxxxxxxxxxxxxxxxxxxxxxxxxxxxxxxxxxxxxxxxx I
bxxxxxxxxxxxxxxxxxxxxxxxxxxxxxxxxxxxxxxxxxxxxxxxxxxxxxxxxxxxxxxxx D
bxx z
bxxx "-
bxx ",
bxx `
bxx a
bxx b
z!
z"
z#
bzzzzzzzzzzzzzzzzzzzzzzzzzzzzzzzzzzzzzzzzzzzzzzzzzzzzzzzzzzzzzzzz $
$end
#100
1w
1&
b00000000000000000000000000000001 '
b0000000000000000000000000000000000000000000000000000000000000100 /
b00000001010110100000010010110011 3
0G
b0000000000000000000000000000000000000000000000000000000000000000 0
b0000000000000000zzzzz v
0:
0<
0;
0=
b00000000000101001000010010010011 2
b000 "&
b0000000 "'
b0000 "%
b10100 |
b0000000000000000000001000101011001110000000100000010001111010010 "0
b0000000000000000000001000101011001110000000100000010001111010010 i
b10100 d
b10101 }
b0000000000000000000000000000000000000001001000000000010111000010 "1
b0000000000000000000000000000000000000001001000000000010111000010 j
b10101 e
b01001 {
b01001 c
1~
1J
0"!
0Q
0""
0P
0"#
0)
1"$
1K
b0000 x
b0000 Y
bzzzzzzzzzzzz s
08
09
#200
0w
0&
#300
1w
1&
b00000000000000000000000000000010 '
b0000000000000000000000000000000000000000000000000000000000001000 /
b00000000000101001000010010010011 3
b0000000000000000000000000000000000000000000000000000000000000100 0
b0000 \
b0000000000000000000001000101011001110000000100000010001111010010 p
b0000000000000000000000000000000000000001001000000000010111000010 q
b01001 f
0H
b0000000000000000000000000000000000000000000000000000000000000000 1
bzzzzzzzzzzzz t
0U
0R
0+
1O
1L
0>
0?
b11110000100101010011100000100011 2
b000 ")
b000 "(
b01001 |
b0000000000000000000000000000000000000000000000000000000000000000 "0
b0000000000000000000000000000000000000000000000000000000000000000 i
b01001 d
bzzzzz }
bxxxxxxxxxxxxxxxxxxxxxxxxxxxxxxxxxxxxxxxxxxxxxxxxxxxxxxxxxxxxxxxx "1
bxxxxxxxxxxxxxxxxxxxxxxxxxxxxxxxxxxxxxxxxxxxxxxxxxxxxxxxxxxxxxxxx j
bzzzzz e
0"$
0K
b000000000001 s
1(
b000000000000000000000000000000000000000000000000000zzzzzzzzzzzz0 I
b0000000000000000000001000101011001110000000100000010001111010010 m
b0000000000000000000000000000000000000001001000000000010111000010 o
0@
b0000000000000000000000000000000000000001001000000000010111000010 n
14
b0000000000000000000001000101011001110001001100000010100110010100 A
#400
0w
0&
#500
1w
1&
b00000000000000000000000000000011 '
b0000000000000000000000000000000000000000000000000000000000001100 /
b11110000100101010011100000100011 3
1G
b0000000000000000000000000000000000000000000000000000000000001000 0
b0000000000000000000000000000000000000000000000000000000000000000 p
bxxxxxxxxxxxxxxxxxxxxxxxxxxxxxxxxxxxxxxxxxxxxxxxxxxxxxxxxxxxxxxxx q
b0000000000000000000000000000000000000000000000000000000000000100 1
b000000000001 t
0O
1:
b0000000000000000000001000101011001110001001100000010100110010100 B
b0000000000000000000001000101011001110001001100000010100110010100 "3
0S
0W
b0000000000000000000000000000000000000001001000000000010111000010 r
b0000000000000000000000000000000000000001001000000000010111000010 "4
0,
1*
1M
b01001 g
b11110001000001010011001010000011 2
b011 "-
b11 ",
b01010 |
b0000000000000000000000000000000000000000000000000000111111111111 "0
b0000000000000000000000000000000000000000000000000000111111111111 i
b01010 d
b01001 }
b0000000000000000000000000000000000000000000000000000000000000000 "1
b0000000000000000000000000000000000000000000000000000000000000000 j
b01001 e
bzzzzz {
bzzzzz c
b11 z
b11 `
0~
0J
1"!
1Q
b111100010000 s
b0000000000000000000001000101011001110001001100000010100110010100 m
bxxxxxxxxxxxxxxxxxxxxxxxxxxxxxxxxxxxxxxxxxxxxxxxxxxxxxxxxxxxxxxxx o
b0000000000000000000000000000000000000000000000000000000000000001 n
b0000000000000000000000000000000000000000000000000000000000000010 I
b0000000000000000000000000000000000000000000000000000000000000110 -
04
16
15
b0000000000000000000001000101011001110001001100000010100110010101 A
bzzzzzzzzzzzzzzzzzzzzzzzzzzzzzzzzzzzzzzzzzzzzzzzzzzzzzzzzzzzzzzzz E
06
#600
0w
0&
#700
1w
1&
b00000000000000000000000000000100 '
b0000000000000000000000000000000000000000000000000000000000010000 /
b11110001000001010011001010000011 3
b0000000000000000000000000000000000000000000000000000000000001100 0
b11 a
b0000000000000000000000000000000000000000000000000000111111111111 p
b0000000000000000000000000000000000000000000000000000000000000000 q
bzzzzz f
1H
b0000000000000000000000000000000000000000000000000000000000001000 1
b0000000000000000000000000000000000000000000000000000000000001010 -
b111100010000 t
1U
0L
0:
1;
b0000000000000000000001000101011001110001001100000010100110010101 B
b0000000000000000000001000101011001110001001100000010100110010101 "3
bxxxxxxxxxxxxxxxxxxxxxxxxxxxxxxxxxxxxxxxxxxxxxxxxxxxxxxxxxxxxxxxx r
bxxxxxxxxxxxxxxxxxxxxxxxxxxxxxxxxxxxxxxxxxxxxxxxxxxxxxxxxxxxxxxxx "4
b0000000000000000000000000000000000000000000000000000000000000110 .
bzzzzzzzzzzzzzzzzzzzzzzzzzzzzzzzzzzzzzzzzzzzzzzzzzzzzzzzzzzzzzzzz F
b0000000000000000000001000101011001110001001100000010100110010100 C
0T
0X
1N
b01001 h
b00000000011100110000001010110011 2
b011 "/
b101 ".
bzzzzz }
bxxxxxxxxxxxxxxxxxxxxxxxxxxxxxxxxxxxxxxxxxxxxxxxxxxxxxxxxxxxxxxxx "1
bxxxxxxxxxxxxxxxxxxxxxxxxxxxxxxxxxxxxxxxxxxxxxxxxxxxxxxxxxxxxxxxx j
bzzzzz e
b00101 {
b00101 c
1~
1J
0"!
0Q
1""
1P
b101 y
b101 [
b0000000000000000000001000101011001110001001100000010100110010101 o
05
b1111111111111111111111111111111111111111111111111111111000100000 I
b1111111111111111111111111111111111111111111111111111111000101000 -
b1111111111111111111111111111111111111111111111111111111100010000 n
b0000000000000000000000000000000000000000000000000000111111111111 m
b0000000000000000000001000101011001110001001100000010100110010100 D
b0000000000000000000000000000000000000000000000000000111100001111 A
#800
0w
0&
#900
1w
1&
b00000000000000000000000000000101 '
b0000000000000000000000000000000000000000000000000000000000010100 /
b00000000011100110000001010110011 3
0G
b0000000000000000000000000000000000000000000000000000000000010000 0
b101 ^
bxxxxxxxxxxxxxxxxxxxxxxxxxxxxxxxxxxxxxxxxxxxxxxxxxxxxxxxxxxxxxxxx q
b00101 f
b0000000000000000000000000000000000000000000000000000000000001100 1
b1111111111111111111111111111111111111111111111111111111000101100 -
0U
1R
1L
0;
b0000000000000000000000000000000000000000000000000000111100001111 B
b0000000000000000000000000000000000000000000000000000111100001111 "3
b11 b
1W
b0000000000000000000001000101011001110001001100000010100110010101 r
b0000000000000000000001000101011001110001001100000010100110010101 "4
b1111111111111111111111111111111111111111111111111111111000101000 .
0M
bzzzzz g
b0000000000000000000001000101011001110001001100000010100110010101 C
b01000000010000011000001110110011 2
b00110 |
b0000000000000000000000000000000000000000000000000000000000001000 "0
b0000000000000000000000000000000000000000000000000000000000001000 i
b00110 d
b00111 }
b0000000000000000000000000000000000000000000000000000000000000100 "1
b0000000000000000000000000000000000000000000000000000000000000100 j
b00111 e
0""
0P
1"$
1K
bzzzzzzzzzzzz s
0@
bxxxxxxxxxxxxxxxxxxxxxxxxxxxxxxxxxxxxxxxxxxxxxxxxxxxxxxxxxxxxxxxx o
b0000000000000000000001000101011001110001001100000010100110010101 D
#1000
0w
0&
#1100
1w
1&
b00000000000000000000000000000110 '
b0000000000000000000000000000000000000000000000000000000000011000 /
b01000000010000011000001110110011 3
b0000000000000000000000000000000000000000000000000000000000010100 0
b0000000000000000000000000000000000000000000000000000000000001000 p
b0000000000000000000000000000000000000000000000000000000000000100 q
0H
b0000000000000000000000000000000000000000000000000000000000010000 1
b1111111111111111111111111111111111111111111111111111111000110000 -
bzzzzzzzzzzzz t
0R
1O
b101 _
1S
0W
bxxxxxxxxxxxxxxxxxxxxxxxxxxxxxxxxxxxxxxxxxxxxxxxxxxxxxxxxxxxxxxxx r
bxxxxxxxxxxxxxxxxxxxxxxxxxxxxxxxxxxxxxxxxxxxxxxxxxxxxxxxxxxxxxxxx "4
b1111111111111111111111111111111111111111111111111111111000101100 .
1M
b00101 g
b0000000000000000000000000000000000000000000000000000111100001111 C
1X
0N
bzzzzz h
b00000000010100111111000100110011 2
b0100000 "'
b0001 "%
b00011 |
b0000000000000000000000000000000000000000000000000000000000000011 "0
b0000000000000000000000000000000000000000000000000000000000000011 i
b00011 d
b00100 }
b0000000000000000000000000000000000000000000000000000000000000111 "1
b0000000000000000000000000000000000000000000000000000000000000111 j
b00100 e
b00111 {
b00111 c
b0001 x
b0001 Y
b0000000000000000000000000000000000000000000000000000000000001000 m
b0000000000000000000000000000000000000000000000000000000000000100 o
b000000000000000000000000000000000000000000000000000zzzzzzzzzzzz0 I
bxxxxxxxxxxxxxxxxxxxxxxxxxxxxxxxxxxxxxxxxxxxxxxxxxxxxxxxxxxxxxxxx -
b0000000000000000000000000000000000000000000000000000000000000100 n
b0000000000000000000000000000000000000000000000000000111100001111 D
b0000000000000000000000000000000000000000000000000000000000001100 A
bxxxxxxxxxxxxxxxxxxxxxxxxxxxxxxxxxxxxxxxxxxxxxxxxxxxxxxxxxxxxxxxx E
b0000000000000000000001000101011001110001001100000010100110010101 E
#1200
0w
0&
#1300
1w
1&
b00000000000000000000000000000111 '
b0000000000000000000000000000000000000000000000000000000000011100 /
b00000000010100111111000100110011 3
b0000000000000000000000000000000000000000000000000000000000011000 0
b0001 \
b0000000000000000000000000000000000000000000000000000000000000011 p
b0000000000000000000000000000000000000000000000000000000000000111 q
b00111 f
b0000000000000000000000000000000000000000000000000000000000010100 1
b0000000000000000000000000000000000000000000000000000000000001100 B
b0000000000000000000000000000000000000000000000000000000000001100 "3
0S
b0000000000000000000000000000000000000000000000000000000000000100 r
b0000000000000000000000000000000000000000000000000000000000000100 "4
bxxxxxxxxxxxxxxxxxxxxxxxxxxxxxxxxxxxxxxxxxxxxxxxxxxxxxxxxxxxxxxxx .
b0000000000000000000001000101011001110001001100000010100110010101 F
1T
0X
1N
b00101 h
b00000001110011101110111100110011 2
b111 "&
b0000000 "'
b0111 "%
b00111 |
b0000000000000000000000000000000000000000000000000000000000000100 "0
b0000000000000000000000000000000000000000000000000000000000000100 i
b00111 d
b00101 }
b0000000000000000000000000000000000000000000000000000000000000000 "1
b0000000000000000000000000000000000000000000000000000000000000000 j
b00101 e
b00010 {
b00010 c
b0111 x
b0111 Y
b0000000000000000000000000000000000000000000000000000000000000100 A
b0000000000000000000000000000000000000000000000000000000000000011 m
b0000000000000000000000000000000000000000000000000000000000000111 o
b0000000000000000000000000000000000000000000000000000000000000111 n
b0000000000000000000001000101011001110001001100000010100110010101 D
14
19
16
b1111111111111111111111111111111111111111111111111111111111111100 A
bzzzzzzzzzzzzzzzzzzzzzzzzzzzzzzzzzzzzzzzzzzzzzzzzzzzzzzzzzzzzzzzz E
09
#1400
0w
0&
#1500
1w
1&
b0000000000000000000001000101011001110001001100000010100110010101 "1
b0000000000000000000001000101011001110001001100000010100110010101 j
b00000000000000000000000000001000 '
b0000000000000000000000000000000000000000000000000000000000100000 /
b00000001110011101110111100110011 3
b0000000000000000000000000000000000000000000000000000000000011100 0
b0111 \
b0000000000000000000000000000000000000000000000000000000000000100 p
b0000000000000000000001000101011001110001001100000010100110010101 q
b00010 f
b0000000000000000000000000000000000000000000000000000000000011000 1
1:
1=
b1111111111111111111111111111111111111111111111111111111111111100 B
b1111111111111111111111111111111111111111111111111111111111111100 "3
b0000000000000000000000000000000000000000000000000000000000000111 r
b0000000000000000000000000000000000000000000000000000000000000111 "4
b00111 g
bzzzzzzzzzzzzzzzzzzzzzzzzzzzzzzzzzzzzzzzzzzzzzzzzzzzzzzzzzzzzzzzz F
b0000000000000000000000000000000000000000000000000000000000001100 C
0T
b00000001100111010100110110110011 2
b110 "&
b0110 "%
b11101 |
b11101 d
b11100 }
b0000000000000000000000000000000000000000000000000000000000000010 "1
b0000000000000000000000000000000000000000000000000000000000000010 j
b11100 e
b11110 {
b11110 c
b0110 x
b0110 Y
b0000000000000000000000000000000000000000000000000000000000000011 A
b1111111111111111111111111111111111111111111111111111111111111100 m
b0000000000000000000001000101011001110001001100000010100110010101 o
b0000000000000000000001000101011001110001001100000010100110010101 n
04
06
b0000000000000000000000000000000000000000000000000000000000001100 D
b0000000000000000000001000101011001110001001100000010100110010100 A
b0000000000000000000000000000000000000000000000000000000000001100 n
b0000000000000000000000000000000000000000000000000000000000001100 A
#1600
0w
0&
#1700
1w
1&
b00000000000000000000000000001001 '
b0000000000000000000000000000000000000000000000000000000000100100 /
b00000001100111010100110110110011 3
b0000000000000000000000000000000000000000000000000000000000100000 0
b0110 \
b0000000000000000000000000000000000000000000000000000000000000010 q
b11110 f
b0000000000000000000000000000000000000000000000000000000000011100 1
0:
0=
b0000000000000000000000000000000000000000000000000000000000001100 B
b0000000000000000000000000000000000000000000000000000000000001100 "3
b0000000000000000000001000101011001110001001100000010100110010101 r
b0000000000000000000001000101011001110001001100000010100110010101 "4
b00010 g
b1111111111111111111111111111111111111111111111111111111111111100 C
b00111 h
b00000000010100010001001100110011 2
b100 "&
b0011 "%
b11010 |
b0000000000000000000000000000000000000000000000000000000000000101 "0
b0000000000000000000000000000000000000000000000000000000000000101 i
b11010 d
b11001 }
b0000000000000000000000000000000000000000000000000000000000001001 "1
b0000000000000000000000000000000000000000000000000000000000001001 j
b11001 e
b11011 {
b11011 c
b0011 x
b0011 Y
b1111111111111111111111111111111111111111111111111111111111111100 A
b0000000000000000000000000000000000000000000000000000000000000010 o
b0000000000000000000000000000000000000000000000000000000000000100 m
b0000000000000000000000000000000000000000000000000000000000000010 n
b1111111111111111111111111111111111111111111111111111111111111100 D
b0000000000000000000000000000000000000000000000000000000000000110 A
#1800
0w
0&
#1900
1w
1&
b00000000000000000000000000001010 '
b0000000000000000000000000000000000000000000000000000000000101000 /
b00000000010100010001001100110011 3
b0000000000000000000000000000000000000000000000000000000000100100 0
b0011 \
b0000000000000000000000000000000000000000000000000000000000000101 p
b0000000000000000000000000000000000000000000000000000000000001001 q
b11011 f
b0000000000000000000000000000000000000000000000000000000000100000 1
b0000000000000000000000000000000000000000000000000000000000000110 B
b0000000000000000000000000000000000000000000000000000000000000110 "3
b0000000000000000000000000000000000000000000000000000000000000010 r
b0000000000000000000000000000000000000000000000000000000000000010 "4
b11110 g
b0000000000000000000000000000000000000000000000000000000000001100 C
b00010 h
b00000000001000110101001110110011 2
b001 "&
b0010 "%
b00010 |
b0000000000000000000000000000000000000000000000000000000000000000 "0
b0000000000000000000000000000000000000000000000000000000000000000 i
b00010 d
b00101 }
b0000000000000000000000000000000000000000000000000000000000001100 "1
b0000000000000000000000000000000000000000000000000000000000001100 j
b00101 e
b00110 {
b00110 c
b0010 x
b0010 Y
b0000000000000000000000000000000000000000000000000000000000000101 m
b0000000000000000000000000000000000000000000000000000000000001001 o
b0000000000000000000000000000000000000000000000000000000000001001 n
b0000000000000000000000000000000000000000000000000000000000001100 D
18
b0000000000000000000000000000000000000000000000000000000000001100 A
#2000
0w
0&
#2100
1w
1&
b0000000000000000000000000000000000000000000000000000000000001100 "0
b0000000000000000000000000000000000000000000000000000000000001100 i
b00000000000000000000000000001011 '
b0000000000000000000000000000000000000000000000000000000000101100 /
b00000000001000110101001110110011 3
b0000000000000000000000000000000000000000000000000000000000101000 0
b0010 \
b0000000000000000000000000000000000000000000000000000000000001100 p
b0000000000000000000000000000000000000000000000000000000000001100 q
b00110 f
b0000000000000000000000000000000000000000000000000000000000100100 1
1>
b0000000000000000000000000000000000000000000000000000000000001100 B
b0000000000000000000000000000000000000000000000000000000000001100 "3
b0000000000000000000000000000000000000000000000000000000000001001 r
b0000000000000000000000000000000000000000000000000000000000001001 "4
b11011 g
b0000000000000000000000000000000000000000000000000000000000000110 C
b11110 h
b00000010011100101000010001100011 2
b101 "&
b0100 "%
b00110 |
b0000000000000000000000000000000000000000000000000000000000001000 "0
b0000000000000000000000000000000000000000000000000000000000001000 i
b00110 d
b00010 }
b00010 e
b00111 {
b00111 c
b0100 x
b0100 Y
b0000000000000000000000000000000000000000000000000000101000000000 A
b0000000000000000000000000000000000000000000000000000000000001100 m
b0000000000000000000000000000000000000000000000000000000000001100 o
b0000000000000000000000000000000000000000000000000000000000001100 n
b0000000000000000000000000000000000000000000000000000000000000110 D
08
14
b0000000000000000000000000000000000000000000000001100000000000000 A
#2200
0w
0&
#2300
1w
1&
b00000000000000000000000000001100 '
b0000000000000000000000000000000000000000000000000000000000110000 /
b00000010011100101000010001100011 3
b0000000000000000000000000000000000000000000000000000000000101100 0
b0100 \
b0000000000000000000000000000000000000000000000000000000000001000 p
b00111 f
b0000000000000000000000000000000000000000000000000000000000101000 1
1:
0>
b0000000000000000000000000000000000000000000000001100000000000000 B
b0000000000000000000000000000000000000000000000001100000000000000 "3
b0000000000000000000000000000000000000000000000000000000000001100 r
b0000000000000000000000000000000000000000000000000000000000001100 "4
b00110 g
b0000000000000000000000000000000000000000000000000000000000001100 C
b11011 h
b00000000000100001000000010010011 2
b000 "+
b111 "*
b00101 |
b0000000000000000000000000000000000000000000000000000000000001100 "0
b0000000000000000000000000000000000000000000000000000000000001100 i
b00101 d
b00111 }
b1111111111111111111111111111111111111111111111111111111111111100 "1
b1111111111111111111111111111111111111111111111111111111111111100 j
b00111 e
b0111 x
b0111 Y
0~
0J
1"#
1)
b000000010100 s
b0000000000000000000000000000000000000000000000000000000000000000 A
b0000000000000000000000000000000000000000000000001100000000000000 m
04
b0000000000000000000000000000000000000000000000000000000000001100 D
15
b0000000000000000000000000000000000000000000000000000000000001100 A
#2400
0w
0&
