wellen/inputs/gtkwave-analyzer/perm_current.vcd
$date
	Thu Dec  3 14:30:51 2020
$end
$version
	GTKWave Analyzer v3.3.61 (w)1999-2014 BSI
$end
$timescale
	10ps
$end
$scope module top $end
$scope module p $end
$scope module s1 $end
$scope module b4 $end
$scope module n $end
$var wire 1 ? read_response $end
$var wire 3 > cmd[2:0] $end
$upscope $end
$var wire 1 ; pushout $end
$upscope $end
$var wire 1 = rr43_exists $end
$var wire 4 + grant_out[3:0] $end
$var wire 4 * grant_lp[3:0] $end
$var wire 4 0 req_lp[3:0] $end
$var wire 4 ) grant_hp[3:0] $end
$var wire 4 / req_hp[3:0] $end
$var wire 1 : full_f43 $end
$var wire 1 9 empty_f43 $end
$var wire 1 7 full_f42 $end
$var wire 1 6 empty_f42 $end
$var wire 1 5 full_f41 $end
$var wire 1 4 empty_f41 $end
$var wire 1 3 full_f40 $end
$var wire 1 2 empty_f40 $end
$var wire 9 1 dout_f40[8:0] $end
$var wire 8 ( dest_id_out[7:0] $end
$var wire 8 ' dest_id[7:0] $end
$var wire 3 , ps_arb[2:0] $end
$var wire 3 - ns_rr[2:0] $end
$var wire 3 . ps_rr[2:0] $end
$upscope $end
$scope module si $end
$var wire 8 $ noc_from_dev_data[7:0] $end
$var wire 1 # noc_from_dev_ctl $end
$var wire 8 & noc_to_dev_data[7:0] $end
$var wire 1 % noc_to_dev_ctl $end
$var wire 1 " clk $end
$upscope $end
$scope module s1 $end
$scope module f_43 $end
$var wire 9 8 data_in[8:0] $end
$var wire 6 < count[5:0] $end
$upscope $end
$upscope $end
$upscope $end
$upscope $end
$enddefinitions $end
$dumpvars
#121185100
b0 <
b0 -
b0 /
0=
0?
b0 >
12
b0 )
03
19
b0 +
b1000000 1
b1000000 (
b0 ,
0:
b1000000 '
14
16
b0 *
b0 .
0;
1#
07
b0 $
b0 8
b0 0
b0 &
1%
1"
05
#121185500
0"
#121186000
1"
#121186100
b1 ,
#121186500
0"
#121187000
1"
#121187100
b11 ,
#121187500
0"
#121188000
1"
#121188100
b0 ,
#121188500
0"
#121189000
1"
#121189100
b1 ,
#121189500
0"
#121190000
1"
#121190100
b11 ,
#121190500
0"
#121191000
1"
#121191100
b0 ,
04
#121191500
0"
#121192000
1"
#121192100
b1 ,
#121192500
0"
#121193000
1"
#121193100
b11 ,
b100 0
#121193500
0"
#121194000
1"
#121194100
b0 ,
#121194500
0"
#121195000
1"
#121195100
b1 ,
#121195500
0"
#121196000
1"
#121196100
b11 ,
#121196200
b100 *
#121196500
0"
#121197000
1"
#121197100
b10 -
b100 +
b0 ,
b0 0
#121197500
0"
#121198000
1"
#121198100
b1 ,
b10 .
b101 $
#121198500
0"
#121199000
1"
#121199100
b100 0
b1000001 (
b10001010 $
0#
#121199500
0"
#121200000
1"
#121200100
b1000001 $
#121200500
0"
#121201000
1"
#121201100
b1000010 $
#121201500
0"
#121202000
1"
#121202100
b1111000 $
#121202500
0"
#121203000
1"
#121203100
1#
b0 $
#121203500
0"
#121204000
1"
#121204100
b101 $
#121204500
0"
#121205000
1"
#121205100
b10001010 $
0#
b11010 &
#121205500
0"
#121206000
1"
#121206100
b1000001 &
b1000001 $
0%
#121206500
0"
#121207000
1"
#121207100
b10111 $
b1000001 '
b10110010 &
#121207500
0"
#121208000
1"
#121208100
b0 &
b10010 $
#121208500
0"
#121209000
1"
#121209100
b0 $
b100000 &
1#
#121209500
0"
#121210000
1"
#121210100
14
b0 -
b10100011 &
#121210500
0"
#121211000
1"
#121211100
b11011111 &
b10 -
b0 .
#121211500
0"
#121212000
1"
#121212100
b10 .
b0 -
b1111000 &
b11 ,
#121212500
0"
#121213000
1"
#121213100
b0 ,
b0 0
b1101000 &
b0 .
b10 -
#121213500
0"
#121214000
1"
#121214100
b0 -
b1 ,
b10 .
b10 &
#121214500
0"
#121215000
1"
#121215100
b1100011 &
b10 -
b0 .
#121215500
0"
#121216000
1"
#121216100
b10 .
b100100 &
b0 -
b11 ,
#121216200
b0 *
#121216500
0"
#121217000
1"
#121217100
1%
b0 .
b0 ,
b11001 &
b0 +
#121217500
0"
#121218000
1"
#121218100
0%
b1000001 &
b1 ,
#121218500
0"
#121219000
1"
#121219100
b11 ,
b10111000 &
#121219500
0"
#121220000
1"
#121220100
b0 &
b0 ,
#121220500
0"
#121221000
1"
#121221100
b1 ,
1%
#121221500
0"
#121222000
1"
#121222100
04
b11 ,
#121222500
0"
#121223000
1"
#121223100
b0 ,
#121223500
0"
#121224000
1"
#121224100
b1 ,
#121224500
0"
#121225000
1"
#121225100
b11 ,
b100 0
#121225500
0"
#121226000
1"
#121226100
b0 ,
#121226500
0"
#121227000
1"
#121227100
b1 ,
#121227500
0"
#121228000
1"
#121228100
b100 /
b11 ,
#121228200
b100 *
#121228500
0"
#121229000
1"
#121229100
b0 ,
#121229500
0"
#121230000
1"
#121230100
b1 ,
#121230500
0"
#121231000
1"
#121231100
b11 ,
#121231200
b100 )
#121231500
0"
#121232000
1"
#121232100
b0 ,
b100 +
b0 /
b10 -
#121232500
0"
#121233000
1"
#121233100
b1 ,
b10 .
b100 $
#121233500
0"
#121234000
1"
#121234100
b10110010 $
0#
#121234500
0"
#121235000
1"
#121235100
b1000001 $
#121235500
0"
#121236000
1"
#121236100
b1000 $
#121236500
0"
#121237000
1"
#121237100
1#
b0 $
#121237500
0"
#121238000
1"
#121238100
b11 $
b11010 &
#121238500
0"
#121239000
1"
#121239100
b1000001 &
0%
b10111000 $
0#
#121239500
0"
#121240000
1"
#121240100
b10110010 &
b1000001 $
#121240500
0"
#121241000
1"
#121241100
b1000 $
b0 &
#121241500
0"
#121242000
1"
#121242100
b1001100 &
b10110100 $
#121242500
0"
#121243000
1"
#121243100
b11100 $
b10110010 &
#121243500
0"
#121244000
1"
#121244100
b110110 &
b10111 $
#121244500
0"
#121245000
1"
#121245100
b1111010 $
#121245500
0"
#121246000
1"
#121246100
b101101 $
b100000 &
#121246500
0"
#121247000
1"
#121247100
b10010010 &
b10011000 $
#121247500
0"
#121248000
1"
#121248100
b10110101 $
b1101001 &
#121248500
0"
#121249000
1"
#121249100
b101010 &
b11110000 $
#121249500
0"
#121250000
1"
#121250100
b0 $
1#
b0 &
1%
#121250500
0"
#121251000
1"
#121251100
b0 -
14
#121251500
0"
#121252000
1"
#121252100
b10 -
b100001 &
b0 .
#121252500
0"
#121253000
1"
#121253100
0%
b10 .
b1000001 &
b0 -
b11 ,
#121253200
b0 )
#121253500
0"
#121254000
1"
#121254100
b0 0
b0 ,
b10 -
b10111000 &
b0 .
#121254500
0"
#121255000
1"
#121255100
b10 .
b100 $
04
b0 &
1#
b1 ,
#121255500
0"
#121256000
1"
#121256100
b10110010 $
b100 0
0#
1%
#121256500
0"
#121257000
1"
#121257100
b1000001 $
0#
#121257500
0"
#121258000
1"
#121258100
b1000 $
#121258500
0"
#121259000
1"
#121259100
1#
b0 $
#121259500
0"
#121260000
1"
#121260100
b110010 &
b0 -
14
#121260500
0"
#121261000
1"
#121261100
0%
b0 .
04
b10 -
b1000001 &
#121261500
0"
#121262000
1"
#121262100
b10110010 &
b11 ,
b11 $
b10 .
b100 /
#121262500
0"
#121263000
1"
#121263100
b0 ,
b0 &
b0 +
b10111000 $
0#
#121263500
0"
#121264000
1"
#121264100
b1 ,
b1000001 $
b11011101 &
#121264500
0"
#121265000
1"
#121265100
b100100 &
b10000 $
#121265500
0"
#121266000
1"
#121266100
b11101000 $
b11111001 &
#121266500
0"
#121267000
1"
#121267100
b10100101 &
b11110111 $
#121267500
0"
#121268000
1"
#121268100
b10101000 $
b1010 &
#121268500
0"
#121269000
1"
#121269100
b10111001 &
b11010111 $
#121269500
0"
#121270000
1"
#121270100
b1101101 $
b1110 &
#121270500
0"
#121271000
1"
#121271100
b1011011 &
b10000011 $
#121271500
0"
#121272000
1"
#121272100
b11011111 $
b10110110 &
#121272500
0"
#121273000
1"
#121273100
b11000101 &
b110001 $
#121273500
0"
#121274000
1"
#121274100
b101111 $
b11011101 &
#121274500
0"
#121275000
1"
#121275100
b111110 &
b11110101 $
#121275500
0"
#121276000
1"
#121276100
b11100000 $
b1001111 &
#121276500
0"
#121277000
1"
#121277100
b1001101 &
b111 $
#121277500
0"
#121278000
1"
#121278100
b10010110 $
b11101100 &
#121278500
0"
#121279000
1"
#121279100
b10101000 &
b11101 $
#121279500
0"
#121280000
1"
#121280100
b11010100 $
b10010101 &
#121280500
0"
#121281000
1"
#121281100
b100101 &
b10001001 $
#121281500
0"
#121282000
1"
#121282100
b0 $
1#
b1011101 &
#121282500
0"
#121283000
1"
#121283100
b10000010 &
b0 -
14
#121283500
0"
#121284000
1"
#121284100
b0 .
b10100111 &
#121284500
0"
#121285000
1"
#121285100
b1111100 &
b11 ,
#121285200
b100 )
#121285500
0"
#121286000
1"
#121286100
b0 ,
b0 /
b10 -
b1000011 &
b100 +
#121286500
0"
#121287000
1"
#121287100
b1 ,
b10010011 &
b0 -
b10 .
#121287500
0"
#121288000
1"
#121288100
b0 .
b10 -
b11010110 &
#121288500
0"
#121289000
1"
#121289100
b10101110 &
b0 -
b10 .
b11 ,
#121289200
b0 )
#121289500
0"
#121290000
1"
#121290100
b0 ,
b0 .
b0 0
b10 -
b10000101 &
#121290500
0"
#121291000
1"
#121291100
b10100111 &
b0 -
b1 ,
b10 .
#121291500
0"
#121292000
1"
#121292100
b0 .
b10010000 &
b10 -
#121292500
0"
#121293000
1"
#121293100
b0 -
b11 &
b11 ,
b10 .
#121293200
b0 *
#121293500
0"
#121294000
1"
#121294100
b0 .
b0 +
b0 ,
b10011001 &
#121294500
0"
#121295000
1"
#121295100
b11001111 &
b1 ,
#121295500
0"
#121296000
1"
#121296100
b11 ,
b10001100 &
#121296500
0"
#121297000
1"
#121297100
b11111011 &
b0 ,
#121297500
0"
#121298000
1"
#121298100
b1 ,
b1011001 &
#121298500
0"
#121299000
1"
#121299100
b11111000 &
b11 ,
#121299500
0"
#121300000
1"
#121300100
b0 ,
b10010100 &
#121300500
0"
#121301000
1"
#121301100
b11101 &
b1 ,
#121301500
0"
#121302000
1"
#121302100
b11 ,
b10100 &
#121302500
0"
#121303000
1"
#121303100
b111001 &
b0 ,
#121303500
0"
#121304000
1"
#121304100
b1 ,
b10001111 &
#121304500
0"
#121305000
1"
#121305100
b1001 &
b11 ,
#121305500
0"
#121306000
1"
#121306100
b0 ,
b10011001 &
#121306500
0"
#121307000
1"
#121307100
b10111010 &
b1 ,
#121307500
0"
#121308000
1"
#121308100
b11 ,
b1010010 &
#121308500
0"
#121309000
1"
#121309100
b10001000 &
b0 ,
#121309500
0"
#121310000
1"
#121310100
b1 ,
b1100 &
#121310500
0"
#121311000
1"
#121311100
b1111000 &
b11 ,
#121311500
0"
#121312000
1"
#121312100
b0 ,
b1110001 &
#121312500
0"
#121313000
1"
#121313100
b1101111 &
b1 ,
#121313500
0"
#121314000
1"
#121314100
b11 ,
b10001110 &
#121314500
0"
#121315000
1"
#121315100
b1010110 &
b0 ,
#121315500
0"
#121316000
1"
#121316100
b1 ,
b10000010 &
#121316500
0"
#121317000
1"
#121317100
b1011000 &
b11 ,
#121317500
0"
#121318000
1"
#121318100
b0 ,
b1110101 &
#121318500
0"
#121319000
1"
#121319100
b10000110 &
b1 ,
#121319500
0"
#121320000
1"
#121320100
b11 ,
b11100010 &
#121320500
0"
#121321000
1"
#121321100
b11010 &
b0 ,
#121321500
0"
#121322000
1"
#121322100
b1 ,
b10011111 &
#121322500
0"
#121323000
1"
#121323100
b11000000 &
b11 ,
#121323500
0"
#121324000
1"
#121324100
b0 ,
b11010110 &
#121324500
0"
#121325000
1"
#121325100
b100001 &
b1 ,
#121325500
0"
#121326000
1"
#121326100
b11 ,
b101 &
#121326500
0"
#121327000
1"
#121327100
b11000100 &
b0 ,
#121327500
0"
#121328000
1"
#121328100
b1 ,
1%
b111001 &
#121328500
0"
#121329000
1"
#121329100
b1000001 &
b11 ,
0%
#121329500
0"
#121330000
1"
#121330100
b10111000 &
b0 ,
#121330500
0"
#121331000
1"
#121331100
b1 ,
b0 &
#121331500
0"
#121332000
1"
#121332100
1%
b11 ,
#121332500
0"
#121333000
1"
#121333100
b0 ,
04
#121333500
0"
#121334000
1"
#121334100
b1 ,
#121334500
0"
#121335000
1"
#121335100
b11 ,
b100 0
#121335500
0"
#121336000
1"
#121336100
b0 ,
#121336500
0"
#121337000
1"
#121337100
b1 ,
#121337500
0"
#121338000
1"
#121338100
b11 ,
#121338200
b100 *
#121338500
0"
#121339000
1"
#121339100
b0 0
b0 ,
b10 -
b100 +
#121339500
0"
#121340000
1"
#121340100
b10 .
b100 $
b1 ,
#121340500
0"
#121341000
1"
#121341100
b10110010 $
b100 /
0#
#121341500
0"
#121342000
1"
#121342100
b1000001 $
#121342500
0"
#121343000
1"
#121343100
b1000000 $
#121343500
0"
#121344000
1"
#121344100
b0 $
1#
#121344500
0"
#121345000
1"
#121345100
b110010 &
b11 $
#121345500
0"
#121346000
1"
#121346100
b10111000 $
b1000001 &
0#
0%
#121346500
0"
#121347000
1"
#121347100
b10110010 &
b1000001 $
#121347500
0"
#121348000
1"
#121348100
b10000000 $
b0 &
#121348500
0"
#121349000
1"
#121349100
b1110011 &
b1000010 $
#121349500
0"
#121350000
1"
#121350100
b10010101 $
b10101101 &
#121350500
0"
#121351000
1"
#121351100
b1001011 &
b110010 $
#121351500
0"
#121352000
1"
#121352100
b10111110 $
b1111011 &
#121352500
0"
#121353000
1"
#121353100
b11110011 &
b101000 $
#121353500
0"
#121354000
1"
#121354100
b10110111 $
b1111110 &
#121354500
0"
#121355000
1"
#121355100
b1110110 &
b11011110 $
#121355500
0"
#121356000
1"
#121356100
b10011111 $
b10001000 &
#121356500
0"
#121357000
1"
#121357100
b10100111 &
b10110111 $
#121357500
0"
#121358000
1"
#121358100
b11000011 $
b10011 &
#121358500
0"
#121359000
1"
#121359100
b1010010 &
b110001 $
#121359500
0"
#121360000
1"
#121360100
b11000010 $
b1010110 &
#121360500
0"
#121361000
1"
#121361100
b10111101 &
b10010101 $
#121361500
0"
#121362000
1"
#121362100
b101001 $
b11101010 &
#121362500
0"
#121363000
1"
#121363100
b10110100 &
b1011011 $
#121363500
0"
#121364000
1"
#121364100
b11011001 $
b10111110 &
#121364500
0"
#121365000
1"
#121365100
b1010110 &
b1100111 $
#121365500
0"
#121366000
1"
#121366100
b10000100 $
b11111100 &
#121366500
0"
#121367000
1"
#121367100
b10110001 &
b1101110 $
#121367500
0"
#121368000
1"
#121368100
b1101111 $
b1101100 &
#121368500
0"
#121369000
1"
#121369100
b11101111 &
b10111111 $
#121369500
0"
#121370000
1"
#121370100
b10001000 $
b10011100 &
#121370500
0"
#121371000
1"
#121371100
b1000101 &
b11000011 $
#121371500
0"
#121372000
1"
#121372100
b11101110 $
b101011 &
#121372500
0"
#121373000
1"
#121373100
b11001100 &
b11101 $
#121373500
0"
#121374000
1"
#121374100
b10010 $
b1100011 &
#121374500
0"
#121375000
1"
#121375100
b10000 &
b1010001 $
#121375500
0"
#121376000
1"
#121376100
b1101000 $
b11100011 &
#121376500
0"
#121377000
1"
#121377100
b1001100 &
b1111101 $
#121377500
0"
#121378000
1"
#121378100
b11000011 $
b10010011 &
#121378500
0"
#121379000
1"
#121379100
b11000110 &
b11000010 $
#121379500
0"
#121380000
1"
#121380100
b1010 $
b100000 &
#121380500
0"
#121381000
1"
#121381100
b10100110 &
b100101 $
#121381500
0"
#121382000
1"
#121382100
b11001 $
b10010 &
#121382500
0"
#121383000
1"
#121383100
b11010111 &
b11111101 $
#121383500
0"
#121384000
1"
#121384100
b11001100 $
b10000110 &
#121384500
0"
#121385000
1"
#121385100
b10010000 &
b1 $
#121385500
0"
#121386000
1"
#121386100
b11011111 $
b1110010 &
#121386500
0"
#121387000
1"
#121387100
b10110110 &
b1111 $
#121387500
0"
#121388000
1"
#121388100
b11100100 $
b10101000 &
#121388500
0"
#121389000
1"
#121389100
b11100100 &
b1011001 $
#121389500
0"
#121390000
1"
#121390100
b11010111 $
b1111010 &
#121390500
0"
#121391000
1"
#121391100
b11010010 &
b11101001 $
#121391500
0"
#121392000
1"
#121392100
b1010 $
b11101001 &
#121392500
0"
#121393000
1"
#121393100
b1101000 &
b11010010 $
#121393500
0"
#121394000
1"
#121394100
b1000 $
b1110000 &
#121394500
0"
#121395000
1"
#121395100
b1110101 &
b100101 $
#121395500
0"
#121396000
1"
#121396100
b11110100 $
b11011110 &
#121396500
0"
#121397000
1"
#121397100
b1110000 &
b11001001 $
#121397500
0"
#121398000
1"
#121398100
b11010 $
b11111110 &
#121398500
0"
#121399000
1"
#121399100
b101101 &
b111011 $
#121399500
0"
#121400000
1"
#121400100
b10111101 $
b110 &
#121400500
0"
#121401000
1"
#121401100
b110100 &
b1000011 $
#121401500
0"
#121402000
1"
#121402100
b10011000 $
b10100010 &
#121402500
0"
#121403000
1"
#121403100
b11101001 &
b10001101 $
#121403500
0"
#121404000
1"
#121404100
b11101111 $
b1010011 &
#121404500
0"
#121405000
1"
#121405100
b11111001 &
b11111111 $
#121405500
0"
#121406000
1"
#121406100
b11111110 $
b10111011 &
#121406500
0"
#121407000
1"
#121407100
b11000101 &
b1010110 $
#121407500
0"
#121408000
1"
#121408100
b1110011 $
b10000011 &
#121408500
0"
#121409000
1"
#121409100
b110000 &
b110111 $
#121409500
0"
#121410000
1"
#121410100
b1101000 $
b10100010 &
#121410500
0"
#121411000
1"
#121411100
b10011 &
b11011111 $
#121411500
0"
#121412000
1"
#121412100
b10100111 $
b1011001 &
#121412500
0"
#121413000
1"
#121413100
1%
b0 &
b100010 $
#121413500
0"
#121414000
1"
#121414100
b1110111 $
#121414500
0"
#121415000
1"
#121415100
b10111101 $
#121415500
0"
#121416000
1"
#121416100
b11011100 $
#121416500
0"
#121417000
1"
#121417100
b10101001 $
#121417500
0"
#121418000
1"
#121418100
b1001010 $
#121418500
0"
#121419000
1"
#121419100
b1111010 $
#121419500
0"
#121420000
1"
#121420100
b111000 $
#121420500
0"
#121421000
1"
#121421100
b11100100 $
#121421500
0"
#121422000
1"
#121422100
b10010001 $
#121422500
0"
#121423000
1"
#121423100
b111100 $
#121423500
0"
#121424000
1"
#121424100
b11010011 $
#121424500
0"
#121425000
1"
#121425100
b1010000 $
#121425500
0"
#121426000
1"
#121426100
b11100010 $
#121426500
0"
#121427000
1"
#121427100
b1011 $
#121427500
0"
#121428000
1"
#121428100
b10101010 $
#121428500
0"
#121429000
1"
#121429100
b11000 $
#121429500
0"
#121430000
1"
#121430100
b11010011 $
#121430500
0"
#121431000
1"
#121431100
b11001001 $
#121431500
0"
#121432000
1"
#121432100
b10110101 $
#121432500
0"
#121433000
1"
#121433100
b11011001 $
#121433500
0"
#121434000
1"
#121434100
b11010100 $
#121434500
0"
#121435000
1"
#121435100
b11000111 $
#121435500
0"
#121436000
1"
#121436100
b11011100 $
#121436500
0"
#121437000
1"
#121437100
b10000 $
#121437500
0"
#121438000
1"
#121438100
b10011001 $
#121438500
0"
#121439000
1"
#121439100
b10001001 $
#121439500
0"
#121440000
1"
#121440100
b1111 $
#121440500
0"
#121441000
1"
#121441100
b11110 $
#121441500
0"
#121442000
1"
#121442100
b0 $
#121442500
0"
#121443000
1"
#121443100
b110101 $
#121443500
0"
#121444000
1"
#121444100
b111110 $
#121444500
0"
#121445000
1"
#121445100
b101100 $
#121445500
0"
#121446000
1"
#121446100
b1101011 $
#121446500
0"
#121447000
1"
#121447100
b11101100 $
#121447500
0"
#121448000
1"
#121448100
b110010 $
#121448500
0"
#121449000
1"
#121449100
b11111111 $
#121449500
0"
#121450000
1"
#121450100
b11111000 $
#121450500
0"
#121451000
1"
#121451100
b111101 $
#121451500
0"
#121452000
1"
#121452100
b10110100 $
#121452500
0"
#121453000
1"
#121453100
b11001000 $
#121453500
0"
#121454000
1"
#121454100
b1111000 $
#121454500
0"
#121455000
1"
#121455100
b1010001 $
#121455500
0"
#121456000
1"
#121456100
b11001010 $
#121456500
0"
#121457000
1"
#121457100
b11111 $
#121457500
0"
#121458000
1"
#121458100
b11110001 $
#121458500
0"
#121459000
1"
#121459100
b1000011 $
#121459500
0"
#121460000
1"
#121460100
b110100 $
#121460500
0"
#121461000
1"
#121461100
b10111101 $
#121461500
0"
#121462000
1"
#121462100
b110101 $
#121462500
0"
#121463000
1"
#121463100
b1111 $
#121463500
0"
#121464000
1"
#121464100
b11011100 $
#121464500
0"
#121465000
1"
#121465100
b1111100 $
#121465500
0"
#121466000
1"
#121466100
b100 $
#121466500
0"
#121467000
1"
#121467100
b1001100 $
#121467500
0"
#121468000
1"
#121468100
b11010111 $
#121468500
0"
#121469000
1"
#121469100
b11110111 $
#121469500
0"
#121470000
1"
#121470100
b1011001 $
#121470500
0"
#121471000
1"
#121471100
b11011111 $
#121471500
0"
#121472000
1"
#121472100
b1000101 $
#121472500
0"
#121473000
1"
#121473100
b10001100 $
#121473500
0"
#121474000
1"
#121474100
b1111111 $
#121474500
0"
#121475000
1"
#121475100
b10111111 $
#121475500
0"
#121476000
1"
#121476100
b1011101 $
#121476500
0"
#121477000
1"
#121477100
b0 $
1#
#121477500
0"
#121478000
1"
#121478100
b100 $
#121478500
0"
#121479000
1"
#121479100
0#
b10110010 $
b11001 &
#121479500
0"
#121480000
1"
#121480100
b1000001 &
b1000001 $
0%
#121480500
0"
#121481000
1"
#121481100
b1000000 $
b10111000 &
#121481500
0"
#121482000
1"
#121482100
b0 &
b0 $
1#
#121482500
0"
#121483000
1"
#121483100
1%
14
b0 -
#121483500
0"
#121484000
1"
#121484100
b10 -
b0 .
b11010 &
#121484500
0"
#121485000
1"
#121485100
b1000001 &
0%
b0 -
b11 ,
b10 .
#121485200
b100 )
b0 *
#121485500
0"
#121486000
1"
#121486100
b0 .
b10 -
b10110010 &
b0 ,
b0 /
#121486500
0"
#121487000
1"
#121487100
b0 -
b10 .
b1 ,
b0 &
#121487500
0"
#121488000
1"
#121488100
b10011110 &
b10 -
b0 .
04
#121488500
0"
#121489000
1"
#121489100
b100 /
b0 &
b10 .
b11 $
b11 ,
#121489500
0"
#121490000
1"
#121490100
b0 ,
b0 /
b10111000 $
b101001 &
0#
#121490500
0"
#121491000
1"
#121491100
b1 ,
b11011001 &
b1000001 $
#121491500
0"
#121492000
1"
#121492100
b1000 $
b10010100 &
b100 0
#121492500
0"
#121493000
1"
#121493100
b10010111 &
b10001000 $
#121493500
0"
#121494000
1"
#121494100
b1101110 $
b1010100 &
#121494500
0"
#121495000
1"
#121495100
b1001001 &
b10111110 $
#121495500
0"
#121496000
1"
#121496100
1%
b11111001 $
b0 &
#121496500
0"
#121497000
1"
#121497100
b1011110 $
#121497500
0"
#121498000
1"
#121498100
b1000111 $
#121498500
0"
#121499000
1"
#121499100
b1101100 $
#121499500
0"
#121500000
1"
#121500100
b1100001 $
#121500500
0"
#121501000
1"
#121501100
1#
b0 $
#121501500
0"
#121502000
1"
#121502100
b100 $
#121502500
0"
#121503000
1"
#121503100
b10110010 $
b101001 &
0#
#121503500
0"
#121504000
1"
#121504100
b1000001 $
b1000001 &
0%
#121504500
0"
#121505000
1"
#121505100
b10111000 &
b1000 $
#121505500
0"
#121506000
1"
#121506100
1#
b0 $
b0 &
#121506500
0"
#121507000
1"
#121507100
14
1%
b0 -
#121507500
0"
#121508000
1"
#121508100
b10 -
b11010 &
b0 .
#121508500
0"
#121509000
1"
#121509100
b10 .
b0 -
b1000001 &
0%
b11 ,
#121509200
b100 *
b0 )
#121509500
0"
#121510000
1"
#121510100
b0 ,
b0 .
b0 0
b10110010 &
b10 -
#121510500
0"
#121511000
1"
#121511100
b0 -
b10 .
b1 ,
b0 &
#121511500
0"
#121512000
1"
#121512100
b10011011 &
b0 .
b10 -
04
#121512500
0"
#121513000
1"
#121513100
b10 .
b11111001 &
b11 ,
b11 $
b100 /
#121513200
b0 *
#121513500
0"
#121514000
1"
#121514100
b0 +
0#
b10111000 $
b0 ,
b1101100 &
#121514500
0"
#121515000
1"
#121515100
b10010010 &
b1 ,
b1000001 $
#121515500
0"
#121516000
1"
#121516100
b100000 $
b10101100 &
#121516500
0"
#121517000
1"
#121517100
b11000000 &
b1111010 $
#121517500
0"
#121518000
1"
#121518100
b11110101 $
b11000011 &
#121518500
0"
#121519000
1"
#121519100
b1011111 &
b11011001 $
#121519500
0"
#121520000
1"
#121520100
b11010000 $
b0 &
1%
#121520500
0"
#121521000
1"
#121521100
b10110100 $
#121521500
0"
#121522000
1"
#121522100
b10110001 $
#121522500
0"
#121523000
1"
#121523100
b11110010 $
#121523500
0"
#121524000
1"
#121524100
b10100100 $
#121524500
0"
#121525000
1"
#121525100
b10000101 $
#121525500
0"
#121526000
1"
#121526100
b11000000 $
#121526500
0"
#121527000
1"
#121527100
b110101 $
#121527500
0"
#121528000
1"
#121528100
b11001111 $
#121528500
0"
#121529000
1"
#121529100
b10010011 $
#121529500
0"
#121530000
1"
#121530100
b10000 $
#121530500
0"
#121531000
1"
#121531100
b10110001 $
#121531500
0"
#121532000
1"
#121532100
b10111 $
#121532500
0"
#121533000
1"
#121533100
b10110111 $
#121533500
0"
#121534000
1"
#121534100
b10110000 $
#121534500
0"
#121535000
1"
#121535100
b10101 $
#121535500
0"
#121536000
1"
#121536100
b1010001 $
#121536500
0"
#121537000
1"
#121537100
b10110110 $
#121537500
0"
#121538000
1"
#121538100
b11000110 $
#121538500
0"
#121539000
1"
#121539100
b10010 $
#121539500
0"
#121540000
1"
#121540100
b11111000 $
#121540500
0"
#121541000
1"
#121541100
b10111111 $
#121541500
0"
#121542000
1"
#121542100
b10110100 $
#121542500
0"
#121543000
1"
#121543100
b1010101 $
#121543500
0"
#121544000
1"
#121544100
b1101 $
#121544500
0"
#121545000
1"
#121545100
b10001011 $
#121545500
0"
#121546000
1"
#121546100
b11111001 $
#121546500
0"
#121547000
1"
#121547100
b1111001 $
#121547500
0"
#121548000
1"
#121548100
b1100010 $
#121548500
0"
#121549000
1"
#121549100
b0 $
1#
#121549500
0"
#121550000
1"
#121550100
b100 $
#121550500
0"
#121551000
1"
#121551100
b10110010 $
b11001 &
0#
#121551500
0"
#121552000
1"
#121552100
0%
b1000001 &
b1000001 $
#121552500
0"
#121553000
1"
#121553100
b1000 $
b10111000 &
#121553500
0"
#121554000
1"
#121554100
b0 &
b0 $
1#
#121554500
0"
#121555000
1"
#121555100
b0 -
14
1%
#121555500
0"
#121556000
1"
#121556100
b0 .
b101010 &
#121556500
0"
#121557000
1"
#121557100
b1000001 &
0%
b11 ,
#121557200
b100 )
#121557500
0"
#121558000
1"
#121558100
b10110010 &
b0 ,
b10 -
b0 /
b100 +
#121558500
0"
#121559000
1"
#121559100
b1 ,
b0 &
b0 -
b10 .
#121559500
0"
#121560000
1"
#121560100
b0 .
b10 -
04
b1110101 &
#121560500
0"
#121561000
1"
#121561100
b100 &
b11 ,
b10 .
b100 /
b11 $
#121561500
0"
#121562000
1"
#121562100
b10111000 $
0#
b11101111 &
b0 /
b0 ,
#121562500
0"
#121563000
1"
#121563100
b1 ,
b1000001 $
1;
b1000 &
#121563500
0"
#121564000
1"
#121564100
b100101 &
b1000 $
b100 0
#121564500
0"
#121565000
1"
#121565100
b11011100 $
b10001101 &
#121565500
0"
#121566000
1"
#121566100
b10000101 &
b10110101 $
#121566500
0"
#121567000
1"
#121567100
b1110111 $
b1110110 &
#121567500
0"
#121568000
1"
#121568100
b10010100 &
b1011100 $
b100000101 8
#121568500
0"
#121569000
1"
#121569100
b1 <
09
b10000110 8
b10001110 $
b1111010 &
#121569500
0"
#121570000
1"
#121570100
b10110110 &
b101 0
b10 <
b101110 $
b1000011 8
#121570500
0"
#121571000
1"
#121571100
b1000010 8
b10000101 &
b11100111 $
b11 <
#121571500
0"
#121572000
1"
#121572100
b100 <
b1111000 8
b101101 $
b1000010 &
#121572500
0"
#121573000
1"
#121573100
b1110101 &
1#
b101 <
b0 $
b100000000 8
#121573500
0"
#121574000
1"
#121574100
b100000101 8
b1011101 &
14
b110 <
b0 -
#121574500
0"
#121575000
1"
#121575100
b10 -
b10000110 8
b111 <
b11110000 &
b0 .
#121575500
0"
#121576000
1"
#121576100
b10 .
b0 -
b11 ,
b11111110 &
b1000 <
b1000011 8
#121576200
b0 )
b1 *
#121576500
0"
#121577000
1"
#121577100
b100 -
b100 0
b10111 8
b0 .
b1 +
b1001 <
b1010011 &
b0 ,
#121577500
0"
#121578000
1"
#121578100
b1 ,
b100 .
b10010 8
b11000100 &
b101 $
b1010 <
#121578500
0"
#121579000
1"
#121579100
0#
b101 0
b10000110 $
b100000000 8
b1000011 (
b10101000 &
#121579500
0"
#121580000
1"
#121580100
b11000100 &
b1000011 $
b0 8
#121580500
0"
#121581000
1"
#121581100
b1001 <
b1000010 $
b11110110 &
#121581500
0"
#121582000
1"
#121582100
b10010111 &
b1111000 $
b1000 <
#121582500
0"
#121583000
1"
#121583100
b111 <
1#
b0 $
b10010000 &
#121583500
0"
#121584000
1"
#121584100
b1000001 &
b110 <
b101 $
#121584500
0"
#121585000
1"
#121585100
b10000110 $
b11 &
b101 <
0#
#121585500
0"
#121586000
1"
#121586100
b1000011 $
b100 <
b11001001 &
#121586500
0"
#121587000
1"
#121587100
b1110 &
b11 <
b10111 $
#121587500
0"
#121588000
1"
#121588100
b10010 $
b10 <
b10 &
#121588500
0"
#121589000
1"
#121589100
b10110010 &
1#
b1 <
b0 $
#121589500
0"
#121590000
1"
#121590100
b10000100 &
b0 -
b0 <
19
#121590500
0"
#121591000
1"
#121591100
b0 .
b1000011 &
b100 -
#121591500
0"
#121592000
1"
#121592100
b0 -
b100 .
b11 ,
b0 &
1%
#121592200
b100 *
#121592500
0"
#121593000
1"
