wellen/inputs/gameroy/trace_prefix.vcd
$timescale 244 ns $end
$scope module gameroy $end
$scope module cpu $end
$var wire 8 ! f $end
$var wire 8 " a $end
$var wire 8 # c $end
$var wire 8 $ b $end
$var wire 8 % e $end
$var wire 8 & d $end
$var wire 8 ' l $end
$var wire 8 ( h $end
$var wire 16 ) sp $end
$var wire 16 * pc $end
$var wire 2 + ime $end
$var wire 2 , state $end
$var wire 1 - halt_bug $end
$upscope $end
$scope module ppu $end
$var wire 8 . LCDC_ff40 $end
$var wire 8 / STAT_ff41 $end
$var wire 8 0 SCY_ff42 $end
$var wire 8 1 SCX_ff43 $end
$var wire 8 2 LY_ff44 $end
$var wire 8 3 LYC_ff45 $end
$upscope $end
$upscope $end
$enddefinitions $end
$dumpvars
#4
b0000000000000001 *
b10000000 /
#16
b1111111111111110 )
b0000000000000100 *
#20
b10000000 !
b0000000000000101 *
#32
b11111111 '
b10011111 (
b0000000000001000 *
#40
b11111110 '
b0000000000001001 *
#48
b00100000 !
b0000000000001011 *
#60
b0000000000001000 *
#68
b11111101 '
b0000000000001001 *
#76
b0000000000001011 *
#88
b0000000000001000 *
#96
b11111100 '
b0000000000001001 *
#104
b0000000000001011 *
#116
b0000000000001000 *
#124
b11111011 '
b0000000000001001 *
#132
b0000000000001011 *
#144
b0000000000001000 *
#152
b11111010 '
b0000000000001001 *
#160
b0000000000001011 *
#172
b0000000000001000 *
#180
b11111001 '
b0000000000001001 *
#188
b0000000000001011 *
#200
b0000000000001000 *
#208
b11111000 '
b0000000000001001 *
#216
b0000000000001011 *
#228
b0000000000001000 *
#236
b11110111 '
b0000000000001001 *
#244
b0000000000001011 *
#256
b0000000000001000 *
#264
b11110110 '
b0000000000001001 *
#272
b0000000000001011 *
#284
b0000000000001000 *
#292
b11110101 '
b0000000000001001 *
#300
b0000000000001011 *
#312
b0000000000001000 *
#320
b11110100 '
b0000000000001001 *
#328
b0000000000001011 *
#340
b0000000000001000 *
#348
b11110011 '
b0000000000001001 *
#356
b0000000000001011 *
#368
b0000000000001000 *
#376
b11110010 '
b0000000000001001 *
#384
b0000000000001011 *
#396
b0000000000001000 *
#404
b11110001 '
b0000000000001001 *
#412
b0000000000001011 *
#424
b0000000000001000 *
#432
b11110000 '
b0000000000001001 *
#440
b0000000000001011 *
#452
b0000000000001000 *
#460
b11101111 '
b0000000000001001 *
#468
b0000000000001011 *
#480
b0000000000001000 *
#488
b11101110 '
b0000000000001001 *
#496
b0000000000001011 *
#508
b0000000000001000 *
#516
b11101101 '
b0000000000001001 *
#524
b0000000000001011 *
#536
b0000000000001000 *
#544
b11101100 '
b0000000000001001 *
#552
b0000000000001011 *
#564
b0000000000001000 *
#572
b11101011 '
b0000000000001001 *
#580
b0000000000001011 *
#592
b0000000000001000 *
#600
b11101010 '
b0000000000001001 *
#608
b0000000000001011 *
#620
b0000000000001000 *
#628
b11101001 '
b0000000000001001 *
#636
b0000000000001011 *
#648
b0000000000001000 *
#656
b11101000 '
b0000000000001001 *
#664
b0000000000001011 *
#676
b0000000000001000 *
#684
b11100111 '
b0000000000001001 *
#692
b0000000000001011 *
#704
b0000000000001000 *
#712
b11100110 '
b0000000000001001 *
#720
b0000000000001011 *
#732
b0000000000001000 *
#740
b11100101 '
b0000000000001001 *
#748
b0000000000001011 *
#760
b0000000000001000 *
#768
b11100100 '
b0000000000001001 *
#776
b0000000000001011 *
#788
b0000000000001000 *
#796
b11100011 '
b0000000000001001 *
#804
b0000000000001011 *
#816
b0000000000001000 *
#824
b11100010 '
b0000000000001001 *
#832
b0000000000001011 *
#844
b0000000000001000 *
#852
b11100001 '
b0000000000001001 *
#860
b0000000000001011 *
#872
b0000000000001000 *
#880
b11100000 '
b0000000000001001 *
#888
b0000000000001011 *
#900
b0000000000001000 *
#908
b11011111 '
b0000000000001001 *
#916
b0000000000001011 *
#928
b0000000000001000 *
#936
b11011110 '
b0000000000001001 *
#944
b0000000000001011 *
#956
b0000000000001000 *
#964
b11011101 '
b0000000000001001 *
#972
b0000000000001011 *
#984
b0000000000001000 *
#992
b11011100 '
b0000000000001001 *
#1000
b0000000000001011 *
#1012
b0000000000001000 *
#1020
b11011011 '
b0000000000001001 *
#1028
b0000000000001011 *
#1040
b0000000000001000 *
#1048
b11011010 '
b0000000000001001 *
#1056
b0000000000001011 *
#1068
b0000000000001000 *
#1076
b11011001 '
b0000000000001001 *
#1084
b0000000000001011 *
#1096
b0000000000001000 *
#1104
b11011000 '
b0000000000001001 *
#1112
b0000000000001011 *
#1124
b0000000000001000 *
#1132
b11010111 '
b0000000000001001 *
#1140
b0000000000001011 *
#1152
b0000000000001000 *
#1160
b11010110 '
b0000000000001001 *
#1168
b0000000000001011 *
#1180
b0000000000001000 *
#1188
b11010101 '
b0000000000001001 *
#1196
b0000000000001011 *
#1208
b0000000000001000 *
#1216
b11010100 '
b0000000000001001 *
#1224
b0000000000001011 *
#1236
b0000000000001000 *
#1244
b11010011 '
b0000000000001001 *
#1252
b0000000000001011 *
#1264
b0000000000001000 *
#1272
b11010010 '
b0000000000001001 *
#1280
b0000000000001011 *
#1292
b0000000000001000 *
#1300
b11010001 '
b0000000000001001 *
#1308
b0000000000001011 *
#1320
b0000000000001000 *
#1328
b11010000 '
b0000000000001001 *
#1336
b0000000000001011 *
#1348
b0000000000001000 *
#1356
b11001111 '
b0000000000001001 *
#1364
b0000000000001011 *
#1376
b0000000000001000 *
#1384
b11001110 '
b0000000000001001 *
#1392
b0000000000001011 *
#1404
b0000000000001000 *
#1412
b11001101 '
b0000000000001001 *
#1420
b0000000000001011 *
#1432
b0000000000001000 *
#1440
b11001100 '
b0000000000001001 *
#1448
b0000000000001011 *
#1460
b0000000000001000 *
#1468
b11001011 '
b0000000000001001 *
#1476
b0000000000001011 *
#1488
b0000000000001000 *
#1496
b11001010 '
b0000000000001001 *
#1504
b0000000000001011 *
#1516
b0000000000001000 *
#1524
b11001001 '
b0000000000001001 *
#1532
b0000000000001011 *
#1544
b0000000000001000 *
#1552
b11001000 '
b0000000000001001 *
#1560
b0000000000001011 *
#1572
b0000000000001000 *
#1580
b11000111 '
b0000000000001001 *
#1588
b0000000000001011 *
#1600
b0000000000001000 *
#1608
b11000110 '
b0000000000001001 *
#1616
b0000000000001011 *
#1628
b0000000000001000 *
#1636
b11000101 '
b0000000000001001 *
#1644
b0000000000001011 *
#1656
b0000000000001000 *
#1664
b11000100 '
b0000000000001001 *
#1672
b0000000000001011 *
#1684
b0000000000001000 *
#1692
b11000011 '
b0000000000001001 *
#1700
b0000000000001011 *
#1712
b0000000000001000 *
#1720
b11000010 '
b0000000000001001 *
#1728
b0000000000001011 *
#1740
b0000000000001000 *
#1748
b11000001 '
b0000000000001001 *
#1756
b0000000000001011 *
#1768
b0000000000001000 *
#1776
b11000000 '
b0000000000001001 *
#1784
b0000000000001011 *
#1796
b0000000000001000 *
#1804
b10111111 '
b0000000000001001 *
#1812
b0000000000001011 *
#1824
b0000000000001000 *
#1832
b10111110 '
b0000000000001001 *
#1840
b0000000000001011 *
#1852
b0000000000001000 *
#1860
b10111101 '
b0000000000001001 *
#1868
b0000000000001011 *
#1880
b0000000000001000 *
#1888
b10111100 '
b0000000000001001 *
#1896
b0000000000001011 *
#1908
b0000000000001000 *
#1916
b10111011 '
b0000000000001001 *
#1924
b0000000000001011 *
#1936
b0000000000001000 *
#1944
b10111010 '
b0000000000001001 *
#1952
b0000000000001011 *
#1964
b0000000000001000 *
#1972
b10111001 '
b0000000000001001 *
#1980
b0000000000001011 *
#1992
b0000000000001000 *
#2000
b10111000 '
b0000000000001001 *
#2008
b0000000000001011 *
#2020
b0000000000001000 *
#2028
b10110111 '
b0000000000001001 *
#2036
b0000000000001011 *
#2048
b0000000000001000 *
#2056
b10110110 '
b0000000000001001 *
#2064
b0000000000001011 *
#2076
b0000000000001000 *
#2084
b10110101 '
b0000000000001001 *
#2092
b0000000000001011 *
#2104
b0000000000001000 *
#2112
b10110100 '
b0000000000001001 *
#2120
b0000000000001011 *
#2132
b0000000000001000 *
#2140
b10110011 '
b0000000000001001 *
#2148
b0000000000001011 *
#2160
b0000000000001000 *
#2168
b10110010 '
b0000000000001001 *
#2176
b0000000000001011 *
#2188
b0000000000001000 *
#2196
b10110001 '
b0000000000001001 *
#2204
b0000000000001011 *
#2216
b0000000000001000 *
#2224
b10110000 '
b0000000000001001 *
#2232
b0000000000001011 *
#2244
b0000000000001000 *
#2252
b10101111 '
b0000000000001001 *
#2260
b0000000000001011 *
#2272
b0000000000001000 *
#2280
b10101110 '
b0000000000001001 *
#2288
b0000000000001011 *
#2300
b0000000000001000 *
#2308
b10101101 '
b0000000000001001 *
#2316
b0000000000001011 *
#2328
b0000000000001000 *
#2336
b10101100 '
b0000000000001001 *
#2344
b0000000000001011 *
#2356
b0000000000001000 *
#2364
b10101011 '
b0000000000001001 *
#2372
b0000000000001011 *
#2384
b0000000000001000 *
#2392
b10101010 '
b0000000000001001 *
#2400
b0000000000001011 *
#2412
b0000000000001000 *
#2420
b10101001 '
b0000000000001001 *
#2428
b0000000000001011 *
#2440
b0000000000001000 *
#2448
b10101000 '
b0000000000001001 *
#2456
b0000000000001011 *
#2468
b0000000000001000 *
#2476
b10100111 '
b0000000000001001 *
#2484
b0000000000001011 *
#2496
b0000000000001000 *
#2504
b10100110 '
b0000000000001001 *
#2512
b0000000000001011 *
#2524
b0000000000001000 *
#2532
b10100101 '
b0000000000001001 *
#2540
b0000000000001011 *
#2552
b0000000000001000 *
#2560
b10100100 '
b0000000000001001 *
#2568
b0000000000001011 *
#2580
b0000000000001000 *
#2588
b10100011 '
b0000000000001001 *
#2596
b0000000000001011 *
#2608
b0000000000001000 *
#2616
b10100010 '
b0000000000001001 *
#2624
b0000000000001011 *
#2636
b0000000000001000 *
#2644
b10100001 '
b0000000000001001 *
#2652
b0000000000001011 *
#2664
b0000000000001000 *
#2672
b10100000 '
b0000000000001001 *
#2680
b0000000000001011 *
#2692
b0000000000001000 *
#2700
b10011111 '
b0000000000001001 *
#2708
b0000000000001011 *
#2720
b0000000000001000 *
#2728
b10011110 '
b0000000000001001 *
#2736
b0000000000001011 *
#2748
b0000000000001000 *
#2756
b10011101 '
b0000000000001001 *
#2764
b0000000000001011 *
#2776
b0000000000001000 *
#2784
b10011100 '
b0000000000001001 *
#2792
b0000000000001011 *
#2804
b0000000000001000 *
#2812
b10011011 '
b0000000000001001 *
#2820
b0000000000001011 *
#2832
b0000000000001000 *
#2840
b10011010 '
b0000000000001001 *
#2848
b0000000000001011 *
#2860
b0000000000001000 *
#2868
b10011001 '
b0000000000001001 *
#2876
b0000000000001011 *
#2888
b0000000000001000 *
#2896
b10011000 '
b0000000000001001 *
#2904
b0000000000001011 *
#2916
b0000000000001000 *
#2924
b10010111 '
b0000000000001001 *
#2932
b0000000000001011 *
#2944
b0000000000001000 *
#2952
b10010110 '
b0000000000001001 *
#2960
b0000000000001011 *
#2972
b0000000000001000 *
#2980
b10010101 '
b0000000000001001 *
#2988
b0000000000001011 *
#3000
b0000000000001000 *
#3008
b10010100 '
b0000000000001001 *
#3016
b0000000000001011 *
#3028
b0000000000001000 *
#3036
b10010011 '
b0000000000001001 *
#3044
b0000000000001011 *
#3056
b0000000000001000 *
#3064
b10010010 '
b0000000000001001 *
#3072
b0000000000001011 *
#3084
b0000000000001000 *
#3092
b10010001 '
b0000000000001001 *
#3100
b0000000000001011 *
#3112
b0000000000001000 *
#3120
b10010000 '
b0000000000001001 *
#3128
b0000000000001011 *
#3140
b0000000000001000 *
#3148
b10001111 '
b0000000000001001 *
#3156
b0000000000001011 *
#3168
b0000000000001000 *
#3176
b10001110 '
b0000000000001001 *
#3184
b0000000000001011 *
#3196
b0000000000001000 *
#3204
b10001101 '
b0000000000001001 *
#3212
b0000000000001011 *
#3224
b0000000000001000 *
#3232
b10001100 '
b0000000000001001 *
#3240
b0000000000001011 *
#3252
b0000000000001000 *
#3260
b10001011 '
b0000000000001001 *
#3268
b0000000000001011 *
#3280
b0000000000001000 *
#3288
b10001010 '
b0000000000001001 *
#3296
b0000000000001011 *
#3308
b0000000000001000 *
#3316
b10001001 '
b0000000000001001 *
#3324
b0000000000001011 *
#3336
b0000000000001000 *
#3344
b10001000 '
b0000000000001001 *
#3352
b0000000000001011 *
#3364
b0000000000001000 *
#3372
b10000111 '
b0000000000001001 *
#3380
b0000000000001011 *
#3392
b0000000000001000 *
#3400
b10000110 '
b0000000000001001 *
#3408
b0000000000001011 *
#3420
b0000000000001000 *
#3428
b10000101 '
b0000000000001001 *
#3436
b0000000000001011 *
#3448
b0000000000001000 *
#3456
b10000100 '
b0000000000001001 *
#3464
b0000000000001011 *
#3476
b0000000000001000 *
#3484
b10000011 '
b0000000000001001 *
#3492
b0000000000001011 *
#3504
b0000000000001000 *
#3512
b10000010 '
b0000000000001001 *
#3520
b0000000000001011 *
#3532
b0000000000001000 *
#3540
b10000001 '
b0000000000001001 *
#3548
b0000000000001011 *
#3560
b0000000000001000 *
#3568
b10000000 '
b0000000000001001 *
#3576
b0000000000001011 *
#3588
b0000000000001000 *
#3596
b01111111 '
b0000000000001001 *
#3604
b0000000000001011 *
#3616
b0000000000001000 *
#3624
b01111110 '
b0000000000001001 *
#3632
b0000000000001011 *
#3644
b0000000000001000 *
#3652
b01111101 '
b0000000000001001 *
#3660
b0000000000001011 *
#3672
b0000000000001000 *
#3680
b01111100 '
b0000000000001001 *
#3688
b0000000000001011 *
#3700
b0000000000001000 *
#3708
b01111011 '
b0000000000001001 *
#3716
b0000000000001011 *
#3728
b0000000000001000 *
#3736
b01111010 '
b0000000000001001 *
#3744
b0000000000001011 *
#3756
b0000000000001000 *
#3764
b01111001 '
b0000000000001001 *
#3772
b0000000000001011 *
#3784
b0000000000001000 *
#3792
b01111000 '
b0000000000001001 *
#3800
b0000000000001011 *
#3812
b0000000000001000 *
#3820
b01110111 '
b0000000000001001 *
#3828
b0000000000001011 *
#3840
b0000000000001000 *
#3848
b01110110 '
b0000000000001001 *
#3856
b0000000000001011 *
#3868
b0000000000001000 *
#3876
b01110101 '
b0000000000001001 *
#3884
b0000000000001011 *
#3896
b0000000000001000 *
#3904
b01110100 '
b0000000000001001 *
#3912
b0000000000001011 *
#3924
b0000000000001000 *
#3932
b01110011 '
b0000000000001001 *
#3940
b0000000000001011 *
#3952
b0000000000001000 *
#3960
b01110010 '
b0000000000001001 *
#3968
b0000000000001011 *
#3980
b0000000000001000 *
#3988
b01110001 '
b0000000000001001 *
#3996
b0000000000001011 *
#4008
b0000000000001000 *
#4016
b01110000 '
b0000000000001001 *
#4024
b0000000000001011 *
#4036
b0000000000001000 *
#4044
b01101111 '
b0000000000001001 *
#4052
b0000000000001011 *
#4064
b0000000000001000 *
#4072
b01101110 '
b0000000000001001 *
#4080
b0000000000001011 *
#4092
b0000000000001000 *
#4100
b01101101 '
b0000000000001001 *
#4108
b0000000000001011 *
#4120
b0000000000001000 *
#4128
b01101100 '
b0000000000001001 *
#4136
b0000000000001011 *
#4148
b0000000000001000 *
#4156
b01101011 '
b0000000000001001 *
#4164
b0000000000001011 *
#4176
b0000000000001000 *
#4184
b01101010 '
b0000000000001001 *
#4192
b0000000000001011 *
#4204
b0000000000001000 *
#4212
b01101001 '
b0000000000001001 *
#4220
b0000000000001011 *
#4232
b0000000000001000 *
#4240
b01101000 '
b0000000000001001 *
#4248
b0000000000001011 *
#4260
b0000000000001000 *
#4268
b01100111 '
b0000000000001001 *
#4276
b0000000000001011 *
#4288
b0000000000001000 *
#4296
b01100110 '
b0000000000001001 *
#4304
b0000000000001011 *
#4316
b0000000000001000 *
#4324
b01100101 '
b0000000000001001 *
#4332
b0000000000001011 *
#4344
b0000000000001000 *
#4352
b01100100 '
b0000000000001001 *
#4360
b0000000000001011 *
#4372
b0000000000001000 *
#4380
b01100011 '
b0000000000001001 *
#4388
b0000000000001011 *
#4400
b0000000000001000 *
#4408
b01100010 '
b0000000000001001 *
#4416
b0000000000001011 *
#4428
b0000000000001000 *
#4436
b01100001 '
b0000000000001001 *
#4444
b0000000000001011 *
#4456
b0000000000001000 *
#4464
b01100000 '
b0000000000001001 *
#4472
b0000000000001011 *
#4484
b0000000000001000 *
#4492
b01011111 '
b0000000000001001 *
#4500
b0000000000001011 *
#4512
b0000000000001000 *
#4520
b01011110 '
b0000000000001001 *
#4528
b0000000000001011 *
#4540
b0000000000001000 *
#4548
b01011101 '
b0000000000001001 *
#4556
b0000000000001011 *
#4568
b0000000000001000 *
#4576
b01011100 '
b0000000000001001 *
#4584
b0000000000001011 *
#4596
b0000000000001000 *
#4604
b01011011 '
b0000000000001001 *
#4612
b0000000000001011 *
#4624
b0000000000001000 *
#4632
b01011010 '
b0000000000001001 *
#4640
b0000000000001011 *
#4652
b0000000000001000 *
#4660
b01011001 '
b0000000000001001 *
#4668
b0000000000001011 *
#4680
b0000000000001000 *
#4688
b01011000 '
b0000000000001001 *
#4696
b0000000000001011 *
#4708
b0000000000001000 *
#4716
b01010111 '
b0000000000001001 *
#4724
b0000000000001011 *
#4736
b0000000000001000 *
#4744
b01010110 '
b0000000000001001 *
#4752
b0000000000001011 *
#4764
b0000000000001000 *
#4772
b01010101 '
b0000000000001001 *
#4780
b0000000000001011 *
#4792
b0000000000001000 *
#4800
b01010100 '
b0000000000001001 *
#4808
b0000000000001011 *
#4820
b0000000000001000 *
#4828
b01010011 '
b0000000000001001 *
#4836
b0000000000001011 *
#4848
b0000000000001000 *
#4856
b01010010 '
b0000000000001001 *
#4864
b0000000000001011 *
#4876
b0000000000001000 *
#4884
b01010001 '
b0000000000001001 *
#4892
b0000000000001011 *
#4904
b0000000000001000 *
#4912
b01010000 '
b0000000000001001 *
#4920
b0000000000001011 *
#4932
b0000000000001000 *
#4940
b01001111 '
b0000000000001001 *
#4948
b0000000000001011 *
#4960
b0000000000001000 *
#4968
b01001110 '
b0000000000001001 *
#4976
b0000000000001011 *
#4988
b0000000000001000 *
#4996
b01001101 '
b0000000000001001 *
#5004
b0000000000001011 *
#5016
b0000000000001000 *
#5024
b01001100 '
b0000000000001001 *
#5032
b0000000000001011 *
#5044
b0000000000001000 *
#5052
b01001011 '
b0000000000001001 *
#5060
b0000000000001011 *
#5072
b0000000000001000 *
#5080
b01001010 '
b0000000000001001 *
#5088
b0000000000001011 *
#5100
b0000000000001000 *
#5108
b01001001 '
b0000000000001001 *
#5116
b0000000000001011 *
#5128
b0000000000001000 *
#5136
b01001000 '
b0000000000001001 *
#5144
b0000000000001011 *
#5156
b0000000000001000 *
#5164
b01000111 '
b0000000000001001 *
#5172
b0000000000001011 *
#5184
b0000000000001000 *
#5192
b01000110 '
b0000000000001001 *
#5200
b0000000000001011 *
#5212
b0000000000001000 *
#5220
b01000101 '
b0000000000001001 *
#5228
b0000000000001011 *
#5240
b0000000000001000 *
#5248
b01000100 '
b0000000000001001 *
#5256
b0000000000001011 *
#5268
b0000000000001000 *
#5276
b01000011 '
b0000000000001001 *
#5284
b0000000000001011 *
#5296
b0000000000001000 *
#5304
b01000010 '
b0000000000001001 *
#5312
b0000000000001011 *
#5324
b0000000000001000 *
#5332
b01000001 '
b0000000000001001 *
#5340
b0000000000001011 *
#5352
b0000000000001000 *
#5360
b01000000 '
b0000000000001001 *
#5368
b0000000000001011 *
#5380
b0000000000001000 *
#5388
b00111111 '
b0000000000001001 *
#5396
b0000000000001011 *
#5408
b0000000000001000 *
#5416
b00111110 '
b0000000000001001 *
#5424
b0000000000001011 *
#5436
b0000000000001000 *
#5444
b00111101 '
b0000000000001001 *
#5452
b0000000000001011 *
#5464
b0000000000001000 *
#5472
b00111100 '
b0000000000001001 *
#5480
b0000000000001011 *
#5492
b0000000000001000 *
#5500
b00111011 '
b0000000000001001 *
#5508
b0000000000001011 *
#5520
b0000000000001000 *
#5528
b00111010 '
b0000000000001001 *
#5536
b0000000000001011 *
#5548
b0000000000001000 *
#5556
b00111001 '
b0000000000001001 *
#5564
b0000000000001011 *
#5576
b0000000000001000 *
#5584
b00111000 '
b0000000000001001 *
#5592
b0000000000001011 *
#5604
b0000000000001000 *
#5612
b00110111 '
b0000000000001001 *
#5620
b0000000000001011 *
#5632
b0000000000001000 *
#5640
b00110110 '
b0000000000001001 *
#5648
b0000000000001011 *
#5660
b0000000000001000 *
#5668
b00110101 '
b0000000000001001 *
#5676
b0000000000001011 *
#5688
b0000000000001000 *
#5696
b00110100 '
b0000000000001001 *
#5704
b0000000000001011 *
#5716
b0000000000001000 *
#5724
b00110011 '
b0000000000001001 *
#5732
b0000000000001011 *
#5744
b0000000000001000 *
#5752
b00110010 '
b0000000000001001 *
#5760
b0000000000001011 *
#5772
b0000000000001000 *
#5780
b00110001 '
b0000000000001001 *
#5788
b0000000000001011 *
#5800
b0000000000001000 *
#5808
b00110000 '
b0000000000001001 *
#5816
b0000000000001011 *
#5828
b0000000000001000 *
#5836
b00101111 '
b0000000000001001 *
#5844
b0000000000001011 *
#5856
b0000000000001000 *
#5864
b00101110 '
b0000000000001001 *
#5872
b0000000000001011 *
#5884
b0000000000001000 *
#5892
b00101101 '
b0000000000001001 *
#5900
b0000000000001011 *
#5912
b0000000000001000 *
#5920
b00101100 '
b0000000000001001 *
#5928
b0000000000001011 *
#5940
b0000000000001000 *
#5948
b00101011 '
b0000000000001001 *
#5956
b0000000000001011 *
#5968
b0000000000001000 *
#5976
b00101010 '
b0000000000001001 *
#5984
b0000000000001011 *
#5996
b0000000000001000 *
#6004
b00101001 '
b0000000000001001 *
#6012
b0000000000001011 *
#6024
b0000000000001000 *
#6032
b00101000 '
b0000000000001001 *
#6040
b0000000000001011 *
#6052
b0000000000001000 *
#6060
b00100111 '
b0000000000001001 *
#6068
b0000000000001011 *
#6080
b0000000000001000 *
#6088
b00100110 '
b0000000000001001 *
#6096
b0000000000001011 *
#6108
b0000000000001000 *
#6116
b00100101 '
b0000000000001001 *
#6124
b0000000000001011 *
#6136
b0000000000001000 *
#6144
b00100100 '
b0000000000001001 *
#6152
b0000000000001011 *
#6164
b0000000000001000 *
#6172
b00100011 '
b0000000000001001 *
#6180
b0000000000001011 *
#6192
b0000000000001000 *
#6200
b00100010 '
b0000000000001001 *
#6208
b0000000000001011 *
#6220
b0000000000001000 *
#6228
b00100001 '
b0000000000001001 *
#6236
b0000000000001011 *
#6248
b0000000000001000 *
#6256
b00100000 '
b0000000000001001 *
#6264
b0000000000001011 *
#6276
b0000000000001000 *
#6284
b00011111 '
b0000000000001001 *
#6292
b0000000000001011 *
#6304
b0000000000001000 *
#6312
b00011110 '
b0000000000001001 *
#6320
b0000000000001011 *
#6332
b0000000000001000 *
#6340
b00011101 '
b0000000000001001 *
#6348
b0000000000001011 *
#6360
b0000000000001000 *
#6368
b00011100 '
b0000000000001001 *
#6376
b0000000000001011 *
#6388
b0000000000001000 *
#6396
b00011011 '
b0000000000001001 *
#6404
b0000000000001011 *
#6416
b0000000000001000 *
#6424
b00011010 '
b0000000000001001 *
#6432
b0000000000001011 *
#6444
b0000000000001000 *
#6452
b00011001 '
b0000000000001001 *
#6460
b0000000000001011 *
#6472
b0000000000001000 *
#6480
b00011000 '
b0000000000001001 *
#6488
b0000000000001011 *
#6500
b0000000000001000 *
#6508
b00010111 '
b0000000000001001 *
#6516
b0000000000001011 *
#6528
b0000000000001000 *
#6536
b00010110 '
b0000000000001001 *
#6544
b0000000000001011 *
#6556
b0000000000001000 *
#6564
b00010101 '
b0000000000001001 *
#6572
b0000000000001011 *
#6584
b0000000000001000 *
#6592
b00010100 '
b0000000000001001 *
#6600
b0000000000001011 *
#6612
b0000000000001000 *
#6620
b00010011 '
b0000000000001001 *
#6628
b0000000000001011 *
#6640
b0000000000001000 *
#6648
b00010010 '
b0000000000001001 *
#6656
b0000000000001011 *
#6668
b0000000000001000 *
#6676
b00010001 '
b0000000000001001 *
#6684
b0000000000001011 *
#6696
b0000000000001000 *
#6704
b00010000 '
b0000000000001001 *
#6712
b0000000000001011 *
#6724
b0000000000001000 *
#6732
b00001111 '
b0000000000001001 *
#6740
b0000000000001011 *
#6752
b0000000000001000 *
#6760
b00001110 '
b0000000000001001 *
#6768
b0000000000001011 *
#6780
b0000000000001000 *
#6788
b00001101 '
b0000000000001001 *
#6796
b0000000000001011 *
#6808
b0000000000001000 *
#6816
b00001100 '
b0000000000001001 *
#6824
b0000000000001011 *
#6836
b0000000000001000 *
#6844
b00001011 '
b0000000000001001 *
#6852
b0000000000001011 *
#6864
b0000000000001000 *
#6872
b00001010 '
b0000000000001001 *
#6880
b0000000000001011 *
#6892
b0000000000001000 *
#6900
b00001001 '
b0000000000001001 *
#6908
b0000000000001011 *
#6920
b0000000000001000 *
#6928
b00001000 '
b0000000000001001 *
#6936
b0000000000001011 *
#6948
b0000000000001000 *
#6956
b00000111 '
b0000000000001001 *
#6964
b0000000000001011 *
#6976
b0000000000001000 *
#6984
b00000110 '
b0000000000001001 *
#6992
b0000000000001011 *
#7004
b0000000000001000 *
#7012
b00000101 '
b0000000000001001 *
#7020
b0000000000001011 *
#7032
b0000000000001000 *
#7040
b00000100 '
b0000000000001001 *
#7048
b0000000000001011 *
#7060
b0000000000001000 *
#7068
b00000011 '
b0000000000001001 *
#7076
b0000000000001011 *
#7088
b0000000000001000 *
#7096
b00000010 '
b0000000000001001 *
#7104
b0000000000001011 *
#7116
b0000000000001000 *
#7124
b00000001 '
b0000000000001001 *
#7132
b0000000000001011 *
#7144
b0000000000001000 *
#7152
b00000000 '
b0000000000001001 *
#7160
b0000000000001011 *
#7172
b0000000000001000 *
#7180
b11111111 '
b10011110 (
b0000000000001001 *
#7188
b0000000000001011 *
#7200
b0000000000001000 *
#7208
b11111110 '
b0000000000001001 *
#7216
b0000000000001011 *
#7228
b0000000000001000 *
#7236
b11111101 '
b0000000000001001 *
#7244
b0000000000001011 *
#7256
b0000000000001000 *
#7264
b11111100 '
b0000000000001001 *
#7272
b0000000000001011 *
#7284
b0000000000001000 *
#7292
b11111011 '
b0000000000001001 *
#7300
b0000000000001011 *
#7312
b0000000000001000 *
#7320
b11111010 '
b0000000000001001 *
#7328
b0000000000001011 *
#7340
b0000000000001000 *
#7348
b11111001 '
b0000000000001001 *
#7356
b0000000000001011 *
#7368
b0000000000001000 *
#7376
b11111000 '
b0000000000001001 *
#7384
b0000000000001011 *
#7396
b0000000000001000 *
#7404
b11110111 '
b0000000000001001 *
#7412
b0000000000001011 *
#7424
b0000000000001000 *
#7432
b11110110 '
b0000000000001001 *
#7440
b0000000000001011 *
#7452
b0000000000001000 *
#7460
b11110101 '
b0000000000001001 *
#7468
b0000000000001011 *
#7480
b0000000000001000 *
#7488
b11110100 '
b0000000000001001 *
#7496
b0000000000001011 *
#7508
b0000000000001000 *
#7516
b11110011 '
b0000000000001001 *
#7524
b0000000000001011 *
#7536
b0000000000001000 *
#7544
b11110010 '
b0000000000001001 *
#7552
b0000000000001011 *
#7564
b0000000000001000 *
#7572
b11110001 '
b0000000000001001 *
#7580
b0000000000001011 *
#7592
b0000000000001000 *
#7600
b11110000 '
b0000000000001001 *
#7608
b0000000000001011 *
#7620
b0000000000001000 *
#7628
b11101111 '
b0000000000001001 *
#7636
b0000000000001011 *
#7648
b0000000000001000 *
#7656
b11101110 '
b0000000000001001 *
#7664
b0000000000001011 *
#7676
b0000000000001000 *
#7684
b11101101 '
b0000000000001001 *
#7692
b0000000000001011 *
#7704
b0000000000001000 *
#7712
b11101100 '
b0000000000001001 *
#7720
b0000000000001011 *
#7732
b0000000000001000 *
#7740
b11101011 '
b0000000000001001 *
#7748
b0000000000001011 *
#7760
b0000000000001000 *
#7768
b11101010 '
b0000000000001001 *
#7776
b0000000000001011 *
#7788
b0000000000001000 *
#7796
b11101001 '
b0000000000001001 *
#7804
b0000000000001011 *
#7816
b0000000000001000 *
#7824
b11101000 '
b0000000000001001 *
#7832
b0000000000001011 *
#7844
b0000000000001000 *
#7852
b11100111 '
b0000000000001001 *
#7860
b0000000000001011 *
#7872
b0000000000001000 *
#7880
b11100110 '
b0000000000001001 *
#7888
b0000000000001011 *
#7900
b0000000000001000 *
#7908
b11100101 '
b0000000000001001 *
#7916
b0000000000001011 *
#7928
b0000000000001000 *
#7936
b11100100 '
b0000000000001001 *
#7944
b0000000000001011 *
#7956
b0000000000001000 *
#7964
b11100011 '
b0000000000001001 *
#7972
b0000000000001011 *
#7984
b0000000000001000 *
#7992
b11100010 '
b0000000000001001 *
#8000
b0000000000001011 *
#8012
b0000000000001000 *
#8020
b11100001 '
b0000000000001001 *
#8028
b0000000000001011 *
#8040
b0000000000001000 *
#8048
b11100000 '
b0000000000001001 *
#8056
b0000000000001011 *
#8068
b0000000000001000 *
#8076
b11011111 '
b0000000000001001 *
#8084
b0000000000001011 *
#8096
b0000000000001000 *
#8104
b11011110 '
b0000000000001001 *
#8112
b0000000000001011 *
#8124
b0000000000001000 *
#8132
b11011101 '
b0000000000001001 *
#8140
b0000000000001011 *
#8152
b0000000000001000 *
#8160
b11011100 '
b0000000000001001 *
#8168
b0000000000001011 *
#8180
b0000000000001000 *
#8188
b11011011 '
b0000000000001001 *
#8196
b0000000000001011 *
#8208
b0000000000001000 *
#8216
b11011010 '
b0000000000001001 *
#8224
b0000000000001011 *
#8236
b0000000000001000 *
#8244
b11011001 '
b0000000000001001 *
#8252
b0000000000001011 *
#8264
b0000000000001000 *
#8272
b11011000 '
b0000000000001001 *
#8280
b0000000000001011 *
#8292
b0000000000001000 *
#8300
b11010111 '
b0000000000001001 *
#8308
b0000000000001011 *
#8320
b0000000000001000 *
#8328
b11010110 '
b0000000000001001 *
#8336
b0000000000001011 *
#8348
b0000000000001000 *
#8356
b11010101 '
b0000000000001001 *
#8364
b0000000000001011 *
#8376
b0000000000001000 *
