wellen/inputs/vcs/Apb_slave_uvm_new.vcd
$date
	Mon May 24 02:40:52 2021
$end

$version
	Synopsys VCS version Q-2020.03-SP1-1
$end

$timescale
	1ns
$end

$comment Csum: 1 5fb93f7337e7c1f7 $end


$scope module $unit $end
$upscope $end


$scope module apb_pkg $end
$upscope $end


$scope module top $end
$var reg 1 ! clk $end

$scope begin unnamed$$_vcs_2 $end
$upscope $end


$scope begin unnamed$$_vcs_0 $end
$upscope $end


$scope begin unnamed$$_vcs_1 $end
$upscope $end


$scope begin unnamed$$_vcs_3 $end
$upscope $end


$scope module masslav_if $end
$var reg 1 " clk $end
$var reg 32 # Paddr [31:0] $end
$var reg 32 $ Pwdata [31:0] $end
$var reg 1 % Psel $end
$var reg 1 & Pwrite $end
$var reg 1 ' Penable $end
$var reg 1 ( Pready $end
$var reg 32 ) Prdata [31:0] $end
$var reg 1 * Pslave_err $end
$upscope $end

$upscope $end


$scope module uvm_pkg $end
$var reg 32 + UVM_UNBOUNDED_CONNECTIONS [31:0] $end
$var reg 1 , uvm_start_uvm_declarations $end
$var time 64 - setting_offset $end
$var reg 32 . setting_verbosity [31:0] $end
$var reg 1 / is_verdi_set_verbosity_called $end
$var reg 32 0 uvm_global_random_seed [31:0] $end
$var reg 1 1 is_uvm_factory_trace_checked $end
$var reg 1 2 is_verdi_trace_fac $end
$upscope $end

$enddefinitions $end

#0
$dumpvars
11
0/
02
1,
bxxxxxxxxxxxxxxxxxxxxxxxxxxxxxxxxxxxxxxxxxxxxxxxxxxxxxxxxxxxxxxxx -
b11111111111111111111111111111111 +
b00000000000000000000000000000000 .
b01000010000001111100110001000111 0
0!
bxxxxxxxxxxxxxxxxxxxxxxxxxxxxxxxx )
bxxxxxxxxxxxxxxxxxxxxxxxxxxxxxxxx $
bxxxxxxxxxxxxxxxxxxxxxxxxxxxxxxxx #
x'
x(
x%
x*
x&
0"
$end
#5
1!
1"
#6
0&
1%
b00000000000000000000000011011010 #
0'
#10
0!
0"
#15
1!
1"
#16
1'
b00000000000000000000000011011101 )
0*
#20
0!
0"
#25
1!
1"
#26
1(
#30
0!
0"
#35
1!
1"
#36
0'
0(
b00000000000000000000000001011100 #
#40
0!
0"
#45
1!
1"
#46
1'
b00000000000000000000000010001110 )
#50
0!
0"
#55
1!
1"
#56
1(
#60
0!
0"
#65
1!
1"
#66
0'
0(
b00000000000000000000000010111101 #
#70
0!
0"
#75
1!
1"
#76
1'
b00000000000000000000000000010100 )
#80
0!
0"
#85
1!
1"
#86
1(
#90
0!
0"
#95
1!
1"
#96
0'
0(
b00000000000000000000000011001100 #
#100
0!
0"
#105
1!
1"
#106
1'
b00000000000000000000000000000011 )
#110
0!
0"
#115
1!
1"
#116
1(
#120
0!
0"
#125
1!
1"
#126
0'
0(
b00000000000000000000000001101111 #
#130
0!
0"
#135
1!
1"
#136
1'
b00000000000000000000000000010101 )
#140
0!
0"
#145
1!
1"
#146
1(
#150
0!
0"
#155
1!
1"
#156
0'
0(
b00000000000000000000000011100100 #
#160
0!
0"
#165
1!
1"
#166
1'
b00000000000000000000000000011110 )
#170
0!
0"
#175
1!
1"
#176
1(
#180
0!
0"
#185
1!
1"
#186
0'
0(
b00000000000000000000000011110001 #
#190
0!
0"
#195
1!
1"
#196
1'
b00000000000000000000000011011111 )
#200
0!
0"
#205
1!
1"
#206
1(
#210
0!
0"
#215
1!
1"
#216
0'
0(
b00000000000000000000000011001000 #
#220
0!
0"
#225
1!
1"
#226
1'
b00000000000000000000000011000100 )
#230
0!
0"
#235
1!
1"
#236
1(
#240
0!
0"
#245
1!
1"
#246
0'
0(
b00000000000000000000000001011101 #
#250
0!
0"
#255
1!
1"
#256
1'
b00000000000000000000000001010000 )
#260
0!
0"
#265
1!
1"
#266
1(
#270
0!
0"
#275
1!
1"
#276
0'
0(
b00000000000000000000000001001011 #
#280
0!
0"
#285
1!
1"
#286
1'
b00000000000000000000000010111001 )
#290
0!
0"
#295
1!
1"
#296
1(
#300
0!
0"
#305
1!
1"
#306
0'
0%
0(
