wellen/inputs/my-hdl/Simple_Memory.vcd
$date
    Fri Feb 19 14:50:27 2021
$end
$version
    MyHDL 0.11
$end
$timescale
    1ns
$end

$scope module Simple_Memory $end
$var reg 8 ! dout $end
$var reg 5 " addr $end
$var reg 1 # clk $end
$var reg 8 $ din $end
$var reg 1 % en $end
$scope module Memory0 $end
$var reg 1 # clk $end
$var reg 5 " addr $end
$var reg 8 $ din $end
$var reg 8 ! dout $end
$var reg 1 % en $end
$scope module mem $end
$var reg 8 & mem(0) $end
$var reg 8 ' mem(1) $end
$var reg 8 ( mem(2) $end
$var reg 8 ) mem(3) $end
$var reg 8 * mem(4) $end
$var reg 8 + mem(5) $end
$var reg 8 , mem(6) $end
$var reg 8 - mem(7) $end
$var reg 8 . mem(8) $end
$var reg 8 / mem(9) $end
$var reg 8 0 mem(10) $end
$var reg 8 1 mem(11) $end
$var reg 8 2 mem(12) $end
$var reg 8 3 mem(13) $end
$var reg 8 4 mem(14) $end
$var reg 8 5 mem(15) $end
$var reg 8 6 mem(16) $end
$var reg 8 7 mem(17) $end
$var reg 8 8 mem(18) $end
$var reg 8 9 mem(19) $end
$var reg 8 : mem(20) $end
$var reg 8 ; mem(21) $end
$var reg 8 < mem(22) $end
$var reg 8 = mem(23) $end
$var reg 8 > mem(24) $end
$var reg 8 ? mem(25) $end
$var reg 8 @ mem(26) $end
$var reg 8 A mem(27) $end
$var reg 8 B mem(28) $end
$var reg 8 C mem(29) $end
$var reg 8 D mem(30) $end
$var reg 8 E mem(31) $end
$upscope $end
$upscope $end
$upscope $end

$enddefinitions $end
$dumpvars
b00000000 !
b00000 "
0#
b00000000 $
0%
b00000000 &
b00000000 '
b00000000 (
b00000000 )
b00000000 *
b00000000 +
b00000000 ,
b00000000 -
b00000000 .
b00000000 /
b00000000 0
b00000000 1
b00000000 2
b00000000 3
b00000000 4
b00000000 5
b00000000 6
b00000000 7
b00000000 8
b00000000 9
b00000000 :
b00000000 ;
b00000000 <
b00000000 =
b00000000 >
b00000000 ?
b00000000 @
b00000000 A
b00000000 B
b00000000 C
b00000000 D
b00000000 E
$end
#5
1%
#10
1#
#20
0#
b01101110 $
b01111 "
#30
1#
b01101110 5
b01101110 !
#40
0#
b01000110 $
b00000 "
b00000000 !
#49
0%
#50
1#
#60
0#
b11101011 $
b11101 "
#70
1#
#75
1%
#80
0#
b00001010 $
b10101 "
#90
1#
b00001010 ;
b00001010 !
#100
0#
b00000110 $
b11011 "
b00000000 !
#108
0%
#110
1#
#120
0#
b01000000 $
b10110 "
#130
1#
#140
0#
1%
b10000100 $
b00010 "
#150
1#
b10000100 (
b10000100 !
#160
0#
b01000001 $
b11101 "
b00000000 !
#170
1#
b01000001 C
b01000001 !
#175
0%
#180
0#
b00001100 $
b00001 "
b00000000 !
#190
1#
#200
0#
1%
b11111010 $
b10110 "
#210
1#
b11111010 <
b11111010 !
#220
0#
b10111111 $
b10000 "
b00000000 !
#230
1#
b10111111 6
b10111111 !
#235
0%
#240
0#
b11100000 $
b01011 "
b00000000 !
#250
1#
#260
0#
b01001001 $
b10000 "
b10111111 !
#266
1%
#270
1#
b01001001 6
b01001001 !
#280
0#
b00001001 $
b11101 "
b01000001 !
#290
1#
b00001001 C
b00001001 !
#300
0#
b11010101 $
b00111 "
b00000000 !
#310
1#
b11010101 -
b11010101 !
#320
0#
b01101101 $
b01010 "
b00000000 !
#323
0%
#330
1#
#340
0#
b11001101 $
b01000 "
#350
1#
#354
1%
#360
0#
b11011001 $
b01110 "
#370
1#
b11011001 4
b11011001 !
#380
0#
b11100000 $
b00111 "
b11010101 !
#390
1#
b11100000 -
b11100000 !
#400
0#
b00110101 $
b00100 "
b00000000 !
#410
1#
b00110101 *
b00110101 !
#418
0%
#420
0#
b11110110 $
b10001 "
b00000000 !
#430
1#
#439
1%
#440
0#
b00101010 $
b11110 "
#450
1#
b00101010 D
b00101010 !
#460
0#
b10000101 $
b01011 "
b00000000 !
#470
1#
b10000101 1
b10000101 !
#480
0#
b00001111 $
b11111 "
b00000000 !
#490
1#
b00001111 E
b00001111 !
#498
0%
#500
0#
b01000010 $
b10100 "
b00000000 !
#510
1#
#520
0#
b00001010 $
b00001 "
#525
1%
#530
1#
b00001010 '
b00001010 !
#540
0#
b01000001 $
b11110 "
b00101010 !
#550
1#
b01000001 D
b01000001 !
#559
0%
#560
0#
b00010010 $
b01111 "
b01101110 !
#570
1#
#580
0#
b11110100 $
b11111 "
b00001111 !
#583
1%
#590
1#
b11110100 E
b11110100 !
#600
0#
b10011110 $
b10111 "
b00000000 !
#610
1#
b10011110 =
b10011110 !
#618
0%
#620
0#
b10000000 $
b00110 "
b00000000 !
#630
1#
#640
0#
b10110010 $
b10101 "
b00001010 !
#650
1#
#651
1%
#660
0#
b11111110 $
b00000 "
b00000000 !
#670
1#
b11111110 &
b11111110 !
#680
0#
b00011001 $
b10001 "
b00000000 !
#683
0%
#690
1#
#700
0#
b00000001 $
b10000 "
b01001001 !
#710
1#
#712
1%
#720
0#
b00101010 $
b11000 "
b00000000 !
#730
1#
b00101010 >
b00101010 !
#740
0#
b10010100 $
b00001 "
b00001010 !
#750
1#
b10010100 '
b10010100 !
#760
0#
b00001101 $
b00110 "
b00000000 !
#770
1#
b00001101 ,
b00001101 !
#773
0%
#780
0#
b10010110 $
b11010 "
b00000000 !
#790
1#
#800
0#
b01010100 $
b01010 "
#802
1%
#810
1#
b01010100 0
b01010100 !
#820
0#
b01011000 $
b01011 "
b10000101 !
#830
1#
b01011000 1
b01011000 !
#840
0#
b00011101 $
#842
0%
#850
1#
#860
0#
b00010000 $
b10001 "
b00000000 !
#870
1#
#873
1%
#880
0#
b00101101 $
b10011 "
#890
1#
b00101101 9
b00101101 !
#900
0#
b01001110 $
b01010 "
b01010100 !
#910
1#
b01001110 0
b01001110 !
#920
0#
b00011110 $
b11101 "
b00001001 !
#922
0%
#930
1#
#940
0#
b11111110 $
b01110 "
b11011001 !
#947
1%
#950
1#
b11111110 4
b11111110 !
#960
0#
b00110011 $
b10011 "
b00101101 !
#970
1#
b00110011 9
b00110011 !
#980
0#
b01011110 $
b01010 "
b01001110 !
#988
0%
#990
1#
#1000
0#
b11110010 $
b01111 "
b01101110 !
#1010
1#
#1020
0#
b00011111 $
b00111 "
b11100000 !
#1022
1%
#1030
1#
b00011111 -
b00011111 !
#1040
0#
b11000011 $
b11100 "
b00000000 !
#1050
1#
b11000011 B
b11000011 !
#1052
0%
#1060
0#
b01111101 $
b10010 "
b00000000 !
#1070
1#
#1080
0#
b11110100 $
b11001 "
#1085
1%
#1090
1#
b11110100 ?
b11110100 !
#1100
0#
b01101000 $
b01001 "
b00000000 !
#1110
1#
b01101000 /
b01101000 !
#1120
0#
b01111000 $
b11010 "
b00000000 !
#1126
0%
#1130
1#
#1140
0#
b00101010 $
b10000 "
b01001001 !
#1150
1#
#1153
1%
#1160
0#
b01001110 $
b00100 "
b00110101 !
#1170
1#
b01001110 *
b01001110 !
#1180
0#
b11111101 $
b01111 "
b01101110 !
#1190
1#
b11111101 5
b11111101 !
#1200
0#
b01101010 $
b11001 "
b11110100 !
#1202
0%
#1210
1#
#1220
0#
b01101000 $
b01101 "
b00000000 !
#1225
1%
#1230
1#
b01101000 3
b01101000 !
#1240
0#
b01010011 $
b01110 "
b11111110 !
#1250
1#
b01010011 4
b01010011 !
#1260
0#
b10010001 $
b01101 "
b01101000 !
#1264
0%
#1270
1#
#1280
0#
b01011101 $
b11010 "
b00000000 !
#1288
1%
#1290
1#
b01011101 @
b01011101 !
#1300
0#
b10110110 $
b10000 "
b01001001 !
#1310
1#
b10110110 6
b10110110 !
#1320
0#
b01001101 $
b00111 "
b00011111 !
#1329
0%
#1330
1#
#1340
0#
b10101100 $
b11000 "
b00101010 !
#1350
1#
#1360
0#
b00111100 $
b10011 "
b00110011 !
#1362
1%
#1370
1#
b00111100 9
b00111100 !
#1380
0#
b01110001 $
b11111 "
b11110100 !
#1390
1#
b01110001 E
b01110001 !
#1400
0#
b10001010 $
b00001 "
b10010100 !
#1410
1#
b10001010 '
b10001010 !
#1417
0%
#1420
0#
b11000110 $
b10111 "
b10011110 !
#1430
1#
#1440
0#
b00000000 $
b11011 "
b00000000 !
#1443
1%
#1450
1#
#1460
0#
b10101110 $
b10011 "
b00111100 !
#1470
1#
b10101110 9
b10101110 !
#1480
0#
b11000101 $
b00011 "
b00000000 !
#1490
1#
b11000101 )
b11000101 !
#1497
0%
#1500
0#
b10001010 $
b00100 "
b01001110 !
#1510
1#
#1520
0#
b01001001 $
b00011 "
b11000101 !
#1527
1%
#1530
1#
b01001001 )
b01001001 !
#1540
0#
b00011101 $
b11101 "
b00001001 !
#1550
1#
b00011101 C
b00011101 !
#1560
0#
b01011011 $
b01111 "
b11111101 !
#1567
0%
#1570
1#
#1580
0#
b11011101 $
b01010 "
b01001110 !
#1590
1#
#1598
1%
#1600
0#
b10110110 $
b01110 "
b01010011 !
#1610
1#
b10110110 4
b10110110 !
#1620
0#
b01010111 $
b01111 "
b11111101 !
#1630
1#
b01010111 5
b01010111 !
#1637
0%
#1640
0#
b10101111 $
b00111 "
b00011111 !
#1650
1#
#1660
0#
b11100101 $
b01100 "
b00000000 !
#1665
1%
#1670
1#
b11100101 2
b11100101 !
#1680
0#
b11000111 $
b00110 "
b00001101 !
#1690
1#
b11000111 ,
b11000111 !
#1700
0#
b11100010 $
b10111 "
b10011110 !
#1710
1#
b11100010 =
b11100010 !
#1713
0%
#1720
0#
b01111011 $
b00100 "
b01001110 !
#1730
1#
#1736
1%
#1740
0#
b01011011 $
b10010 "
b00000000 !
#1750
1#
b01011011 8
b01011011 !
#1760
0#
b00100100 $
b01001 "
b01101000 !
#1769
0%
#1770
1#
#1780
0#
b00010101 $
b11000 "
b00101010 !
#1790
1#
#1792
1%
#1800
0#
b00011110 $
b01101 "
b01101000 !
#1810
1#
b00011110 3
b00011110 !
#1820
0#
b01010001 $
b01000 "
b00000000 !
#1827
0%
#1830
1#
#1840
0#
b00110010 $
b01111 "
b01010111 !
#1850
1#
#1851
1%
#1860
0#
b10011101 $
b00010 "
b10000100 !
#1870
1#
b10011101 (
b10011101 !
#1880
0#
b10011001 $
b00110 "
b11000111 !
#1882
0%
#1890
1#
#1900
0#
b10111101 $
b10001 "
b00000000 !
#1907
1%
#1910
1#
b10111101 7
b10111101 !
#1920
0#
b01101010 $
b11010 "
b01011101 !
#1930
1#
b01101010 @
b01101010 !
#1940
0#
b00001000 $
b00001 "
b10001010 !
#1950
1#
b00001000 '
b00001000 !
#1960
0#
b10001100 $
b10001 "
b10111101 !
#1969
0%
#1970
1#
#1980
0#
b10111100 $
b01000 "
b00000000 !
#1990
1#
#1993
1%
#2000
0#
b11101101 $
b10110 "
b11111010 !
#2010
1#
b11101101 <
b11101101 !
#2020
0#
b10100110 $
b00111 "
b00011111 !
#2030
1#
b10100110 -
b10100110 !
#2037
0%
#2040
0#
b01001110 $
b01100 "
b11100101 !
#2050
1#
#2058
1%
#2060
0#
b00110010 $
b00100 "
b01001110 !
#2070
1#
b00110010 *
b00110010 !
#2080
0#
b10111011 $
b11100 "
b11000011 !
#2090
1#
b10111011 B
b10111011 !
#2100
0#
b10100010 $
b10011 "
b10101110 !
#2110
1#
b10100010 9
b10100010 !
#2115
0%
#2120
0#
b11001111 $
b01110 "
b10110110 !
#2130
1#
#2140
0#
b11000000 $
b11100 "
b10111011 !
#2141
1%
#2150
1#
b11000000 B
b11000000 !
#2160
0#
b01110111 $
b11110 "
b01000001 !
#2170
1#
b01110111 D
b01110111 !
#2180
0#
b10100011 $
b11001 "
b11110100 !
#2190
1#
0%
#2200
0#
b10110111 $
b10100 "
b00000000 !
#2210
1#
#2220
0#
b01000111 $
b01111 "
b01010111 !
#2224
1%
#2230
1#
b01000111 5
b01000111 !
#2240
0#
b00101100 $
b10110 "
b11101101 !
#2250
1#
b00101100 <
b00101100 !
#2260
0#
b11001110 $
b10111 "
b11100010 !
#2264
0%
#2270
1#
#2280
0#
b00001111 $
b11010 "
b01101010 !
#2286
1%
#2290
1#
b00001111 @
b00001111 !
#2300
0#
b00110001 $
b01111 "
b01000111 !
#2310
1#
b00110001 5
b00110001 !
#2320
0#
b00110100 $
b10100 "
b00000000 !
#2330
1#
b00110100 :
b00110100 !
#2335
0%
#2340
0#
b00111101 $
b00110 "
b11000111 !
#2350
1#
#2360
0#
b01110011 $
b11000 "
b00101010 !
#2369
1%
#2370
1#
b01110011 >
b01110011 !
#2380
0#
b11001100 $
b00111 "
b10100110 !
#2390
1#
b11001100 -
b11001100 !
#2400
0#
0%
b11101000 $
b01011 "
b01011000 !
#2410
1#
#2420
0#
b01011000 $
b10100 "
b00110100 !
#2421
1%
#2430
1#
b01011000 :
b01011000 !
#2440
0#
b10001100 $
b00000 "
b11111110 !
#2450
1#
b10001100 &
b10001100 !
#2460
0#
0%
b10110111 $
b10010 "
b01011011 !
#2470
1#
#2480
0#
b11110001 $
b01111 "
b00110001 !
#2487
1%
#2490
1#
b11110001 5
b11110001 !
#2500
0#
b01101101 $
b11101 "
b00011101 !
#2510
1#
b01101101 C
b01101101 !
#2520
0#
b11100001 $
b10110 "
b00101100 !
#2530
1#
b11100001 <
b11100001 !
#2540
0#
b01111100 $
b10100 "
b01011000 !
#2548
0%
#2550
1#
#2560
0#
b10000000 $
b00000 "
b10001100 !
#2570
1#
#2574
1%
#2580
0#
b10100000 $
b01100 "
b11100101 !
#2590
1#
b10100000 2
b10100000 !
#2600
0#
b01100100 $
#2610
1#
b01100100 2
b01100100 !
#2620
0#
b10101111 $
b11010 "
b00001111 !
#2623
0%
#2630
1#
#2640
0#
b00110101 $
b00000 "
b10001100 !
#2650
1#
#2657
1%
#2660
0#
b00111101 $
b01101 "
b00011110 !
#2670
1#
b00111101 3
b00111101 !
#2680
0#
b01000011 $
b01110 "
b10110110 !
#2690
1#
b01000011 4
b01000011 !
#2700
0#
b00001110 $
b10110 "
b11100001 !
#2710
1#
b00001110 <
b00001110 !
#2720
0#
b11001110 $
b00111 "
b11001100 !
#2721
0%
#2730
1#
#2740
0#
b00101111 $
b01000 "
b00000000 !
#2750
1#
#2752
1%
#2760
0#
b11101011 $
b11110 "
b01110111 !
#2770
1#
b11101011 D
b11101011 !
#2780
0#
b10100001 $
b10010 "
b01011011 !
#2790
1#
b10100001 8
b10100001 !
#2800
0#
b10011101 $
b00101 "
b00000000 !
#2810
1#
b10011101 +
b10011101 !
#2811
0%
#2820
0#
b00110000 $
b00111 "
b11001100 !
#2830
1#
#2838
1%
#2840
0#
b10011100 $
b00011 "
b01001001 !
#2850
1#
b10011100 )
b10011100 !
#2860
0#
b01010110 $
#2870
1#
b01010110 )
b01010110 !
#2880
0#
b01100010 $
b01000 "
b00000000 !
#2890
1#
0%
#2900
0#
b11110111 $
b01101 "
b00111101 !
#2910
1#
#2911
1%
#2920
0#
b01100111 $
b11101 "
b01101101 !
#2930
1#
b01100111 C
b01100111 !
#2940
0#
b00101110 $
b00000 "
b10001100 !
#2950
1#
b00101110 &
b00101110 !
#2959
0%
#2960
0#
b01001000 $
b11000 "
b01110011 !
#2970
1#
#2979
1%
#2980
0#
b01110100 $
b11101 "
b01100111 !
#2990
1#
b01110100 C
b01110100 !
#3000
0#
b00101110 $
b00000 "
b00101110 !
#3010
1#
#3013
0%
#3020
0#
b11101111 $
b00011 "
b01010110 !
#3030
1#
#3040
0#
b00101000 $
b11000 "
b01110011 !
#3045
1%
#3050
1#
b00101000 >
b00101000 !
#3060
0#
b10001110 $
b00011 "
b01010110 !
#3070
1#
b10001110 )
b10001110 !
#3080
0#
b01111011 $
b01110 "
b01000011 !
#3090
1#
b01111011 4
b01111011 !
#3100
0#
b11100111 $
b10111 "
b11100010 !
#3104
0%
#3110
1#
#3120
0#
b10010000 $
b01011 "
b01011000 !
#3130
1#
#3136
1%
#3140
0#
b00011011 $
b00001 "
b00001000 !
#3150
1#
b00011011 '
b00011011 !
#3160
0#
b10101001 $
b00010 "
b10011101 !
#3167
0%
#3170
1#
#3180
0#
b11110111 $
b11010 "
b00001111 !
#3190
1#
#3199
1%
#3200
0#
b00001011 $
b01111 "
b11110001 !
#3210
1#
b00001011 5
b00001011 !
#3220
0#
b11001010 $
b10001 "
b10111101 !
#3230
1#
b11001010 7
b11001010 !
#3231
0%
#3240
0#
b10001100 $
b01110 "
b01111011 !
#3250
1#
#3259
1%
#3260
0#
b01100001 $
b10001 "
b11001010 !
#3270
1#
b01100001 7
b01100001 !
#3280
0#
b00110010 $
b10011 "
b10100010 !
#3290
1#
b00110010 9
b00110010 !
#3300
0#
b01010001 $
b11110 "
b11101011 !
#3310
1#
b01010001 D
b01010001 !
#3315
0%
#3320
0#
b10101110 $
b00000 "
b00101110 !
#3330
1#
#3340
0#
b10010100 $
b10001 "
b01100001 !
#3344
1%
#3350
1#
b10010100 7
b10010100 !
#3360
0#
b01001000 $
b10010 "
b10100001 !
#3370
1#
b01001000 8
b01001000 !
#3376
0%
#3380
0#
b10110110 $
b00000 "
b00101110 !
#3390
1#
#3400
0#
b01100110 $
b11101 "
b01110100 !
#3404
1%
#3410
1#
b01100110 C
b01100110 !
#3420
0#
b11010001 $
b11100 "
b11000000 !
#3430
1#
b11010001 B
b11010001 !
#3440
0#
b00001010 $
b00010 "
b10011101 !
#3443
0%
#3450
1#
#3460
0#
b01011011 $
b00001 "
b00011011 !
#3463
1%
#3470
1#
b01011011 '
b01011011 !
#3480
0#
b10000101 $
b10000 "
b10110110 !
#3490
1#
b10000101 6
b10000101 !
#3500
0#
b01100110 $
b00101 "
b10011101 !
#3510
1#
b01100110 +
b01100110 !
#3520
0#
b10000100 $
b00000 "
b00101110 !
#3525
0%
#3530
1#
#3540
0#
b01010111 $
b11010 "
b00001111 !
#3550
1#
#3552
1%
#3560
0#
b01011000 $
b01101 "
b00111101 !
#3570
1#
b01011000 3
b01011000 !
#3580
0#
b10111100 $
b10000 "
b10000101 !
#3589
0%
#3590
1#
#3600
0#
b10000011 $
b10010 "
b01001000 !
#3610
1#
#3617
1%
#3620
0#
b11110000 $
b01000 "
b00000000 !
#3630
1#
b11110000 .
b11110000 !
#3640
0#
b10111000 $
b00110 "
b11000111 !
#3650
1#
b10111000 ,
b10111000 !
#3660
0#
b00100111 $
b00000 "
b00101110 !
#3664
0%
#3670
1#
#3680
0#
b01001011 $
b00110 "
b10111000 !
#3690
1#
#3698
1%
#3700
0#
b00010111 $
b10100 "
b01011000 !
#3710
1#
b00010111 :
b00010111 !
#3720
0#
b00010110 $
b00111 "
b11001100 !
#3730
1#
b00010110 -
b00010110 !
#3740
0#
b11110110 $
b01010 "
b01001110 !
#3748
0%
#3750
1#
#3760
0#
b01011101 $
b11111 "
b01110001 !
#3770
1#
#3778
1%
#3780
0#
b00110000 $
b11011 "
b00000000 !
#3790
1#
b00110000 A
b00110000 !
#3800
0#
b00011000 $
b11010 "
b00001111 !
#3810
1#
b00011000 @
b00011000 !
#3816
0%
#3820
0#
b10010100 $
b01000 "
b11110000 !
#3830
1#
#3838
1%
#3840
0#
b01000100 $
b11100 "
b11010001 !
#3850
1#
b01000100 B
b01000100 !
#3860
0#
b10101000 $
b11000 "
b00101000 !
#3870
1#
b10101000 >
b10101000 !
#3880
0#
b11001010 $
b10110 "
b00001110 !
#3882
0%
#3890
1#
#3900
0#
b10110110 $
b10010 "
b01001000 !
#3910
1#
#3911
1%
#3920
0#
b00000010 $
b01011 "
b01011000 !
#3930
1#
b00000010 1
b00000010 !
#3940
0#
b01000001 $
b01100 "
b01100100 !
#3950
1#
b01000001 2
b01000001 !
#3960
0#
b11000001 $
b10011 "
b00110010 !
#3970
1#
0%
#3980
0#
b00111000 $
b01101 "
b01011000 !
#3990
1#
#4000
0#
b11010010 $
b10101 "
b00001010 !
