wellen/inputs/ghdl/alu.vcd
$date
  Mon Nov 25 19:21:45 2019
$end
$version
  GHDL v0
$end
$timescale
  1 fs
$end
$var reg 32 ! op1[31:0] $end
$var reg 32 " op2[31:0] $end
$var reg 1 # cin $end
$var reg 2 $ cmd[1:0] $end
$var reg 32 % res[31:0] $end
$var reg 1 & cout $end
$var reg 1 ' z $end
$var reg 1 ( n $end
$var reg 1 ) v $end
$var reg 1 * vdd $end
$var reg 1 + vss $end
$scope module instance $end
$var reg 32 , op1[31:0] $end
$var reg 32 - op2[31:0] $end
$var reg 1 . cin $end
$var reg 2 / cmd[1:0] $end
$var reg 32 0 res[31:0] $end
$var reg 1 1 cout $end
$var reg 1 2 z $end
$var reg 1 3 n $end
$var reg 1 4 v $end
$var reg 1 5 vdd $end
$var reg 1 6 vss $end
$var reg 32 7 res_temp[31:0] $end
$var reg 1 8 c31 $end
$var reg 1 9 c_out $end
$upscope $end
$enddefinitions $end
#0
b01111111111111111111101001111100 !
b01111001011110100001111000101101 "
1#
b00 $
b11111001011110100001100010101010 %
0&
0'
1(
1)
0*
0+
b01111111111111111111101001111100 ,
b01111001011110100001111000101101 -
1.
b00 /
b11111001011110100001100010101010 0
01
02
13
14
05
06
b11111001011110100001100010101010 7
18
09
#10000
b11010101010001010001100011100101 !
b10001001011101010011001010010110 "
0#
b01011110101110100100101101111011 %
1&
0(
1)
b11010101010001010001100011100101 ,
b10001001011101010011001010010110 -
0.
b01011110101110100100101101111011 0
11
03
14
b01011110101110100100101101111011 7
08
19
#20000
b00101010001001100010110100100001 !
b10010101101011010001111100001110 "
b10111111110100110100110000101111 %
0&
1(
0)
b00101010001001100010110100100001 ,
b10010101101011010001111100001110 -
b10111111110100110100110000101111 0
01
13
04
b10111111110100110100110000101111 7
08
09
#30000
b10101010110101001010000010000001 !
b00100111101010110100100101011000 "
b11010010011111111110100111011001 %
b10101010110101001010000010000001 ,
b00100111101010110100100101011000 -
b11010010011111111110100111011001 0
b11010010011111111110100111011001 7
#40000
b01101000111110110001110101100100 !
b10011100100110010110111101100111 "
b00000101100101001000110011001011 %
1&
0(
0)
b01101000111110110001110101100100 ,
b10011100100110010110111101100111 -
b00000101100101001000110011001011 0
11
03
04
b00000101100101001000110011001011 7
18
19
#50000
b11000011111101000101110111011011 !
b00110011001001111010111010010111 "
1#
b11110111000111000000110001110011 %
0&
1(
0)
b11000011111101000101110111011011 ,
b00110011001001111010111010010111 -
1.
b11110111000111000000110001110011 0
01
13
04
b11110111000111000000110001110011 7
08
09
#60000
b10010111100000001110011111100111 !
b01100110111111111101100110110011 "
b11111110100000001100000110011011 %
b10010111100000001110011111100111 ,
b01100110111111111101100110110011 -
b11111110100000001100000110011011 0
b11111110100000001100000110011011 7
#70000
b01101010001110111101000110111100 !
b11110000111100010001110100000001 "
0#
b01011011001011001110111010111101 %
1&
0(
0)
b01101010001110111101000110111100 ,
b11110000111100010001110100000001 -
0.
b01011011001011001110111010111101 0
11
03
04
b01011011001011001110111010111101 7
18
19
#80000
b01101100101000101100111101111001 !
b10010110100101001111011000001110 "
1#
b00000011001101111100010110001000 %
b01101100101000101100111101111001 ,
b10010110100101001111011000001110 -
1.
b00000011001101111100010110001000 0
b00000011001101111100010110001000 7
#90000
b11011100101110110101100000001010 !
b10100101110100000011000011010101 "
b10000010100010111000100011100000 %
1(
0)
b11011100101110110101100000001010 ,
b10100101110100000011000011010101 -
b10000010100010111000100011100000 0
13
04
b10000010100010111000100011100000 7
18
#100000
b10000001011000111001001000000001 !
b10111000110001001001011100000100 "
b01 $
b10000000010000001001001000000000 %
b10000001011000111001001000000001 ,
b10111000110001001001011100000100 -
b01 /
b10000000010000001001001000000000 0
b10000000010000001001001000000000 7
#110000
b01010100100000111101000111101010 !
b10000001010110001000000111000011 "
0#
b00000000000000001000000111000010 %
1&
0(
0)
b01010100100000111101000111101010 ,
b10000001010110001000000111000011 -
0.
b00000000000000001000000111000010 0
11
03
04
b00000000000000001000000111000010 7
18
19
#120000
b01001000001100101110000000110001 !
b11010111001110001001101101000110 "
b01000000001100001000000000000000 %
b01001000001100101110000000110001 ,
b11010111001110001001101101000110 -
b01000000001100001000000000000000 0
b01000000001100001000000000000000 7
#130000
b00000101000110101001001001010000 !
b10101001001010000111010111111111 "
1#
b00000001000010000001000001010000 %
b00000101000110101001001001010000 ,
b10101001001010000111010111111111 -
1.
b00000001000010000001000001010000 0
b00000001000010000001000001010000 7
#140000
b10000010101101111100110111011111 !
b11101010000010101110111110110100 "
0#
b10000010000000101100110110010100 %
1(
0)
b10000010101101111100110111011111 ,
b11101010000010101110111110110100 -
0.
b10000010000000101100110110010100 0
13
04
b10000010000000101100110110010100 7
18
#150000
b00001110001000000111110011001000 !
b11001010010111011110000101011010 "
b00001010000000000110000001001000 %
1&
0(
0)
b00001110001000000111110011001000 ,
b11001010010111011110000101011010 -
b00001010000000000110000001001000 0
11
03
04
b00001010000000000110000001001000 7
18
19
#160000
b00001111101100010100010110111101 !
b01001010100011110010010111111010 "
b00001010100000010000010110111000 %
0&
b00001111101100010100010110111101 ,
b01001010100011110010010111111010 -
b00001010100000010000010110111000 0
01
b00001010100000010000010110111000 7
08
09
#170000
b11010101100100101010011111100111 !
b11000111001001100010011010000010 "
1#
b11000101000000100010011010000010 %
1&
1(
0)
b11010101100100101010011111100111 ,
b11000111001001100010011010000010 -
1.
b11000101000000100010011010000010 0
11
13
04
b11000101000000100010011010000010 7
18
19
#180000
b00110001000101100110111010000010 !
b00111100101011001100001101001110 "
0#
b00110000000001000100001000000010 %
0&
0(
0)
b00110001000101100110111010000010 ,
b00111100101011001100001101001110 -
0.
b00110000000001000100001000000010 0
01
03
04
b00110000000001000100001000000010 7
08
09
#190000
b11110011010000001010101100110010 !
b11011100111111111010101000010010 "
b11010000010000001010101000010010 %
1&
1(
0)
b11110011010000001010101100110010 ,
b11011100111111111010101000010010 -
b11010000010000001010101000010010 0
11
13
04
b11010000010000001010101000010010 7
18
19
#200000
b00000001010101011101010100110101 !
b00000111100000001000100010001011 "
1#
b10 $
b00000111110101011101110110111111 %
0&
0(
0)
b00000001010101011101010100110101 ,
b00000111100000001000100010001011 -
1.
b10 /
b00000111110101011101110110111111 0
01
03
04
b00000111110101011101110110111111 7
08
09
#210000
b11110111000100010000001110110000 !
b01001110010010111011100110110110 "
0#
b11111111010110111011101110110110 %
0&
1(
0)
b11110111000100010000001110110000 ,
b01001110010010111011100110110110 -
0.
b11111111010110111011101110110110 0
01
13
04
b11111111010110111011101110110110 7
08
09
#220000
b11101001001010000011011011001000 !
b01111011011111010000101011010000 "
1#
b11111011011111010011111011011000 %
b11101001001010000011011011001000 ,
b01111011011111010000101011010000 -
1.
b11111011011111010011111011011000 0
b11111011011111010011111011011000 7
#230000
b11110010010110101011110010100100 !
b11010010110111110001100001000010 "
b11110010110111111011110011100110 %
1&
b11110010010110101011110010100100 ,
b11010010110111110001100001000010 -
b11110010110111111011110011100110 0
11
b11110010110111111011110011100110 7
18
19
#240000
b00111011111111011111101000111001 !
b00001010000000111100010100010101 "
0#
b00111011111111111111111100111101 %
0&
0(
0)
b00111011111111011111101000111001 ,
b00001010000000111100010100010101 -
0.
b00111011111111111111111100111101 0
01
03
04
b00111011111111111111111100111101 7
08
09
#250000
b01000101011000110101011000110111 !
b11100000011000010100101100011010 "
1#
b11100101011000110101111100111111 %
0&
1(
0)
b01000101011000110101011000110111 ,
b11100000011000010100101100011010 -
1.
b11100101011000110101111100111111 0
01
13
04
b11100101011000110101111100111111 7
08
09
#260000
b11111010000011100001100010000011 !
b10110000101110001000111010000100 "
b11111010101111101001111010000111 %
1&
b11111010000011100001100010000011 ,
b10110000101110001000111010000100 -
b11111010101111101001111010000111 0
11
b11111010101111101001111010000111 7
18
19
#270000
b10011011101010101001101110101001 !
b11001100000101000100111000111010 "
0#
b11011111101111101101111110111011 %
b10011011101010101001101110101001 ,
b11001100000101000100111000111010 -
0.
b11011111101111101101111110111011 0
b11011111101111101101111110111011 7
#280000
b00111101101011010111001111010010 !
b11010100001001011011000011110110 "
b11111101101011011111001111110110 %
0&
0)
b00111101101011010111001111010010 ,
b11010100001001011011000011110110 -
b11111101101011011111001111110110 0
01
04
b11111101101011011111001111110110 7
08
09
#290000
b10010000100001101010110111110001 !
b10000111010110111010100010101111 "
b10010111110111111010110111111111 %
1&
b10010000100001101010110111110001 ,
b10000111010110111010100010101111 -
b10010111110111111010110111111111 0
11
b10010111110111111010110111111111 7
18
19
#300000
b00010001111110001001010100010000 !
b00101110110100011000001110111101 "
b11 $
b00111111001010010001011010101101 %
0&
0(
0)
b00010001111110001001010100010000 ,
b00101110110100011000001110111101 -
b11 /
b00111111001010010001011010101101 0
01
03
04
b00111111001010010001011010101101 7
08
09
#310000
b01010100110011111000010111001000 !
b10010010110100111100110011110001 "
b11000110000111000100100100111001 %
0&
1(
0)
b01010100110011111000010111001000 ,
b10010010110100111100110011110001 -
b11000110000111000100100100111001 0
01
13
04
b11000110000111000100100100111001 7
08
09
#320000
b11110110010100110101011011110000 !
b11101111011001001010001000111111 "
1#
b00011001001101111111010011001111 %
1&
0(
1)
b11110110010100110101011011110000 ,
b11101111011001001010001000111111 -
1.
b00011001001101111111010011001111 0
11
03
14
b00011001001101111111010011001111 7
08
19
#330000
b00000011000011000111001010010111 !
b01001110101011111110100111000000 "
0#
b01001101101000111001101101010111 %
0&
0)
b00000011000011000111001010010111 ,
b01001110101011111110100111000000 -
0.
b01001101101000111001101101010111 0
01
04
b01001101101000111001101101010111 7
09
#340000
b11011100011001100101111001001000 !
b00000101101100000010011011011101 "
b11011001110101100111100010010101 %
0&
1(
0)
b11011100011001100101111001001000 ,
b00000101101100000010011011011101 -
b11011001110101100111100010010101 0
01
13
04
b11011001110101100111100010010101 7
08
09
#350000
b11010110110101001111010101001111 !
b10000110011011101100100100111101 "
b01010000101110100011110001110010 %
1&
0(
1)
b11010110110101001111010101001111 ,
b10000110011011101100100100111101 -
b01010000101110100011110001110010 0
11
03
14
b01010000101110100011110001110010 7
08
19
#360000
b10110111010100101001111011000001 !
b10000101101100001001000000100011 "
b00110010111000100000111011100010 %
b10110111010100101001111011000001 ,
b10000101101100001001000000100011 -
b00110010111000100000111011100010 0
b00110010111000100000111011100010 7
#370000
b00110001010010010110001110110110 !
b01000011001001101000001110011000 "
1#
b01110010011011111110000000101110 %
0&
0)
b00110001010010010110001110110110 ,
b01000011001001101000001110011000 -
1.
b01110010011011111110000000101110 0
01
04
b01110010011011111110000000101110 7
09
#380000
b10001111100001001101011000011111 !
b01000111101001100010010001001111 "
0#
b11001000001000101111001001010000 %
0&
1(
0)
b10001111100001001101011000011111 ,
b01000111101001100010010001001111 -
0.
b11001000001000101111001001010000 0
01
13
04
b11001000001000101111001001010000 7
08
09
#390000
b11110011101100000001000111111100 !
b00111110010100111100011100011010 "
1#
b11001101111000111101011011100110 %
b11110011101100000001000111111100 ,
b00111110010100111100011100011010 -
1.
b11001101111000111101011011100110 0
b11001101111000111101011011100110 7
#400000
b10100111111110011010010110101000 !
b10100010000110000000111110010011 "
b00 $
b01001010000100011011010100111100 %
1&
0(
1)
b10100111111110011010010110101000 ,
b10100010000110000000111110010011 -
b00 /
b01001010000100011011010100111100 0
11
03
14
b01001010000100011011010100111100 7
08
19
#410000
b11100100011000101011010001111100 !
b11011110101101100011010001000001 "
b11000011000110001110100010111110 %
1(
0)
b11100100011000101011010001111100 ,
b11011110101101100011010001000001 -
b11000011000110001110100010111110 0
13
04
b11000011000110001110100010111110 7
18
#420000
b01101000110100011000000100010100 !
b11001011000100111110100000100010 "
b00110011111001010110100100110111 %
1&
0(
0)
b01101000110100011000000100010100 ,
b11001011000100111110100000100010 -
b00110011111001010110100100110111 0
11
03
04
b00110011111001010110100100110111 7
18
19
#430000
b00110100100011101101100001000110 !
b00011110111111111111010100100000 "
b01010011100011101100110101100111 %
0&
b00110100100011101101100001000110 ,
b00011110111111111111010100100000 -
b01010011100011101100110101100111 0
01
b01010011100011101100110101100111 7
08
09
#440000
b10100001101100001000110110101011 !
b10001001100111100111110111111000 "
b00101011010011110000101110100100 %
1&
1)
b10100001101100001000110110101011 ,
b10001001100111100111110111111000 -
b00101011010011110000101110100100 0
11
14
b00101011010011110000101110100100 7
19
#450000
b11010011111011100100000110000110 !
b01001100011010101110101111000011 "
0#
b00100000010110010010110101001001 %
1&
0)
b11010011111011100100000110000110 ,
b01001100011010101110101111000011 -
0.
b00100000010110010010110101001001 0
11
04
b00100000010110010010110101001001 7
18
19
#460000
b11100101111110110100101011010000 !
b11000011011010110110101101100111 "
b10101001011001101011011000110111 %
1(
0)
b11100101111110110100101011010000 ,
b11000011011010110110101101100111 -
b10101001011001101011011000110111 0
13
04
b10101001011001101011011000110111 7
18
#470000
b00100101100110110010010001001111 !
b10000101101001111010000111011111 "
b10101011010000101100011000101110 %
0&
0)
b00100101100110110010010001001111 ,
b10000101101001111010000111011111 -
b10101011010000101100011000101110 0
01
04
b10101011010000101100011000101110 7
08
09
#480000
b11101110010001000111101010100000 !
b01010001011001100101001010101101 "
b00111111101010101100110101001101 %
1&
0(
0)
b11101110010001000111101010100000 ,
b01010001011001100101001010101101 -
b00111111101010101100110101001101 0
11
03
04
b00111111101010101100110101001101 7
18
19
#490000
b10110000110100011100010101001000 !
b01011000011000110011101001011110 "
b00001001001101001111111110100110 %
b10110000110100011100010101001000 ,
b01011000011000110011101001011110 -
b00001001001101001111111110100110 0
b00001001001101001111111110100110 7
#500000
b01 $
b00010000010000010000000001001000 %
b01 /
b00010000010000010000000001001000 0
b00010000010000010000000001001000 7
