wellen/inputs/quartus/mipsHardware.vcd
$comment
Copyright (C) 1991-2010 Altera Corporation
Your use of Altera Corporation's design tools, logic functions 
and other software and tools, and its AMPP partner logic 
functions, and any output files from any of the foregoing 
(including device programming or simulation files), and any 
associated documentation or information are expressly subject 
to the terms and conditions of the Altera Program License 
Subscription Agreement, Altera MegaCore Function License 
Agreement, or other applicable license agreement, including, 
without limitation, that your use is for the sole purpose of 
programming logic devices manufactured by Altera and sold by 
Altera or its authorized distributors.  Please refer to the 
applicable agreement for further details.
$end

$date 
  10/19/2019 09:49:22 
$end
$version 
 QUARTUS_VCD_EXPORT 1.0 
$end
$timescale
  1 ps
$end
$scope module schemeHard $end
$var reg 7 ! stateOut[6:0] $end
$var reg 1 " clk $end
$var reg 32 # aluAOut[31:0] $end
$var reg 32 $ aluBOut[31:0] $end
$var reg 3 % alucontrol[2:0] $end
$var reg 32 & aluresult[31:0] $end
$var reg 16 ' bSExtended[15:0] $end
$var reg 2 ( controlLS[1:0] $end
$var reg 1 ) debug $end
$var reg 1 * divByzeroOUT $end
$var reg 1 + divSTOPOUT $end
$var reg 32 , epcOUT[31:0] $end
$var reg 6 - funct[5:0] $end
$var reg 6 . functOut[5:0] $end
$var reg 32 / hiOut[31:0] $end
$var reg 1 0 instControl $end
$var reg 32 1 IORDout[31:0] $end
$var reg 32 2 j[31:0] $end
$var reg 32 3 loOut[31:0] $end
$var reg 32 4 LuiOut[31:0] $end
$var reg 32 5 MDROut[31:0] $end
$var reg 32 6 memoriaOut[31:0] $end
$var reg 4 7 memtoRegmux[3:0] $end
$var reg 1 8 multStopOut $end
$var reg 1 9 muxXCHG $end
$var reg 6 : opcodeW[5:0] $end
$var reg 1 ; overflow $end
$var reg 32 < pcOut[31:0] $end
$var reg 1 = pcWriteS $end
$var reg 32 > pcWriteSource[31:0] $end
$var reg 5 ? rd[4:0] $end
$var reg 16 @ rdshf[15:0] $end
$var reg 1 A RegWriteC $end
$var reg 1 B reset $end
$var reg 1 C resetD2 $end
$var reg 5 D rs[4:0] $end
$var reg 5 E rt[4:0] $end
$var reg 32 F sExtended[31:0] $end
$var reg 5 G shift[4:0] $end
$var reg 32 H shiftOut[31:0] $end
$var reg 1 I sltOut $end
$var reg 32 J SourceSh[31:0] $end
$var reg 32 K storeB[31:0] $end
$var reg 32 L storeData[31:0] $end
$var reg 32 M storeOUT[31:0] $end
$var reg 1 N storeWr $end
$var reg 32 O tratamento[31:0] $end
$var reg 32 P ulaOut_t[31:0] $end
$var reg 32 Q wrData[31:0] $end
$var reg 5 R wrReg[4:0] $end
$var reg 32 S xCHG[31:0] $end
$var reg 32 T xchgOUT[31:0] $end
$scope module inst6 $end
$var reg 32 U Reg0[31:0] $end
$var reg 32 V Reg1[31:0] $end
$var reg 32 W Reg2[31:0] $end
$var reg 32 X Reg3[31:0] $end
$var reg 32 Y Reg4[31:0] $end
$var reg 32 Z Reg5[31:0] $end
$var reg 32 [ Reg6[31:0] $end
$var reg 32 \ Reg7[31:0] $end
$var reg 32 ] Reg8[31:0] $end
$var reg 32 ^ Reg9[31:0] $end
$var reg 32 _ Reg10[31:0] $end
$var reg 32 ` Reg11[31:0] $end
$var reg 32 a Reg12[31:0] $end
$var reg 32 b Reg13[31:0] $end
$var reg 32 c Reg14[31:0] $end
$var reg 32 d Reg15[31:0] $end
$var reg 32 e Reg16[31:0] $end
$var reg 32 f Reg17[31:0] $end
$var reg 32 g Reg18[31:0] $end
$var reg 32 h Reg19[31:0] $end
$var reg 32 i Reg20[31:0] $end
$var reg 32 j Reg21[31:0] $end
$var reg 32 k Reg22[31:0] $end
$var reg 32 l Reg23[31:0] $end
$var reg 32 m Reg24[31:0] $end
$var reg 32 n Reg25[31:0] $end
$var reg 32 o Reg26[31:0] $end
$var reg 32 p Reg27[31:0] $end
$var reg 32 q Reg28[31:0] $end
$var reg 32 r Reg29[31:0] $end
$var reg 32 s Reg30[31:0] $end
$var reg 32 t Reg31[31:0] $end
$upscope $end
$upscope $end
$enddefinitions $end
#0
$dumpvars
b0 !
0"
b0 #
b0 $
b0 %
b0 &
b0 '
b0 (
0)
0*
0+
b0 ,
b0 -
b0 .
b0 /
00
b0 1
b0 2
b0 3
b0 4
b0 5
b0 6
b0 7
08
09
b0 :
0;
b0 <
0=
b0 >
b0 ?
b0 @
0A
0B
0C
b0 D
b0 E
b0 F
b0 G
b0 H
1I
b0 J
b0 K
b0 L
bX M
0N
b0 O
b0 P
b0 Q
b0 R
b0 S
b0 T
b0 U
b0 V
b0 W
b0 X
b0 Y
b0 Z
b0 [
b0 \
b0 ]
b0 ^
b0 _
b0 `
b0 a
b0 b
b0 c
b0 d
b0 e
b0 f
b0 g
b0 h
b0 i
b0 j
b0 k
b0 l
b0 m
b0 n
b0 o
b0 p
b0 q
b0 r
b0 s
b0 t
$end
#10000
b1 !
1"
b100 $
b1 %
b100 &
1)
b1001 7
b100 >
0I
b11100011 Q
b11101 R
#20000
0"
0)
#30000
b10 !
1"
1)
b111100000000010000000000000001 6
1=
#40000
0"
0)
#50000
b11 !
1"
b100 #
b1000 &
1)
10
b100 1
b111100000000010000000000000001 5
b100 <
0=
b1000 >
b111100000000010000000000000001 L
b1 O
#60000
0"
0)
#70000
b100 !
1"
b1 '
1)
b1 -
00
b1000000000000000100 2
b10000000000000000 4
b1111 :
b1 @
b1 E
b1 F
#80000
0"
0)
#90000
b110 !
1"
1)
b1 .
b100000001000010101111010010100 6
b1000 P
#100000
0"
0)
#110000
b1000100 !
1"
b0 #
b1 $
b0 %
b0 &
1)
b100000001000010101111010010100 5
b110 7
b0 >
1A
1I
b100000001000010101111010010100 L
b10010100 O
b10000000000000000 Q
b1 R
#120000
0"
0)
#130000
b1000101 !
1"
b100 #
b0 $
b100 &
1)
b0 7
b100 >
0A
0I
b1000 Q
b10000000000000000 V
#140000
0"
0)
#150000
b0 !
1"
b10000000000000000 $
1)
1I
b10000000000000000 K
#160000
0"
0)
#170000
b1 !
1"
b100 $
b1 %
b1000 &
1)
b1001 7
b1000 >
0I
b11100011 Q
b11101 R
#180000
0"
0)
#190000
b10 !
1"
1)
1=
#200000
0"
0)
#210000
b11 !
1"
b1000 #
b1100 &
1)
10
b1000 1
b1000 <
0=
b1100 >
#220000
0"
0)
#230000
b100 !
1"
b10111101001010000 $
b10111101001011000 &
b101111010010100 '
1)
b10100 -
00
b100001010111101001010000 2
b1011110100101000000000000000000 4
b1000 :
b10111101001011000 >
b1011 ?
b101111010010100 @
b1 D
b101111010010100 F
#240000
0"
0)
#250000
b110 !
1"
1)
b10100 .
b10101100000000010000000010001100 6
b10000000000000000 J
b10111101001011000 P
b10000000000000000 T
#260000
0"
0)
#270000
b1000 !
1"
b10000000000000000 #
b101111010010100 $
b10101111010010100 &
1)
b10101100000000010000000010001100 5
b10101111010010100 >
b10101100000000010000000010001100 L
b10001100 O
#280000
0"
0)
#290000
b1000100 !
1"
b10000000000000000 $
b0 %
b10000000000000000 &
1)
b0 7
b10000000000000000 >
1A
1I
b10101111010010100 P
b10101111010010100 Q
b1 R
#300000
0"
0)
#310000
b1000101 !
1"
b1000 #
b1000 &
1)
b1000 >
0A
b10101111010010100 V
#320000
0"
0)
#330000
b0 !
1"
b10101111010010100 $
1)
b10100 G
b10101111010010100 J
b10101111010010100 K
b10101111010010100 T
#340000
0"
0)
#350000
b1 !
1"
b100 $
b1 %
b1100 &
1)
b1001 7
b1100 >
0I
b11100011 Q
b11101 R
#360000
0"
0)
#370000
b10 !
1"
1)
1=
#380000
0"
0)
#390000
b11 !
1"
b1100 #
b10000 &
1)
10
b1100 1
b1100 <
0=
b10000 >
#400000
0"
0)
#410000
b100 !
1"
b1000110000 $
b1000111100 &
b10001100 '
1)
b1100 -
00
b1000000001000110000 2
b100011000000000000000000 4
b101011 :
b1000111100 >
b0 ?
b10001100 @
b0 D
b10001100 F
#420000
0"
0)
#430000
b110 !
1"
1)
b1100 .
b10001100000000100000000010001100 6
b0 J
b1000111100 P
b0 T
#440000
0"
0)
#450000
b100010 !
1"
b0 #
b10001100 $
b10001100 &
1)
b10001100 1
b10001100000000100000000010001100 5
b110 7
b10001100 >
b10001100000000100000000010001100 L
b100011000000000000000000 Q
b1 R
#460000
0"
0)
#470000
b100011 !
1"
1)
b0 7
b10001100 P
b10001100 Q
#480000
0"
0)
#490000
b1000100 !
1"
1)
b0 6
b10101111010010100 M
1N
#500000
0"
0)
#510000
b1000101 !
1"
b1100 #
b10101111010010100 $
b0 %
b1100 &
1)
b1100 1
b0 5
b1100 >
1I
b0 L
0N
b0 O
#520000
0"
0)
#530000
b0 !
1"
1)
b10101111010010100 6
#540000
0"
0)
#550000
b1 !
1"
b100 $
b1 %
b10000 &
1)
b10101111010010100 5
b10001100000000100000000010001100 6
b1001 7
b10000 >
0I
b10101111010010100 L
b10010100 O
b11100011 Q
b11101 R
#560000
0"
0)
#570000
b10 !
1"
1)
b10001100000000100000000010001100 5
1=
b10001100000000100000000010001100 L
b10001100 O
#580000
0"
0)
#590000
b11 !
1"
b10000 #
b10100 &
1)
10
b10000 1
b10000 <
0=
b10100 >
#600000
0"
0)
#610000
b100 !
1"
b1000110000 $
b1001000000 &
1)
00
b10000000001000110000 2
b100011 :
b1001000000 >
b10 E
#620000
0"
0)
#630000
b110 !
1"
1)
b10000100000000110000000010001100 6
b0 G
b0 K
b1001000000 P
#640000
0"
0)
#650000
b11001 !
1"
b0 #
b10001100 $
b10001100 &
1)
b10001100 1
b10000100000000110000000010001100 5
b110 7
b10001100 >
b10000100000000110000000010001100 L
b100011000000000000000000 Q
b10 R
#660000
0"
0)
#670000
b11010 !
1"
1)
b0 7
b1001000000 Q
#680000
0"
0)
#690000
b11011 !
1"
b1 (
1)
b10101111010010100 6
b1 7
b10000100000000110000000010001100 Q
#700000
0"
0)
#710000
b1000100 !
1"
1)
b10101111010010100 5
1A
b10101111010010100 L
b10010100 O
b10101111010010100 Q
#720000
0"
0)
#730000
b1000101 !
1"
b10000 #
b0 $
b0 %
b10000 &
b0 (
1)
b10000 1
b0 7
b10000 >
0A
b1001000000 Q
b10101111010010100 W
#740000
0"
0)
#750000
b0 !
1"
b10101111010010100 $
1)
b10100 G
1I
b10101111010010100 K
#760000
0"
0)
#770000
b1 !
1"
b100 $
b1 %
b10100 &
1)
b10000100000000110000000010001100 6
b1001 7
b10100 >
0I
b11100011 Q
b11101 R
#780000
0"
0)
#790000
b10 !
1"
1)
b10000100000000110000000010001100 5
1=
b10000100000000110000000010001100 L
b10001100 O
#800000
0"
0)
#810000
b11 !
1"
b10100 #
b11000 &
1)
10
b10100 1
b10100 <
0=
b11000 >
#820000
0"
0)
#830000
b100 !
1"
b1000110000 $
b1001000100 &
1)
00
b11000000001000110000 2
b100001 :
b1001000100 >
b11 E
#840000
0"
0)
#850000
b110 !
1"
1)
b10000000000001000000000010001100 6
b0 G
b0 K
b1001000100 P
#860000
0"
0)
#870000
b11100 !
1"
b0 #
b10001100 $
b10001100 &
1)
b10001100 1
b10000000000001000000000010001100 5
b110 7
b10001100 >
b10000000000001000000000010001100 L
b100011000000000000000000 Q
b11 R
#880000
0"
0)
#890000
b11101 !
1"
1)
b0 7
b1001000100 Q
#900000
0"
0)
#910000
b11110 !
1"
b10 (
1)
b10101111010010100 6
b1 7
b10001100 Q
#920000
0"
0)
#930000
b1000100 !
1"
1)
b10101111010010100 5
1A
b10101111010010100 L
b10010100 O
b101111010010100 Q
#940000
0"
0)
#950000
b1000101 !
1"
b10100 #
b0 $
b0 %
b10100 &
b0 (
1)
b10100 1
b0 7
b10100 >
0A
b1001000100 Q
b101111010010100 X
#960000
0"
0)
#970000
b0 !
1"
b101111010010100 $
1)
b10100 G
1I
b101111010010100 K
#980000
0"
0)
#990000
b1 !
1"
b100 $
b1 %
b11000 &
1)
b10000000000001000000000010001100 6
b1001 7
b11000 >
0I
b11100011 Q
b11101 R
#1000000
0"
0)
#1010000
b10 !
1"
1)
b10000000000001000000000010001100 5
1=
b10000000000001000000000010001100 L
b10001100 O
#1020000
0"
0)
#1030000
b11 !
1"
b11000 #
b11100 &
1)
10
b11000 1
b11000 <
0=
b11100 >
#1040000
0"
0)
#1050000
b100 !
1"
b1000110000 $
b1001001000 &
1)
00
b100000000001000110000 2
b100000 :
b1001001000 >
b100 E
#1060000
0"
0)
#1070000
b110 !
1"
1)
b100000001000010000000000000001 6
b0 G
b0 K
b1001001000 P
#1080000
0"
0)
#1090000
b11111 !
1"
b0 #
b10001100 $
b10001100 &
1)
b10001100 1
b100000001000010000000000000001 5
b110 7
b10001100 >
b100000001000010000000000000001 L
b1 O
b100011000000000000000000 Q
b100 R
#1100000
0"
0)
#1110000
b100000 !
1"
1)
b0 7
b1001001000 Q
#1120000
0"
0)
#1130000
b100001 !
1"
b11 (
1)
b10101111010010100 6
b1 7
b1 Q
#1140000
0"
0)
#1150000
b1000100 !
1"
1)
b10101111010010100 5
1A
b10101111010010100 L
b10010100 O
b10010100 Q
#1160000
0"
0)
#1170000
b1000101 !
1"
b11000 #
b0 $
b0 %
b11000 &
b0 (
1)
b11000 1
b0 7
b11000 >
0A
b1001001000 Q
b10010100 Y
#1180000
0"
0)
#1190000
b0 !
1"
b10010100 $
1)
b10100 G
1I
b10010100 K
#1200000
0"
0)
#1210000
b1 !
1"
b100 $
b1 %
b11100 &
1)
b100000001000010000000000000001 6
b1001 7
b11100 >
0I
b11100011 Q
b11101 R
#1220000
0"
0)
#1230000
b10 !
1"
1)
b100000001000010000000000000001 5
1=
b100000001000010000000000000001 L
b1 O
#1240000
0"
0)
#1250000
b11 !
1"
b11100 #
b100000 &
1)
10
b11100 1
b11100 <
0=
b100000 >
#1260000
0"
0)
#1270000
b100 !
1"
b1 '
1)
b1 -
00
b100001000000000000000100 2
b10000000000000000 4
b1000 :
b1 @
b1 D
b1 E
b1 F
#1280000
0"
0)
#1290000
b110 !
1"
1)
b1 .
b100000000001010000000000100011 6
b10101111010010100 J
b10101111010010100 K
b100000 P
b10101111010010100 T
#1300000
0"
0)
#1310000
b1000 !
1"
b10101111010010100 #
b1 $
b10101111010010101 &
1)
b100000000001010000000000100011 5
b10101111010010101 >
b100000000001010000000000100011 L
b100011 O
#1320000
0"
0)
#1330000
b1000100 !
1"
b10101111010010100 $
b0 %
b10101111010010100 &
1)
b0 7
b10101111010010100 >
1A
1I
b10101111010010101 P
b10101111010010101 Q
b1 R
#1340000
0"
0)
#1350000
b1000101 !
1"
b11100 #
b11100 &
1)
b11100 >
0A
b10101111010010101 V
#1360000
0"
0)
#1370000
b0 !
1"
b10101111010010101 $
1)
b10101 G
b10101111010010101 J
b10101111010010101 K
b10101111010010101 T
#1380000
0"
0)
#1390000
b1 !
1"
b100 $
b1 %
b100000 &
1)
b1001 7
b100000 >
0I
b11100011 Q
b11101 R
#1400000
0"
0)
#1410000
b10 !
1"
1)
1=
#1420000
0"
0)
#1430000
b11 !
1"
b100000 #
b100100 &
1)
10
b100000 1
b100000 <
0=
b100100 >
#1440000
0"
0)
#1450000
b100 !
1"
b10001100 $
b10101100 &
b100011 '
1)
b100011 -
00
b101000000000010001100 2
b1000110000000000000000 4
b10101100 >
b100011 @
b0 D
b101 E
b100011 F
#1460000
0"
0)
#1470000
b110 !
1"
1)
b100011 .
b100101000010000000000000001 6
b0 G
b0 J
b0 K
b10101100 P
b0 T
#1480000
0"
0)
#1490000
b1000 !
1"
b0 #
b100011 $
b100011 &
1)
b100101000010000000000000001 5
b100011 >
b100101000010000000000000001 L
b1 O
#1500000
0"
0)
#1510000
b1000100 !
1"
b0 $
b0 %
b0 &
1)
b0 7
b0 >
1A
1I
b100011 P
b100011 Q
b101 R
#1520000
0"
0)
#1530000
b1000101 !
1"
b100000 #
b100000 &
1)
b100000 >
0A
0I
b100011 Z
#1540000
0"
0)
#1550000
b0 !
1"
b100011 $
1)
b11 G
1I
b100011 K
#1560000
0"
0)
#1570000
b1 !
1"
b100 $
b1 %
b100100 &
1)
b1001 7
b100100 >
0I
b11100011 Q
b11101 R
#1580000
0"
0)
#1590000
b10 !
1"
1)
1=
#1600000
0"
0)
#1610000
b11 !
1"
b100100 #
b101000 &
1)
10
b100100 1
b100100 <
0=
b101000 >
#1620000
0"
0)
#1630000
b100 !
1"
b1 '
1)
b1 -
00
b10100001000000000000000100 2
b10000000000000000 4
b1 :
b1 @
b101 D
b1 E
b1 F
#1640000
0"
0)
#1650000
b110 !
1"
1)
b1 .
b10001100000001010000000010001100 6
b10101 G
b100011 J
b10101111010010101 K
b101000 P
b100011 T
#1660000
0"
0)
#1670000
b101000 !
1"
b100011 #
b10101111010010101 $
b0 %
b100011 &
1)
b100011 1
b10001100000001010000000010001100 5
1I
b10001100000001010000000010001100 L
b10001100 O
#1680000
0"
0)
#1690000
b101001 !
1"
1)
b100011 >
#1700000
0"
0)
#1710000
b101010 !
1"
1)
b101000000001000110000000100 6
#1720000
0"
0)
#1730000
b1000100 !
1"
b101000000001000110000000100 #
b111 %
b0 &
1)
b0 1
b101000000001000110000000100 5
b101000 >
0I
b101000000001000110000000100 L
b100 O
#1740000
0"
0)
#1750000
b1000101 !
1"
b100100 #
b0 %
b100100 &
1)
b100100 1
b0 7
b100100 >
1I
b101000 Q
b1 R
#1760000
0"
0)
#1770000
b0 !
1"
1)
b111100000000010000000000000001 6
#1780000
0"
0)
#1790000
b1 !
1"
b100 $
b1 %
b101000 &
1)
b111100000000010000000000000001 5
b10001100000001010000000010001100 6
b1001 7
b101000 >
0I
b111100000000010000000000000001 L
b1 O
b11100011 Q
b11101 R
#1800000
0"
0)
#1810000
b10 !
1"
1)
b10001100000001010000000010001100 5
1=
b10001100000001010000000010001100 L
b10001100 O
#1820000
0"
0)
#1830000
b11 !
1"
b101000 #
b101100 &
1)
10
b101000 1
b101000 <
0=
b101100 >
#1840000
0"
0)
#1850000
b100 !
1"
b1000110000 $
b1001011000 &
b10001100 '
1)
b1100 -
00
b101000000001000110000 2
b100011000000000000000000 4
b100011 :
b1001011000 >
b10001100 @
b0 D
b101 E
b10001100 F
#1860000
0"
0)
#1870000
b110 !
1"
1)
b1100 .
b111100000001110000000000010101 6
b11 G
b0 J
b100011 K
b1001011000 P
b0 T
#1880000
0"
0)
#1890000
b11001 !
1"
b0 #
b10001100 $
b10001100 &
1)
b10001100 1
b111100000001110000000000010101 5
b110 7
b10001100 >
b111100000001110000000000010101 L
b10101 O
b100011000000000000000000 Q
b101 R
#1900000
0"
0)
#1910000
b11010 !
1"
1)
b0 7
b1001011000 Q
#1920000
0"
0)
#1930000
b11011 !
1"
b1 (
1)
b10101111010010100 6
b1 7
b111100000001110000000000010101 Q
#1940000
0"
0)
#1950000
b1000100 !
1"
1)
b10101111010010100 5
1A
b10101111010010100 L
b10010100 O
b10101111010010100 Q
#1960000
0"
0)
#1970000
b1000101 !
1"
b101000 #
b100011 $
b0 %
b101000 &
b0 (
1)
b101000 1
b0 7
b101000 >
0A
b1001011000 Q
b10101111010010100 Z
#1980000
0"
0)
#1990000
b0 !
1"
b10101111010010100 $
1)
b10100 G
1I
b10101111010010100 K
#2000000
0"
0)
#2010000
b1 !
1"
b100 $
b1 %
b101100 &
1)
b111100000001110000000000010101 6
b1001 7
b101100 >
0I
b11100011 Q
b11101 R
#2020000
0"
0)
#2030000
b10 !
1"
1)
b111100000001110000000000010101 5
1=
b111100000001110000000000010101 L
b10101 O
#2040000
0"
0)
#2050000
b11 !
1"
b101100 #
b110000 &
1)
10
b101100 1
b101100 <
0=
b110000 >
#2060000
0"
0)
#2070000
b100 !
1"
b1010100 $
b10000000 &
b10101 '
1)
b10101 -
00
b111000000000001010100 2
b101010000000000000000 4
b1111 :
b10000000 >
b10101 @
b111 E
b10101 F
#2080000
0"
0)
#2090000
b110 !
1"
1)
b10101 .
b10101100000001110000000010010000 6
b0 G
b0 K
b10000000 P
#2100000
0"
0)
#2110000
b1000100 !
1"
b0 #
b10101 $
b0 %
b0 &
1)
b10101100000001110000000010010000 5
b110 7
b0 >
1A
1I
b10101100000001110000000010010000 L
b10010000 O
b101010000000000000000 Q
b111 R
#2120000
0"
0)
#2130000
b1000101 !
1"
b101100 #
b0 $
b101100 &
1)
b0 7
b101100 >
0A
0I
b10000000 Q
b101010000000000000000 \
#2140000
0"
0)
#2150000
b0 !
1"
b101010000000000000000 $
1)
1I
b101010000000000000000 K
#2160000
0"
0)
#2170000
b1 !
1"
b100 $
b1 %
b110000 &
1)
b1001 7
b110000 >
0I
b11100011 Q
b11101 R
#2180000
0"
0)
#2190000
b10 !
1"
1)
1=
#2200000
0"
0)
#2210000
b11 !
1"
b110000 #
b110100 &
1)
10
b110000 1
b110000 <
0=
b110100 >
#2220000
0"
0)
#2230000
b100 !
1"
b1001000000 $
b1001110000 &
b10010000 '
1)
b10000 -
00
b111000000001001000000 2
b100100000000000000000000 4
b101011 :
b1001110000 >
b10010000 @
b10010000 F
#2240000
0"
0)
#2250000
b110 !
1"
1)
b10000 .
b10100100000000110000000010010000 6
b1001110000 P
#2260000
0"
0)
#2270000
b100010 !
1"
b0 #
b10010000 $
b10010000 &
1)
b10010000 1
b10100100000000110000000010010000 5
b110 7
b10010000 >
b10100100000000110000000010010000 L
b100100000000000000000000 Q
b111 R
#2280000
0"
0)
#2290000
b100011 !
1"
1)
b0 7
b10010000 P
b10010000 Q
#2300000
0"
0)
#2310000
b1000100 !
1"
1)
b0 6
b101010000000000000000 M
1N
#2320000
0"
0)
#2330000
b1000101 !
1"
b110000 #
b101010000000000000000 $
b0 %
b110000 &
1)
b110000 1
b0 5
b110000 >
1I
b0 L
0N
b0 O
#2340000
0"
0)
#2350000
b0 !
1"
1)
b101010000000000000000 6
#2360000
0"
0)
#2370000
b1 !
1"
b100 $
b1 %
b110100 &
1)
b101010000000000000000 5
b10100100000000110000000010010000 6
b1001 7
b110100 >
0I
b101010000000000000000 L
b11100011 Q
b11101 R
#2380000
0"
0)
#2390000
b10 !
1"
1)
b10100100000000110000000010010000 5
1=
b10100100000000110000000010010000 L
b10010000 O
#2400000
0"
0)
#2410000
b11 !
1"
b110100 #
b111000 &
1)
10
b110100 1
b110100 <
0=
b111000 >
#2420000
0"
0)
#2430000
b100 !
1"
b1001000000 $
b1001110100 &
1)
00
b11000000001001000000 2
b101001 :
b1001110100 >
b11 E
#2440000
0"
0)
#2450000
b110 !
1"
1)
b10001100000010000000000010010000 6
b10100 G
b101111010010100 K
b1001110100 P
#2460000
0"
0)
#2470000
b100100 !
1"
b0 #
b10010000 $
b10010000 &
1)
b10010000 1
b10001100000010000000000010010000 5
b110 7
b10010000 >
b10001100000010000000000010010000 L
b100100000000000000000000 Q
b11 R
#2480000
0"
0)
#2490000
b100101 !
1"
1)
b0 7
b10010000 P
b10010000 Q
#2500000
0"
0)
#2510000
b1000100 !
1"
1)
b101010000000000000000 6
b10001100000010000101111010010100 M
1N
#2520000
0"
0)
#2530000
b1000101 !
1"
b110100 #
b101111010010100 $
b0 %
b110100 &
1)
b110100 1
b101010000000000000000 5
b110100 >
1I
b101010000000000000000 L
b101010000000010010100 M
0N
b0 O
#2540000
0"
0)
#2550000
b0 !
1"
1)
b10001100000010000101111010010100 6
#2560000
0"
0)
#2570000
b1 !
1"
b100 $
b1 %
b111000 &
1)
b10001100000010000101111010010100 5
b10001100000010000000000010010000 6
b1001 7
b111000 >
0I
b10001100000010000101111010010100 L
b10010100 O
b11100011 Q
b11101 R
#2580000
0"
0)
#2590000
b10 !
1"
1)
b10001100000010000000000010010000 5
1=
b10001100000010000000000010010000 L
b10010000 O
#2600000
0"
0)
#2610000
b11 !
1"
b111000 #
b111100 &
1)
10
b111000 1
b111000 <
0=
b111100 >
#2620000
0"
0)
#2630000
b100 !
1"
b1001000000 $
b1001111000 &
1)
00
b1000000000001001000000 2
b100011 :
b1001111000 >
b1000 E
#2640000
0"
0)
#2650000
b110 !
1"
1)
b10101100000001110000000010010000 6
b0 G
b0 K
b1001111000 P
#2660000
0"
0)
#2670000
b11001 !
1"
b0 #
b10010000 $
b10010000 &
1)
b10010000 1
b10101100000001110000000010010000 5
b110 7
b10010000 >
b10101100000001110000000010010000 L
b100100000000000000000000 Q
b1000 R
#2680000
0"
0)
#2690000
b11010 !
1"
1)
b0 7
b1001111000 Q
#2700000
0"
0)
#2710000
b11011 !
1"
b1 (
1)
b10001100000010000101111010010100 6
b1 7
b10101100000001110000000010010000 Q
#2720000
0"
0)
#2730000
b1000100 !
1"
1)
b10001100000010000101111010010100 5
1A
b10001100000010000101111010010100 L
b10010100 O
b10001100000010000101111010010100 Q
#2740000
0"
0)
#2750000
b1000101 !
1"
b111000 #
b0 $
b0 %
b111000 &
b0 (
1)
b111000 1
b0 7
b111000 >
0A
b1001111000 Q
b10001100000010000101111010010100 ]
#2760000
0"
0)
#2770000
b0 !
1"
b10001100000010000101111010010100 $
1)
b10100 G
b10001100000010000101111010010100 K
#2780000
0"
0)
#2790000
b1 !
1"
b100 $
b1 %
b111100 &
1)
b10101100000001110000000010010000 6
b1001 7
b111100 >
b11100011 Q
b11101 R
#2800000
0"
0)
#2810000
b10 !
1"
1)
b10101100000001110000000010010000 5
1=
b10101100000001110000000010010000 L
b10010000 O
#2820000
0"
0)
#2830000
b11 !
1"
b111100 #
b1000000 &
1)
10
b111100 1
b111100 <
0=
b1000000 >
#2840000
0"
0)
#2850000
b100 !
1"
b1001000000 $
b1001111100 &
1)
00
b111000000001001000000 2
b101011 :
b1001111100 >
b111 E
#2860000
0"
0)
#2870000
b110 !
1"
1)
b10100000000000110000000010010000 6
b0 G
b101010000000000000000 K
b1001111100 P
#2880000
0"
0)
#2890000
b100010 !
1"
b0 #
b10010000 $
b10010000 &
1)
b10010000 1
b10100000000000110000000010010000 5
b110 7
b10010000 >
b10100000000000110000000010010000 L
b100100000000000000000000 Q
b111 R
#2900000
0"
0)
#2910000
b100011 !
1"
1)
b0 7
b10010000 P
b10010000 Q
#2920000
0"
0)
#2930000
b1000100 !
1"
1)
b10001100000010000101111010010100 6
b101010000000000000000 M
1N
#2940000
0"
0)
#2950000
b1000101 !
1"
b111100 #
b101010000000000000000 $
b0 %
b111100 &
1)
b111100 1
b10001100000010000101111010010100 5
b111100 >
1I
b10001100000010000101111010010100 L
0N
b10010100 O
#2960000
0"
0)
#2970000
b0 !
1"
1)
b101010000000000000000 6
#2980000
0"
0)
#2990000
b1 !
1"
b100 $
b1 %
b1000000 &
1)
b101010000000000000000 5
b10100000000000110000000010010000 6
b1001 7
b1000000 >
0I
b101010000000000000000 L
b0 O
b11100011 Q
b11101 R
#3000000
0"
0)
#3010000
b10 !
1"
1)
b10100000000000110000000010010000 5
1=
b10100000000000110000000010010000 L
b10010000 O
#3020000
0"
0)
#3030000
b11 !
1"
b1000000 #
b1000100 &
1)
10
b1000000 1
b1000000 <
0=
b1000100 >
#3040000
0"
0)
#3050000
b100 !
1"
b1001000000 $
b1010000000 &
1)
00
b11000000001001000000 2
b101000 :
b1010000000 >
b11 E
#3060000
0"
0)
#3070000
b110 !
1"
1)
b10001100000010010000000010010000 6
b10100 G
b101111010010100 K
b1010000000 P
#3080000
0"
0)
#3090000
b100110 !
1"
b0 #
b10010000 $
b10010000 &
1)
b10010000 1
b10001100000010010000000010010000 5
b110 7
b10010000 >
b10001100000010010000000010010000 L
b100100000000000000000000 Q
b11 R
#3100000
0"
0)
#3110000
b100111 !
1"
1)
b0 7
b10010000 P
b10010000 Q
#3120000
0"
0)
#3130000
b1000100 !
1"
1)
b101010000000000000000 6
b10001100000010010000000010010100 M
1N
#3140000
0"
0)
#3150000
b1000101 !
1"
b1000000 #
b101111010010100 $
b0 %
b1000000 &
1)
b1000000 1
b101010000000000000000 5
b1000000 >
1I
b101010000000000000000 L
b101010000000010010100 M
0N
b0 O
#3160000
0"
0)
#3170000
b0 !
1"
1)
b10001100000010010000000010010100 6
#3180000
0"
0)
#3190000
b1 !
1"
b100 $
b1 %
b1000100 &
1)
b10001100000010010000000010010100 5
b10001100000010010000000010010000 6
b1001 7
b1000100 >
0I
b10001100000010010000000010010100 L
b10010100 O
b11100011 Q
b11101 R
#3200000
0"
0)
#3210000
b10 !
1"
1)
b10001100000010010000000010010000 5
1=
b10001100000010010000000010010000 L
b10010000 O
#3220000
0"
0)
#3230000
b11 !
1"
b1000100 #
b1001000 &
1)
10
b1000100 1
b1000100 <
0=
b1001000 >
#3240000
0"
0)
#3250000
b100 !
1"
b1001000000 $
b1010000100 &
1)
00
b1001000000001001000000 2
b100011 :
b1010000100 >
b1001 E
#3260000
0"
0)
#3270000
b110 !
1"
1)
b11111111111111111111111111111111 6
b0 G
b0 K
b1010000100 P
#3280000
0"
0)
#3290000
b11001 !
1"
b0 #
b10010000 $
b10010000 &
1)
b10010000 1
b11111111111111111111111111111111 5
b110 7
b10010000 >
b11111111111111111111111111111111 L
b11111111 O
b100100000000000000000000 Q
b1001 R
#3300000
0"
0)
#3310000
b11010 !
1"
1)
b0 7
b1010000100 Q
#3320000
0"
0)
#3330000
b11011 !
1"
b1 (
1)
b10001100000010010000000010010100 6
b1 7
b11111111111111111111111111111111 Q
#3340000
0"
0)
#3350000
b1000100 !
1"
1)
b10001100000010010000000010010100 5
1A
b10001100000010010000000010010100 L
b10010100 O
b10001100000010010000000010010100 Q
#3360000
0"
0)
#3370000
b1000101 !
1"
b1000100 #
b0 $
b0 %
b1000100 &
b0 (
1)
b1000100 1
b0 7
b1000100 >
0A
b1010000100 Q
b10001100000010010000000010010100 ^
#3380000
0"
0)
#3390000
b0 !
1"
b10001100000010010000000010010100 $
1)
b10100 G
b10001100000010010000000010010100 K
#3400000
0"
0)
